{
  "index": 6,
  "words": 4,
  "title": "孝經",
  "phonetic": "Hiếu kinh",
  "summary": "",
  "sections": [
    {
      "index": 1,
      "title": "Hiếu kinh",
      "summary": "",
      "chapters": [
        {
          "index": 1,
          "title": "Khai Tông Minh Nghĩa",
          "content": "第一章 \n開宗明義 \n仲尼居，曾子侍。子曰：\n先王有至德要道，\n以順天下，民用和睦，\n上下無怨，汝知之乎？\n曾子避席，曰：\n參不敏，何足以知之！\n子曰：夫孝，德之本也，\n教之所由生也。\n復坐，吾語汝。\n身體髮膚，受之父母，\n不敢毀傷，孝之始也；\n立身行道，揚名於后世，\n以顯父母，孝之終也。\n夫孝，始於事親，\n中於事君，終於立身。\n《大雅》云：\n無念爾祖，\n聿修厥德。",
          "phonetic": "Đệ Nhất Chương \nKhai Tông Minh Nghĩa \nTrọng Ni cư, Tăng Tử thị. Tử viết: \n“Tiên vương hữu chí đức yếu đạo, \ndĩ thuận thiên hạ, dân dụng hòa mục, \nthượng hạ vô oán, nhữ tri chi hồ ?” \nTăng Tử tị tịch, viết: \n“Sâm bất mẫn, hà túc dĩ tri chi!” \nTử viết: “Phu hiếu, đức chi bổn dã, \ngiáo chi sở do sinh dã. \nPhục tọa, ngô ngữ nhữ. \nThân thể phát phu, thụ chi phụ mẫu, \nbất cảm hủy thương, hiếu chi thủy dã; \nlập thân hành đạo, dương danh ư hậu thế, \ndĩ hiển phụ mẫu, hiếu chi chung dã. \nPhu hiếu, thủy ư sự thân, \ntrung ư sự quân, chung ư lập thân. \n“Đại nhã” vân: \nVô niệm nhĩ tổ, \nduật tu quyết đức.",
          "translate": "",
          "explain": ""
        },
        {
          "index": 2,
          "title": "Thiên Tử",
          "content": "第二章 \n天子 \n子曰：\n愛親者，不敢惡於人；\n敬親者，不敢慢於人；\n愛敬盡於事親，\n而德教加於百姓，\n刑於四海，蓋天子之孝也。\n《甫刑》云：\n一人有慶，\n兆民賴之。",
          "phonetic": "Đệ Nhị Chương \nThiên Tử \nTử viết: Ái thân giả, bất cảm ác ư nhân; \nKính thân giả, bất cảm mạn ư nhân; \nÁi kính tận ư sự thân, \nnhi đức giáo gia ư bách tính, \nhình ư tứ hải, cái thiên tử chi hiếu dã. \n“Phủ hình” vân: \nNhất nhân hữu khánh, \ntriệu dân lại chi.",
          "translate": "",
          "explain": ""
        },
        {
          "index": 3,
          "title": "Chư Hầu",
          "content": "第三章 \n諸侯 \n在上不驕，高而不危，\n制節謹度，滿而不溢。\n高而不危，所以長守貴也 \n滿而不溢，所以長守富也 \n富貴不離其身，\n然后能保其社稷，\n而和其民人，\n蓋諸侯之孝也。\n《詩》云：\n戰戰兢兢，\n如臨深淵，\n如履薄冰。",
          "phonetic": "Đệ Tam Chương \nChư Hầu \nTại thượng bất kiêu, cao nhi bất nguy, \nchế tiết cẩn độ, mãn nhi bất dật. \nCao nhi bất nguy, sở dĩ trường thủ quý dã; \nMãn nhi bất dật, sở dĩ trường thủ phú dã. \nPhú quý bất li kì thân, \nnhiên hậu năng bảo kì xã tắc, \nnhi hòa kì dân nhân, \ncái chư hầu chi hiếu dã. \n“Thi” vân: \nChiến chiến căng căng, \nNhư lâm thâm uyên, \nNhư lí bạc băng.",
          "translate": "",
          "explain": ""
        },
        {
          "index": 4,
          "title": "Khanh Đại Phu",
          "content": "第四章 \n卿大夫 \n非先王之法服不敢服，\n非先王之法言不敢道，\n非先王之德行不敢行。\n是故 \n非法不言，非道不行。\n口無擇言，身無擇行，\n言滿天下無口過，\n行滿天下無怨惡，\n三者備矣，\n然后能守其宗廟，\n蓋卿，大夫之孝也。《詩》云：\n夙夜匪懈，\n以事一人。",
          "phonetic": "Đệ Tứ Chương \nKhanh Đại Phu \nPhi tiên vương chi pháp phục bất cảm phục, \nphi tiên vương chi pháp ngôn bất cảm đạo, \nphi tiên vương chi đức hành bất cảm hành. \nThị cố \nphi pháp bất ngôn, phi đạo bất hành. \nKhẩu vô trạch ngôn, thân vô trạch hành, \nngôn mãn thiên hạ vô khẩu quá, \nhành mãn thiên hạ vô oán ác, \ntam giả bị hĩ, \nnhiên hậu năng thủ kì tông miếu, \ncái khanh, đại phu chi hiếu dã. \n“Thi” vân: \nTúc dạ phỉ giải, \ndĩ sự nhất nhân.",
          "translate": "",
          "explain": ""
        },
        {
          "index": 5,
          "title": "Sĩ",
          "content": "第五章 \n士 \n資於事父以事母而愛同，\n資於事父以事君而敬同。\n故母取其愛，而君取其敬，\n兼之者父也。\n故以孝事君則忠，\n以敬事長則順；\n忠順不失，以事其上，\n然后能保其祿位，\n而守其祭祀，蓋士之孝也。\n《詩》云：\n夙興夜寐，\n無忝爾所生。",
          "phonetic": "Đệ Ngũ Chương \nSĩ \nTư ư sự phụ dĩ sự mẫu nhi ái đồng, \ntư ư sự phụ dĩ sự quân nhi kính đồng. \nCố mẫu thủ kì ái, nhi quân thủ kì kính, \nkiêm chi giả phụ dã. \nCố dĩ hiếu sự quân tắc trung, \ndĩ kính sự trưởng tắc thuận; \nTrung thuận bất thất, dĩ sự kì thượng, \nnhiên hậu năng bảo kì lộc vị, \nnhi thủ kì tế tự, cái sĩ chi hiếu dã. \n“Thi” vân: \nTúc hưng dạ mị, \nvô thiểm nhĩ sở sinh.",
          "translate": "",
          "explain": ""
        },
        {
          "index": 6,
          "title": "Thứ Nhân",
          "content": "第六章 \n庶人 \n用天之道，分地之利，\n謹身節用，以養父母，\n此庶人之孝也。\n故自天子至於庶人，\n孝無終始而患不及者，\n未之有也。",
          "phonetic": "Đệ Lục Chương \nThứ Nhân \nDụng thiên chi đạo, phân địa chi lợi, \ncẩn thân tiết dụng, dĩ dưỡng phụ mẫu, \nthử thứ nhân chi hiếu dã. \nCố tự thiên tử chí ư thứ nhân, \nhiếu vô chung thủy nhi hoạn bất cập giả, \nvị chi hữu dã.",
          "translate": "",
          "explain": ""
        },
        {
          "index": 7,
          "title": "Tam Tài",
          "content": "第七章 \n三才 \n曾子曰：甚哉，孝之大也 \n子曰：夫孝，\n天之經也，\n地之義也，\n民之行也。\n天地之經而民是則之，\n則天之明，因地之利，\n以順天下，\n是以其教不肅而成，\n其政不嚴而治。\n先王見教之，可以化民也。\n是故先之以博愛，\n而民莫遺其親；\n陳之以德義而民興行；\n先之以敬讓而民不爭；\n導之以禮樂而民和睦；\n示之以好惡而民知禁。\n《詩》云：\n赫赫師尹，\n民具爾瞻。",
          "phonetic": "Đệ Thất Chương \nTam Tài \nTăng tử viết: Thậm tai, hiếu chi đại dã! \nTử viết: Phu hiếu, \nthiên chi kinh dã, \nđịa chi nghĩa dã, \ndân chi hành dã. \nThiên địa chi kinh nhi dân thị tắc chi, \ntắc thiên chi minh, nhân địa chi lợi, \ndĩ thuận thiên hạ, \nthị dĩ kì giáo bất túc nhi thành, \nkì chánh bất nghiêm nhi trì. \nTiên vương kiến giáo chi, khả dĩ hóa dân dã. \nThị cố tiên chi dĩ bác ái, \nnhi dân mạc di kì thân; \nTrần chi dĩ đức nghĩa nhi dân hưng hành; \ntiên chi dĩ kính nhượng nhi dân bất tranh; \nđạo chi dĩ lễ nhạc nhi dân hòa mục; \nThị chi dĩ hảo ác nhi dân tri cấm. \n“Thi” vân: \nHách hách sư duẫn, \ndân cụ nhĩ chiêm.",
          "translate": "",
          "explain": ""
        },
        {
          "index": 8,
          "title": "Hiếu Trị",
          "content": "第八章 \n孝治 \n子曰：昔者明王 \n之以孝治天下也，\n不敢遺小國之臣，\n而況於 \n公,侯,伯,子,男乎？\n故得萬國之讙心，\n以事其先王。\n治國者不敢侮於鰥寡，\n而況於士民乎？\n故得百姓之讙心，\n以事其先君。\n治家者不敢失於臣妾，\n而況於妻子乎？\n故得人之讙心，以事其親。\n夫然，故生則親安之，\n祭則鬼享之，\n是以天下和平，\n災害不生，禍亂不作。\n故明王之以孝 \n治天下也如此。\n《詩》云：\n有覺德行，\n四國順之。",
          "phonetic": "Đệ Bát Chương \nHiếu Trị \nTử viết: Tích giả minh vương \nchi dĩ hiếu trị thiên hạ dã, \nbất cảm di tiểu quốc chi thần, \nnhi huống ư \ncông, hầu, bá, tử, nam hồ? \nCố đắc vạn quốc chi hoan tâm, \ndĩ sự kì tiên vương. \nTrị quốc giả bất cảm vũ ư quan quả, \nnhi huống ư sĩ dân hồ? \nCố đắc bách tính chi hoan tâm, \ndĩ sự kì tiên quân. \nTrị gia giả bất cảm thất ư thần thiếp, \nnhi huống ư thê tử hồ? \nCố đắc nhân chi hoan tâm, dĩ sự kì thân. \nPhu nhiên, cố sinh tắc thân an chi, \ntế tắc quỷ hưởng chi, thị dĩ thiên hạ hòa bình, \ntai hại bất sinh, họa loạn bất tác. \nCố minh vương chi dĩ hiếu trị \nthiên hạ dã như thử. \n“Thi” vân: \nHữu giác đức hành, \nTứ quốc thuận chi.",
          "translate": "",
          "explain": ""
        },
        {
          "index": 9,
          "title": "Thánh Trị",
          "content": "第九章 \n聖治 \n曾子曰：\n敢問聖人之德，\n無以加於孝乎？\n子曰：\n天地之性，人為貴。\n人之行，莫大於孝，\n孝莫大於嚴父，\n嚴父莫大於配天，\n則周公其人也。\n昔者周公郊祀后稷 \n以配天，宗祀文王於 \n明堂以配上帝，\n是以四海之內 \n各以其職來助祭。\n夫聖人之德，\n又何以加於孝乎？\n故親生之膝下，\n以養其父母日嚴。\n聖人因嚴以教敬，\n因親以教愛。\n聖人之教，不肅而成，\n其政不嚴而治，\n其所因者本也。\n父子之道，天性也，\n君臣之義也。\n父母生之，續莫大焉；\n君親臨之，厚莫重焉。\n故不愛其親，而愛他人者，\n謂之悖德；\n不敬其親，而敬他人者，\n謂之悖禮。\n以順則逆，民無則焉，\n不在於善，而皆在於兇德；\n雖得之，君子不貴也。\n君子則不然，\n言思可道，行思可樂，\n德義可尊，作事可法，\n容止可觀，進退可度，\n以臨其民，\n是以其民畏而愛之，\n則而象之。\n故能成其德教，\n而行其政令。《詩》云：\n淑人君子，\n其儀不忒。",
          "phonetic": "Đệ Cửu Chương \nThánh Trị \nTăng tử viết: \nCảm vấn thánh nhân chi đức, \nvô dĩ gia ư hiếu hồ? \nTử viết: \nThiên địa chi tính, nhân vi quý. \nNhân chi hành, mạc đại ư hiếu, \nhiếu mạc đại ư nghiêm phụ, \nnghiêm phụ mạc đại ư phối thiên, tắc Chu Công kì nhân dã. \nTích giả Chu Công giao tự Hậu Tắc \ndĩ phối thiên, tông tự Văn Vương ư \nminh đường dĩ phối thượng đế, \nthị dĩ tứ hải chi nội \ncác dĩ kì chức lai trợ tế. \nPhu thánh nhân chi đức, \nhựu hà dĩ gia ư hiếu hồ? \nCố thân sinh chi tất hạ, \ndĩ dưỡng kì phụ mẫu nhật nghiêm. \nThánh nhân nhân nghiêm dĩ giáo kính, \nnhân thân dĩ giáo ái. \nThánh nhân chi giáo, bất túc nhi thành, \nkì chánh bất nghiêm nhi trì, \nkì sở nhân giả bổn dã. \nPhụ tử chi đạo, thiên tính dã, \nquân thần chi nghĩa dã. \nPhụ mẫu sinh chi, tục mạc đại yên; \nQuân thân lâm chi, hậu mạc trọng yên. \nCố bất ái kì thân, nhi ái tha nhân giả, \nvị chi bội đức; \nBất kính kì thân, nhi kính tha nhân giả, \nvị chi bội lễ. \nDĩ thuận tắc nghịch, dân vô tắc yên, \nbất tại ư thiện, nhi giai tại ư hung đức; \nTuy đắc chi, quân tử bất quý dã. \nQuân tử tắc bất nhiên, \nngôn tư khả đạo, hành tư khả nhạc, \nđức nghĩa khả tôn, tác sự khả pháp, \ndung chỉ khả quan, tiến thối khả độ, \ndĩ lâm kì dân, \nthị dĩ kì dân úy nhi ái chi, \ntắc nhi tượng chi. \nCố năng thành kì đức giáo, \nnhi hành kì chánh lệnh. \n“Thi” vân: \nThục nhân quân tử, \nkì nghi bất thắc.",
          "translate": "",
          "explain": ""
        },
        {
          "index": 10,
          "title": "Kỉ Hiếu Hành",
          "content": "第十章 \n紀孝行 \n子曰：\n孝子之事親也，\n居則致其敬，\n養則致其樂，\n病則致其憂，\n喪則致其哀，\n祭則致其嚴，\n五者備矣，然後能事親。\n事親者，\n居上不驕，\n為下不亂，\n在醜不爭；\n居上而驕則亡，\n為下而亂則刑，\n在醜而爭則兵。\n三者不除，\n雖日用三牲之養，\n猶為不孝也。",
          "phonetic": "Đệ Thập Chương\n Kỉ Hiếu Hành \nTử viết: \nHiếu tử chi sự thân dã, \ncư tắc trí kì kính, \ndưỡng tắc trí kì nhạc, \nbệnh tắc trí kì ưu, \ntang tắc trí kì ai, \ntế tắc trí kì nghiêm, \nngũ giả bị hĩ, nhiên hậu năng sự thân. \nSự thân giả, \ncư thượng bất kiêu, \nvi hạ bất loạn, \ntại xú bất tranh; \ncư thượng nhi kiêu tắc vong, \nvi hạ nhi loạn tắc hình, \ntại xú nhi tranh tắc binh. \nTam giả bất trừ, tuy nhật dụng tam sinh chi dưỡng, \ndo vi bất hiếu dã.",
          "translate": "",
          "explain": ""
        },
        {
          "index": 11,
          "title": "Ngũ Hình",
          "content": "第十一章 \n五刑 \n子曰：\n五刑之屬三千，\n而罪莫大於不孝。\n要君者，無上；\n非聖人者，無法；\n非孝者，無親，\n此大亂之道也。",
          "phonetic": "Đệ Thập Nhất Chương \nNgũ Hình \nTử viết: \nNgũ hình chi chúc tam thiên, \nnhi tội mạc đại ư bất hiếu. \nYếu quân giả, vô thượng; \nPhi thánh nhân giả, vô pháp; \nPhi hiếu giả, vô thân, \nthử đại loạn chi đạo dã.",
          "translate": "",
          "explain": ""
        },
        {
          "index": 12,
          "title": "Quảng Yếu Đạo",
          "content": "第十二章 \n廣要道 \n子曰：\n教民親愛，莫善於孝；\n教民禮順，莫善於悌；\n移風易俗，莫善於樂；\n安上治民，莫善於禮。\n禮者，敬而已矣。\n故敬其父則子悅，\n敬其兄則弟悅，\n敬其君則臣悅，\n敬一人而千萬人悅。\n所敬者寡，而悅者眾，\n此之謂要道也。",
          "phonetic": "Đệ Thập Nhị Chương \nQuảng Yếu Đạo \nTử viết: \nGiáo dân thân ái, mạc thiện ư hiếu; \ngiáo dân lễ thuận, mạc thiện ư đễ; \ndi phong dịch tục, mạc thiện ư nhạc; \nan thượng trì dân, mạc thiện ư lễ. \nLễ giả, kính nhi dĩ hĩ. \nCố kính kì phụ tắc tử duyệt, \nkính kì huynh tắc đệ duyệt, \nkính kì quân tắc thần duyệt, \nkính nhất nhân nhi thiên vạn nhân duyệt. \nSở kính giả quả, nhi duyệt giả chúng, \nthử chi vị yếu đạo dã.",
          "translate": "",
          "explain": ""
        },
        {
          "index": 13,
          "title": "Quảng Chí Đức",
          "content": "第十三章 \n廣至德 \n子曰：\n君子之教以孝也，\n非家至而日見之也。\n教以孝，所以敬天下 \n之為人父者也；\n教以悌，所以敬天下\n之為人兄者也；\n教以臣，所以敬天下 \n之為人君者也。《詩》云：\n愷悌君子，\n民之父母。\n非至德，\n其孰能順民如此，\n其大者乎？",
          "phonetic": "Đệ Thập Tam Chương \nQuảng Chí Đức \nTử viết: \nQuân tử chi giáo dĩ hiếu dã, \nphi gia chí nhi nhật kiến chi dã. \nGiáo dĩ hiếu, sở dĩ kính thiên hạ \nchi vi nhân phụ giả dã; \nGiáo dĩ đễ, sở dĩ kính thiên hạ \nchi vi nhân  huynh giả dã; \nGiáo dĩ thần, sở dĩ kính thiên hạ \nchi vi nhân quân giả dã. \n“Thi” vân: \n“Khải đễ quân tử, \ndân chi phụ mẫu.” \nPhi chí đức, \nkì thục năng thuận dân như thử, \nkì đại giả hồ?",
          "translate": "",
          "explain": ""
        },
        {
          "index": 14,
          "title": "Quảng Dương Danh",
          "content": "第十四章 \n廣揚名 \n子曰：\n君子之事親孝，\n故忠可移於君；\n事兄悌，故順可移於長；\n居家理，故治可移於官。\n是以行成於內，\n而名立於后世矣。",
          "phonetic": "Đệ Thập Tứ Chương \nQuảng Dương Danh \nTử viết: \nQuân tử chi sự thân hiếu, \ncố trung khả di ư quân; \nSự huynh đễ, cố thuận khả di ư trường; \nCư gia lí, cố trị khả di ư quan. \nThị dĩ hành thành ư nội, \nnhi danh lập ư hậu thế hĩ.",
          "translate": "",
          "explain": ""
        },
        {
          "index": 15,
          "title": "Gián Tránh",
          "content": "第十五章 \n諫諍 \n曾子曰：\n若夫慈愛、\n恭敬、安親、揚名，\n則聞命矣！敢問：\n子從父之令，\n可謂孝乎？\n子曰：\n是何言與！是何言與！\n昔者天子有爭臣七人，\n雖無道，不失天下；\n諸侯有爭臣五人，\n雖無道，不失其國；\n大夫有爭臣三人，\n雖無道，不失其家；\n士有爭友，\n則身不離於令名；\n父有爭子，\n則身不陷於不義。\n故當不義，\n則子不可以不爭 \n於父，\n臣不可以不爭於君。\n故當不義則爭之，\n從父之令，\n又焉得為孝乎？",
          "phonetic": "Đệ Thập Ngũ Chương \nGián Tránh \nTăng tử viết: \nNhược phu từ ái, \ncung kính, an thân, dương danh, \ntắc văn mệnh hĩ! Cảm vấn: \nTử tòng phụ chi lệnh, \nkhả vị hiếu hồ? \nTử viết: \nThị hà ngôn dữ! Thị hà ngôn dữ! \nTích giả thiên tử hữu tranh thần thất nhân, \ntuy vô đạo, bất thất thiên hạ; \nChư hầu hữu tranh thần ngũ nhân, \ntuy vô đạo, bất thất kì quốc; \nđại phu hữu tranh thần tam nhân, \ntuy vô đạo, bất thất kì gia; \nSĩ hữu tranh hữu, \ntắc thân bất li ư lệnh danh; \nPhụ hữu tranh tử, tắc thân bất hãm ư bất nghĩa. \nCố đương bất nghĩa, \ntắc tử bất khả dĩ bất tranh \nư phụ, \nthần bất khả dĩ bất tranh ư quân. \nCố đương bất nghĩa tắc tranh chi, \ntòng phụ chi lệnh, \nhựu yên đắc vi hiếu hồ?",
          "translate": "",
          "explain": ""
        },
        {
          "index": 16,
          "title": "Cảm Ứng",
          "content": "第十六章 \n感應 \n子曰：\n昔者明王事父孝，\n故事天明；\n事母孝，故事地察；\n長幼順，故上下治；\n天地明察，神明彰矣！\n故雖天子，必有尊也，\n言有父也；必有先也，\n言有兄也。\n宗廟致敬，不忘親也；\n修身慎行，恐辱先也；\n宗廟致敬，鬼神著矣。\n孝悌之至，通於神明，\n光于四海，無所不通。\n《詩》云：\n自西自東，\n自南自北，\n無思不服。",
          "phonetic": "Đệ Thập Lục Chương \nCảm Ứng \nTử viết: \nTích giả minh vương sự phụ hiếu, \ncố sự thiên minh; \nsự mẫu hiếu, cố sự địa sát; \ntrưởng ấu thuận, cố thượng hạ trị; \nthiên địa minh sát, thần minh chương hĩ! \nCố tuy thiên tử, tất hữu tôn dã, \nngôn hữu phụ dã; Tất hữu tiên dã, \nngôn hữu huynh dã. \nTông miếu trí kính, bất vong thân dã; \ntu thân thận hành, khủng nhục tiên dã; \ntông miếu trí kính, quỷ thần trứ hĩ. \nHiếu đễ chi chí, thông ư thần minh, \nquang vu tứ hải, vô sở bất thông. “Thi” vân: \nTự tây tự đông, \ntự nam tự bắc, \nvô tư bất phục.",
          "translate": "",
          "explain": ""
        },
        {
          "index": 17,
          "title": "Sự Quân",
          "content": "第十七章 \n事君 \n子曰：\n君子之事上也，\n進思盡忠，退思補過，\n將順其美，匡救其惡，\n故上下能相親也。\n《詩》云：\n心乎愛矣！\n遐不謂矣！\n中心藏之，\n何日忘之。",
          "phonetic": "Đệ Thập Thất Chương\n Sự Quân \nTử viết: \nQuân tử chi sự thượng dã, \ntiến tư tận trung, thối tư bổ quá, \ntương thuận kì mĩ, khuông cứu kì ác, \ncố thượng hạ năng tương thân dã. \n“Thi” vân: \nTâm hồ ái hĩ! \nhà bất vị hĩ! \ntrung tâm tàng chi, \nhà nhật vong chi.",
          "translate": "",
          "explain": ""
        },
        {
          "index": 18,
          "title": "Tang Thân",
          "content": "第十八章 \n喪親 \n子曰：\n孝子之喪親也，\n哭不偯、禮無容、\n言不文，服美不安、\n聞樂不樂、食旨不甘，\n此哀戚之情也。\n三日而食，\n教民無以死傷生，\n毀不滅性，\n此聖人之政也；\n喪不過三年，\n示民有終也。\n為之棺槨、\n衣衾而舉之；\n陳其簠簋而哀戚之；\n擗踴哭泣，哀以送之；\n卜其宅兆而安措之；\n為之宗廟，以鬼享之；\n春秋祭祀，以時思之。\n生事愛敬，死事哀戚，\n生民之本盡矣！\n死生之義備矣！\n孝子之事親終矣！",
          "phonetic": "Đệ Thập Bát Chương \nTang Thân \nTử viết: \nHiếu tử chi tang thân dã, \nkhốc bất?, lễ vô dung, \nngôn bất văn, phục mĩ bất an, \nvăn nhạc bất lạc, thực chỉ bất cam, \nthử ai thích chi tình dã. \nTam nhật nhi thực, \ngiáo dân vô dĩ tử thương sinh, \nhủy bất diệt tính, \nthử thánh nhân chi chánh dã; \ntang bất quá tam niên, \nthị dân hữu chung dã. \nVi chi quan quách, \ny khâm nhi cử chi; \nTrần kì phủ quỹ nhi ai thích chi; \nBịch dũng khốc khấp, ai dĩ tống chi; \nBặc kì trạch triệu nhi an thố chi; \nVi chi tông miếu, dĩ quỷ hưởng chi; \nXuân thu tế tự, dĩ thì tư chi. \nSinh sự ái kính, tử sự ai thích, \nsinh dân chi bổn tận hĩ! \ntử sinh chi nghĩa bị hĩ! \nhiếu tử chi sự thân chung hĩ!",
          "translate": "",
          "explain": ""
        }
      ]
    }
  ]
}
