{
  "index": 0,
  "words": 4,
  "title": "明道家訓",
  "phonetic": "Minh Đạo Gia Huấn",
  "summary": "Trình Hạo 程顥 (1032－1085) tự Bá Thuần 伯淳, Hào Minh Đạo 號明道, người đời thường gọi là Minh Đạo Tiên Sinh 明道先生. Ông là người thời Bắc Tống quê ở Lạc Dương Y Xuyên 洛陽伊川 (nay là tỉnh Hà Nam 河南, Trung Quốc). Ông đỗ tiến sĩ năm 1057 và làm qua nhiều chức quan, đời sau truy phong là “Dự Quốc Công” 豫國公. Ông được thờ trong Khổng Miếu 孔廟. \nTrình Di 程頤 (1033 -1107) tự Chánh Thúc 正叔, là em của Trình Hạo, thường gọi là Y Xuyên tiên sinh. Hai anh em được người đời tôn xưng là “Lạc Học” hay Nhị Trình. Đời sau truy phong là Lạc Quốc Công 洛國公, và cũng được thờ ở Khổng Miếu.",
  "sections": [
    {
      "index": 1,
      "title": "Minh Đạo Gia Huấn",
      "summary": "",
      "chapters": [
        {
          "index": 1,
          "title": "Nhân sinh bách nghệ",
          "content": "人生百藝，文學爲先 \n儒士是珍，詩書是寶 \n古者聖賢，易子而教 \n德行純和，擇爲師友",
          "phonetic": "Nhân sinh bách nghệ, văn học vi tiên. \nNho sĩ thị trân, thi thư thị bảo. \nCổ giả thánh hiền, dịch tử nhi giáo. \nĐức hạnh thuần hòa, trạch vi sư hữu.",
          "translate": "Người đời làm cả trăm nghề, Văn Học là nghề đứng đầu. \nNho sĩ là người đáng trọng, Thi Thư là sách đáng quý. \nCác vị thánh hiền thuở xưa đổi con với nhau mà dạy. \nNhững trang đức hạnh thuần hòa đáng chọn làm thầy, làm bạn.",
          "explain": ""
        },
        {
          "index": 2,
          "title": "Dưỡng nhi bất giáo",
          "content": "養而不教，乃父之過 \n教而不嚴，乃師之惰 \n學問不勤，乃子之惡 \n後從先覺，鑑古知今",
          "phonetic": "Dưỡng nhi bất giáo, nãi phụ chi quá. \nGiáo nhi bất nghiêm, nãi sư chi nọa. \nHọc vấn bất cần, nãi tử chi ác. \nHậu tòng tiên giác, giám cổ tri kim",
          "translate": "",
          "explain": ""
        },
        {
          "index": 3,
          "title": "Học hữu tam tâm",
          "content": "學有三心 \n不可失一 \n父母厚實 \n子學勤敏 \n嚴師作成",
          "phonetic": "Học hữu tam tâm, \nBất khả thất nhất \nPhụ mẫu hậu thật, \nTử học cần mẫn, \nNghiêm sư tác thành",
          "translate": "",
          "explain": ""
        },
        {
          "index": 4,
          "title": "Nhân hữu tam tình",
          "content": "人有三情，\n可事如一 \n非父不生，\n非君不榮，\n非師不成。",
          "phonetic": "Nhân hữu tam tình, \nKhả sự như nhất \nPhi phụ bất sinh, \nPhi quân bất vinh, \nPhi sư bất thành.",
          "translate": "",
          "explain": ""
        },
        {
          "index": 5,
          "title": "Hữu đạo đức giả",
          "content": "有道德者，子孫聰明 \n無道德者，子孫愚昧 \n養男不教，不如養驢 \n養女不教，不如養猪 \n訓導之初，先守禮法 \n不知問答，是爲愚癡",
          "phonetic": "Hữu đạo đức giả, tử tôn thông minh. \nVô đạo đức giả, tử tôn ngu muội. \nDưỡng nam bất giáo, bất như dưỡng lư. \nDưỡng nữ bất giáo, bất như dưỡng trư. \nHuấn đạo chi sơ, tiên thủ lễ pháp, \nBất tri vấn đáp, thị vi ngu si.",
          "translate": "",
          "explain": ""
        },
        {
          "index": 6,
          "title": "Bất giáo nhi thiện",
          "content": "不教而善，非聖而何 \n教而後善，非賢而何 \n教而不善，非愚而何 \n困而知之，非智而何",
          "phonetic": "Bất giáo nhi thiện, Phi thánh nhi hà. \nGiáo nhi hậu thiện, Phi hiền nhi hà. \nGiáo nhi bất thiện, Phi ngu nhi hà. \nKhốn nhi tri chi, Phi trí nhi hà.",
          "translate": "",
          "explain": ""
        },
        {
          "index": 7,
          "title": "Hữu điền bất canh",
          "content": "有田不耕，倉廪空虛 \n有書不教，子孫頑愚 \n倉廪空兮，歲時乏食 \n子孫愚兮，禮義全無",
          "phonetic": "Hữu điền bất canh, thương lẫm không hư. \nHữu thư bất giáo, tử tôn ngoan ngu. \nThương lẫm không hề, tuế thì phạp thực. \nTử tôn ngu hề, lễ nghĩa toàn vô.",
          "translate": "",
          "explain": ""
        },
        {
          "index": 8,
          "title": "Phàm nhân bất học",
          "content": "凡人不學，冥如夜行 \n聽書如聳，望字如盲 \n幼而勤學，長則施行 \n正心修身，齊家治國",
          "phonetic": "Phàm nhân bất học, Minh như dạ hành. \nThính thư như tủng, Vọng tự như manh. \nẤu nhi cần học, Trưởng tắc thi hành. \nChánh tâm tu thân, Tề gia trị quốc.",
          "translate": "",
          "explain": ""
        },
        {
          "index": 9,
          "title": "Sĩ tu ư gia",
          "content": "士修於家，自鄉而國 \n科目朝爵，有讀書人 \n貧而勤學，可以立身 \n富而勤學，益榮其名",
          "phonetic": "Sĩ tu ư gia, Tự hương nhi quốc. \nKhoa mục triều tước, Hữu độc thư nhân. \nBần nhi cần học, Khả dĩ lập thân. \nPhú nhi cần học, Ích vinh kì danh.",
          "translate": "",
          "explain": ""
        },
        {
          "index": 10,
          "title": "Khai quyển hữu ích",
          "content": "開卷有益，志者竟成 \n博學廣聞，其智益明 \n不恥下問，義理益精 \n獨學無友，孤陋寡聞",
          "phonetic": "Khai quyển hữu ích, Chí giả cánh thành. \nBác học quảng văn, Kì trí ích minh. \nBất sỉ hạ vấn, Nghĩa lí ích tinh. \nĐộc học vô hữu, Cô lậu quả văn.",
          "translate": "",
          "explain": ""
        },
        {
          "index": 11,
          "title": "Nhân hữu ngũ luân",
          "content": "人有五倫，綱常為首 \n不知綱常，何異禽獸 \n蜂蟻有主，況如人乎 \n三綱九疇，古今不易",
          "phonetic": "Nhân hữu ngũ luân, cương thường vi thủ. \nBất tri cương thường, hà dị cầm thú. \nPhong nghĩ hữu chủ, huống như nhân hồ. \nTam cương cửu trù, cổ kim bất dịch",
          "translate": "",
          "explain": ""
        },
        {
          "index": 12,
          "title": "Vi quân chỉ kính",
          "content": "為君止敬，為臣止忠 \n為父止慈，為子止孝 \n為兄止愛，為弟止龔 \n為夫止和，為婦止順 \n朋友止信，長幼止謙 \n鄉党止和，鄰旁止讓",
          "phonetic": "Vi quân chỉ kính, vi thần chỉ trung. \nVi phụ chỉ từ, vi tử chỉ hiếu. \nVi huynh chỉ ái, vi đệ chỉ cung. \nVi phu chỉ hòa, vi phụ chỉ thuận. \nBằng hữu chỉ tín, trường ấu chỉ khiêm. \nHương đảng chỉ hòa, lân bàng chỉ nhượng.",
          "translate": "",
          "explain": ""
        },
        {
          "index": 13,
          "title": "Hành giả nhượng lộ",
          "content": "行者讓路，耕者讓畔 \n過闕則下，過廟則趨 \n出入起居，非禮不整 \n言語飮食，非禮不肅",
          "phonetic": "Hành giả nhượng lộ, canh giả nhượng bạn. \nQuá khuyết tắc hạ, quá miếu tắc xu. \nXuất nhập khởi cư, phi lễ bất chỉnh. \nNgôn ngữ ẩm thực, phi lễ bất túc.",
          "translate": "",
          "explain": ""
        },
        {
          "index": 14,
          "title": "Tu thân quả dục",
          "content": "修身寡欲，勤儉齊家 \n禁止奢華，須防後用 \n得榮思辱，居安思危 \n道高徳重，不恥劑衣",
          "phonetic": "Tu thân quả dục, cần kiệm tề gia. \nCấm chỉ xa hoa, tu phòng hậu dụng. \nĐắc vinh tư nhục, cư an tư nguy. \nĐạo cao đức trọng, bất sỉ tề y.",
          "translate": "",
          "explain": ""
        },
        {
          "index": 15,
          "title": "Tích cốc phòng cơ",
          "content": "積榖防饑，積衣防寒 \n儉則常足，靜則常安 \n謹備防奸，養子防老 \n事親既孝，子亦孝之",
          "phonetic": "Tích cốc phòng cơ, Tích y phòng hàn. \nKiệm tắc thường túc, Tĩnh tắc thường an. \nCẩn bị phòng gian, Dưỡng tử phòng lão. \nSự thân kí hiếu, Tử diệc hiếu chi.",
          "translate": "",
          "explain": ""
        },
        {
          "index": 16,
          "title": "Phụng dưỡng lễ nghi",
          "content": "奉養禮儀，莫避污穢 \n父母在堂，不可遠遊 \n身体髮膚，受之父母 \n不敢毀傷，孝之始也 \n立身行道，揚名於後 \n以顯父母，孝之終也",
          "phonetic": "Phụng dưỡng lễ nghi, Mạc tị ô uế. \nPhụ mẫu tại đường, Bất khả viễn du. \nThân thể phát phu, Thụ chi phụ mẫu. \nBất cảm hủy thương, Hiếu chi thủy dã. \nLập thân hành đạo, Dương danh ư hậu. \nDĩ hiển phụ mẫu, Hiếu chi chung dã.",
          "translate": "",
          "explain": ""
        },
        {
          "index": 17,
          "title": "Dục hòa thượng hạ",
          "content": "欲和上下，忍字為先 \n君臣忍之，國勢保全 \n父子忍之，自全其道 \n夫婦忍之，令子不孤 \n兄弟忍之，家中無害 \n朋友忍之，其情不疏 \n自身忍之，人人愛樂",
          "phonetic": "Dục hòa thượng hạ, Nhẫn tự vi tiên. \nQuân thần nhẫn chi, Quốc thế bảo toàn. \nPhụ tử nhẫn chi, Tự toàn kì đạo. \nPhu phụ nhẫn chi, Lệnh tử bất cô. \nHuynh đệ nhẫn chi, Gia trung vô hại. \nBằng hữu nhẫn chi, Kì tình bất sơ. \nTự thân nhẫn chi, Nhân nhân ái nhạc.",
          "translate": "",
          "explain": ""
        },
        {
          "index": 18,
          "title": "Gia trung đổ bác",
          "content": "家中賭博，男女皆惡 \n家中有琴，女子不淫 \n家中有棋，男子必衰 \n家中有制，男女守禮",
          "phonetic": "Gia trung đổ bác, Nam nữ giai ác. \nGia trung hữu cầm, Nữ tử bất dâm. \nGia trung hữu kì, Nam tử tất suy. \nGia trung hữu chế, Nam nữ thủ lễ.",
          "translate": "",
          "explain": ""
        },
        {
          "index": 19,
          "title": "Sự vô đại tiểu",
          "content": "事無大小，無得爭衡 \n財產分明，均級群眾 \n莫愛珠玉，愛子孫賢 \n和睦為先，成為美俗",
          "phonetic": "Sự vô đại tiểu, Vô đắc tranh hành. \nTài sản phân minh, Quân cấp quần chúng. \nMạc ái châu ngọc, Ái tử tôn hiền. \nHòa mục vi tiên, Thành vi mĩ tục.",
          "translate": "",
          "explain": ""
        },
        {
          "index": 20,
          "title": "Hôn nhân trạch phối",
          "content": "婚姻擇配，先齊家風 \n清潔閨房，主饋頻藻 \n寡言謹厚，執順唱隨 \n德荇表儀，不須顔色 \n子資母德，女出宮妃 \n子孝孫慈，妻賢子貴",
          "phonetic": "Hôn nhân trạch phối, tiên tề gia phong. \nThanh khiết khuê phòng, chủ quỹ tần tảo. \nQuả ngôn cẩn hậu, chấp thuận xướng tùy. \nĐức hạnh biểu nghi, bất tu nhan sắc. \nTử tư mẫu đức, nữ xuất cung phi. \nTử hiếu tôn từ, thê hiền tử quý.",
          "translate": "",
          "explain": ""
        },
        {
          "index": 21,
          "title": "Nghiệt thê bại tự",
          "content": "孽妻敗嗣，妒婦亂家 \n巧譎是邪，驕訛是詐 \n婦人內助，盛衰之由 \n賢女敬夫，癡人畏婦",
          "phonetic": "Nghiệt thê bại tự, Đố phụ loạn gia. \nXảo quyệt thị tà, Kiêu ngoa thị trá. \nPhụ nhân nội trợ, Thịnh suy chi do. \nHiền nữ kính phu, Si nhân úy phụ.",
          "translate": "",
          "explain": ""
        },
        {
          "index": 22,
          "title": "Bất chánh chi nữ",
          "content": "不正之女，羞以為妻 \n不正之人，羞以為臣 \n女知守節，猶士守身 \n賢妻家寳，賢臣國珍",
          "phonetic": "Bất chánh chi nữ, Tu dĩ vi thê. \nBất chánh chi nhân, Tu dĩ vi thần. \nNữ tri thủ tiết, Do sĩ thủ thân. \nHiền thê gia bảo, Hiền thần quốc trân.",
          "translate": "",
          "explain": ""
        },
        {
          "index": 23,
          "title": "Nam quý trung cần",
          "content": "男貴忠勤，女貴貞勤 \n教婦初來，教子攖孩 \n欲不可縦，欲縦成災 \n樂不可極，樂極生哀",
          "phonetic": "Nam quý trung cần, Nữ quý trinh cần. \nGiáo phụ sơ lai, Giáo tử anh hài. \nDục bất khả túng, Dục túng thành tai. \nNhạc bất khả cực, Nhạc cực sinh ai.",
          "translate": "",
          "explain": ""
        },
        {
          "index": 24,
          "title": "Nữ vật tham tài",
          "content": "女勿貪財，男勿貪色 \n色易殺人，財易殺身 \n術詐遺之，子孫者亡 \n道德遺之，子孫者昌",
          "phonetic": "Nữ vật tham tài, Nam vật tham sắc. \nSắc dịch sát nhân, Tài dịch sát thân. \nThuật trá di chi, Tử tôn giả vong. \nĐạo đức di chi, Tử tôn giả xương.",
          "translate": "",
          "explain": ""
        },
        {
          "index": 25,
          "title": "Bổn cố chi trường",
          "content": "本固枝長，留傳萬代 \n不孝者三，無後為大 \n有親不愛，有兄不敬 \n求他愛敬，豈可得乎",
          "phonetic": "Bổn cố chi trường, Lưu truyền vạn đại. \nBất hiếu giả tam, Vô hậu vi đại. \nHữu thân bất ái, Hữu huynh bất kính. \nCầu tha ái kính, Khởi khả đắc hồ.",
          "translate": "",
          "explain": ""
        },
        {
          "index": 26,
          "title": "Tử quả hiền hĩ",
          "content": "子果賢矣，今雖貧賤 \n後必富貴，子不肖矣 \n今雖富貴，後必貧賤 \n骨肉貧者，情不可疏",
          "phonetic": "Tử quả hiền hĩ, Kim tuy bần tiện. \nHậu tất phú quý, Tử bất tiếu hĩ. \nKim tuy phú quý, Hậu tất bần tiện. \nCốt nhục bần giả, Tình bất khả sơ.",
          "translate": "",
          "explain": ""
        },
        {
          "index": 27,
          "title": "Tha nhân phú giả",
          "content": "他人富者，心不可惡 \n取重於人，是重其身 \n莫效小人，惡人勝己 \n可效君子，成人之美",
          "phonetic": "Tha nhân phú giả, Tâm bất khả ác. \nThủ trọng ư nhân, Thị trọng kì thân. \nMạc hiệu tiểu nhân, Ác nhân thắng kỉ. \nKhả hiệu quân tử, Thành nhân chi mĩ.",
          "translate": "",
          "explain": ""
        },
        {
          "index": 28,
          "title": "Cú vô dã nhân",
          "content": "笱無野人，莫養君子 \n笱無君子，莫治野人 \n居必擇鄰，交必擇友 \n患難相救，過失相規",
          "phonetic": "Cú vô dã nhân, Mạc dưỡng quân tử. \nCú vô quân tử, Mạc trì dã nhân. \nCư tất trạch lân, Giao tất trạch hữu. \nHoạn nan tương cứu, Quá thất tương quy.",
          "translate": "",
          "explain": ""
        },
        {
          "index": 29,
          "title": "Dụng nhân vật nghi",
          "content": "用人勿疑，疑人勿用 \n用人不謹，害隨而至 \n小人失意，起為仇讎 \n小人自驕，恃才矜己 \n無惡小人，是為君子 \n財上分明，是為丈夫",
          "phonetic": "Dụng nhân vật nghi, nghi nhân vật dụng. \nDụng nhân bất cẩn, hại tùy nhi chí. \nTiểu nhân thất ý, khởi vi cừu thù. \nTiểu nhân tự kiêu, thị tài căng kỉ. \nVô ác tiểu nhân, thị vi quân tử. \nTài thượng phân minh, thị vi trượng phu.",
          "translate": "",
          "explain": ""
        },
        {
          "index": 30,
          "title": "Bần nhi vô siểm",
          "content": "貧而無諂，富而無驕 \n清貧常樂，濁富多憂 \n勿恃富貴，自輕其貧 \n是富輕貧，守錢虜耳",
          "phonetic": "Bần nhi vô siểm, Phú nhi vô kiêu. \nThanh bần thường nhạc, Trọc phú đa ưu. \nVật thị phú quý, Tự khinh kì bần. \nThị phú khinh bần, Thủ tiễn lỗ nhĩ.",
          "translate": "",
          "explain": ""
        },
        {
          "index": 31,
          "title": "Cùng nhân vật mạ",
          "content": "窮人勿罵，窮寇勿追 \n鳥窮則飛，犬窮則吠 \n人貪財死，鳥貪食亡 \n饑寒切身，不顧廉恥",
          "phonetic": "Cùng nhân vật mạ, Cùng khấu vật truy. \nĐiểu cùng tắc phi, Khuyển cùng tắc phệ. \nNhân tham tài tử, Điểu tham thực vong. \nCơ hàn thiết thân, Bất cố liêm sỉ.",
          "translate": "",
          "explain": ""
        },
        {
          "index": 32,
          "title": "Tự tiên trách kỉ",
          "content": "自先責己，而後責人 \n含血噴人，先污我口 \n惡言出口，凶神鍳臨 \n善念于心，吉身自現",
          "phonetic": "Tự tiên trách kỉ, Nhi hậu trách nhân. \nHàm huyết phún nhân, Tiên ô ngã khẩu. \nÁc ngôn xuất khẩu, Hung thần giám lâm. \nThiện niệm vu tâm, Cát thân tự hiện.",
          "translate": "",
          "explain": ""
        },
        {
          "index": 33,
          "title": "Tích thiện phùng thiện",
          "content": "積善逢善，積惡逢惡 \n仔細思量，天地不錯 \n人厚遇厚，處處相逢 \n謀深禍深，冤冤相報 \n若遲不報，時身未到 \n種瓜得瓜，種豆得豆 \n天網恢恢，蔬而不漏",
          "phonetic": "Tích thiện phùng thiện, Tích ác phùng ác. \nTử tế tư lượng, Thiên địa bất thác. \nNhân hậu ngộ hậu, Xử xử tương phùng. \nMưu thâm họa thâm, Oan oan tương báo. \nNhược trì bất báo, Thì thân vị đáo. \nChủng qua đắc qua, Chủng đậu đắc đậu. \nThiên võng khôi khôi, Sơ nhi bất lậu.",
          "translate": "",
          "explain": ""
        },
        {
          "index": 34,
          "title": "Hoàng thiên bất phụ",
          "content": "皇天不負，有讀書人 \n皇天不負，有道心人 \n皇天不負，有好心人",
          "phonetic": "Hoàng thiên bất phụ, Hữu độc thư nhân. \nHoàng thiên bất phụ, Hữu đạo tâm nhân. \nHoàng thiên bất phụ, Hữu hảo tâm nhân.",
          "translate": "",
          "explain": ""
        },
        {
          "index": 35,
          "title": "Thương nhân chi ngữ",
          "content": "傷人之語，反傷其身 \n用心不良，豈無果報 \n父母行惡，遺害子孫",
          "phonetic": "Thương nhân chi ngữ, Phản thương kì thân. \nDụng tâm bất lương, Khởi vô quả báo. \nPhụ mẫu hành ác, Di hại tử tôn.",
          "translate": "",
          "explain": ""
        },
        {
          "index": 36,
          "title": "Họa phúc vô môn",
          "content": "禍福無門，惟人所召 \n欲知禍福，先看子孫 \n自家而知，何必問誰",
          "phonetic": "Họa phúc vô môn, Duy nhân sở triệu. \nDục tri họa phúc, Tiên khán tử tôn. \nTự gia nhi tri, Hà tất vấn thùy.",
          "translate": "",
          "explain": ""
        },
        {
          "index": 37,
          "title": "Khắc thâm thái thậm",
          "content": "剋深太甚，沉病難醫 \n謀慮多思，精神耗竭 \n陰謀嫁禍，陰謀鬼神 \n益己害人，明有王憲 \n人心如鐵，官法如爐 \n文法不孤，殺人者死",
          "phonetic": "Khắc thâm thái thậm, Trầm bệnh nan y. \nMưu lự đa tư, Tinh thần háo kiệt. \nÂm mưu giá họa, Âm mưu quỷ thần. \nÍch kỉ hại nhân, Minh hữu vương hiến. \nNhân tâm như thiết, Quan pháp như lô. \nVăn pháp bất cô, Sát nhân giả tử.",
          "translate": "",
          "explain": ""
        },
        {
          "index": 38,
          "title": "Nhân vô viễn lự",
          "content": "人無遠慮，心有近憂 \n謹則無憂，忍則無辱 \n人間囚獄，還是無良 \n天下公侯，皆由有德",
          "phonetic": "Nhân vô viễn lự, Tâm hữu cận ưu. \nCẩn tắc vô ưu, Nhẫn tắc vô nhục. \nNhân gian tù ngục, Hoàn thị vô lương. \nThiên hạ công hầu, Giai do hữu đức.",
          "translate": "",
          "explain": ""
        },
        {
          "index": 39,
          "title": "Cận chu giả xích",
          "content": "近硃者赤，近墨者黑 \n賢德之人，親兒近之 \n終自有益，凶惡之人 \n斥兒遠之，自免禍患",
          "phonetic": "Cận chu giả xích, Cận mặc giả hắc. \nHiền đức chi nhân, Thân nhi cận chi. \nChung tự hữu ích, Hung ác chi nhân. \nXích nhi viễn chi, Tự miễn họa hoạn.",
          "translate": "",
          "explain": ""
        },
        {
          "index": 40,
          "title": "Ái hiền như lan",
          "content": "愛賢如蘭，畏惡如虎 \n城中失火，禍及池魚 \n危邦不入，亂邦不居 \n兵革之間，手身為大",
          "phonetic": "Ái hiền như lan, Úy ác như hổ. \nThành trung thất hỏa, Họa cập trì ngư. \nNguy bang bất nhập, Loạn bang bất cư. \nBinh cách chi gian, Thủ thân vi đại.",
          "translate": "",
          "explain": ""
        },
        {
          "index": 41,
          "title": "Tiểu lợi nhược tham",
          "content": "小利若貪，不成大事 \n小事不忍，必亂大謀 \n利不可獨，利獨則離 \n謀不可眾，眾謀則洩",
          "phonetic": "Tiểu lợi nhược tham, Bất thành đại sự. \nTiểu sự bất nhẫn, Tất loạn đại mưu. \nLợi bất khả độc, Lợi độc tắc li. \nMưu bất khả chúng, Chúng mưu tắc duệ.",
          "translate": "",
          "explain": ""
        },
        {
          "index": 42,
          "title": "Thành sự bất thuyết",
          "content": "成事不說，意莫強求 \n人無妄交，足無妄走 \n食無妄飽，居無妄安 \n無起爭端，無鬥口舌",
          "phonetic": "Thành sự bất thuyết, Ý mạc cường cầu. \nNhân vô vọng giao, Túc vô vọng tẩu. \nThực vô vọng bão, Cư vô vọng an. \nVô khởi tranh đoan, Vô đấu khẩu thiệt.",
          "translate": "",
          "explain": ""
        },
        {
          "index": 43,
          "title": "Ư ngã thiện giả",
          "content": "於我善者，我亦善之 \n於我惡者，我亦善之 \n我有善念，天必隨之 \n彼既為惡，有惡人治",
          "phonetic": "Ư ngã thiện giả, Ngã diệc thiện chi. \nƯ ngã ác giả, Ngã diệc thiện chi. \nNgã hữu thiện niệm, Thiên tất tùy chi. \nBỉ kí vi ác, Hữu ác nhân trì.",
          "translate": "",
          "explain": ""
        },
        {
          "index": 44,
          "title": "Văn nhân chi ác",
          "content": "聞人之惡，口不得言 \n聞人之謗，心不足怒 \n惡人勿罵，窮人勿言 \n若起爭端，是無智盧",
          "phonetic": "Văn nhân chi ác, Khẩu bất đắc ngôn. \nVăn nhân chi báng, Tâm bất túc nộ. \nÁc nhân vật mạ, Cùng nhân vật ngôn. \nNhược khởi tranh đoan, Thị vô trí lô.",
          "translate": "",
          "explain": ""
        },
        {
          "index": 45,
          "title": "Quân tử cẩn ngôn",
          "content": "君子謹言，慎其言語 \n不干己事，莫可當頭 \n無益之言，自有著口",
          "phonetic": "Quân tử cẩn ngôn, Thận kì ngôn ngữ. \nBất kiền kỉ sự, Mạc khả đương đầu. \nVô ích chi ngôn, Tự hữu trứ khẩu.",
          "translate": "",
          "explain": ""
        },
        {
          "index": 46,
          "title": "Quả ngôn trạch giao",
          "content": "寡言擇交，多言勿結 \n多言是月，寡言是忠 \n一言不信，千言無用 \n讒言勿信，反間勿行 \n厺食去兵，信不可去",
          "phonetic": "Quả ngôn trạch giao, Đa ngôn vật kết. \nĐa ngôn thị nguyệt, Quả ngôn thị trung. \nNhất ngôn bất tín, Thiên ngôn vô dụng. \nSàm ngôn vật tín, Phản gian vật hành. \nKhứ thực khứ binh, Tín bất khả khứ.",
          "translate": "",
          "explain": ""
        },
        {
          "index": 47,
          "title": "Thính kì ngôn ngữ",
          "content": "聴其言語，觀其眸子 \n白眼者凶，黑眼者善 \n有心無相，相自心生 \n有心無心，相從心滅 \n順德者昌，逆德者亡",
          "phonetic": "Thính kì ngôn ngữ, Quan kì mâu tử. \nBạch nhãn giả hung, Hắc nhãn giả thiện. \nHữu tâm vô tương, Tương tự tâm sinh. \nHữu tâm vô tâm, Tương tòng tâm diệt. \nThuận đức giả xương, Nghịch đức giả vong.",
          "translate": "",
          "explain": ""
        },
        {
          "index": 48,
          "title": "Quân tử ngộ bần",
          "content": "君子遇貧，守其禮義 \n小人乍富，自望輕人 \n飲食之人，人皆賤之 \n好利之人，人皆惡之 \n賓來易疏，坐久易厭",
          "phonetic": "Quân tử ngộ bần, Thủ kì lễ nghĩa. \nTiểu nhân sạ phú, Tự vọng khinh nhân. \nẨm thực chi nhân, Nhân giai tiện chi. \nHảo lợi chi nhân, Nhân giai ác chi. \nTân lai dịch sơ, Tọa cửu dịch yếm.",
          "translate": "",
          "explain": ""
        },
        {
          "index": 49,
          "title": "Dĩ tiểu nhân tâm",
          "content": "以小人心，度君子腹 \n君子所為，小人不識 \n聖人積德，不積其財 \n君子謀道，不謀其食",
          "phonetic": "Dĩ tiểu nhân tâm, Độ quân tử phúc. \nQuân tử sở vi, Tiểu nhân bất thức. \nThánh nhân tích đức, Bất tích kì tài. \nQuân tử mưu đạo, Bất mưu kì thực.",
          "translate": "",
          "explain": ""
        },
        {
          "index": 50,
          "title": "Phi kỉ chi sắc",
          "content": "非己之色，君子不淫 \n非己之財，君子不取 \n不義之富，視如浮雲 \n救急賑貧，寬則得眾",
          "phonetic": "Phi kỉ chi sắc, Quân tử bất dâm. \nPhi kỉ chi tài, Quân tử bất thủ. \nBất nghĩa chi phú, Thị như phù vân. \nCứu cấp chẩn bần, Khoan tắc đắc chúng.",
          "translate": "",
          "explain": ""
        },
        {
          "index": 51,
          "title": "Bình thời giảng vũ",
          "content": "平時講武，亂時讀書 \n君子見幾，不俟终日",
          "phonetic": "Bình thời giảng vũ, Loạn thời độc thư. \nQuân tử kiến ki, Bất sĩ chung nhật.",
          "translate": "",
          "explain": ""
        },
        {
          "index": 52,
          "title": "Cùng tất hữu đạt",
          "content": "窮必有達，否極泰來 \n但患無才，不患無用 \n事無妄動，心無妄思 \n官不在愚，富不在懶",
          "phonetic": "Cùng tất hữu đạt, Phủ cực thái lai. \nĐãn hoạn vô tài, Bất hoạn vô dụng. \nSự vô vọng động, Tâm vô vọng tư. \nQuan bất tại ngu, Phú bất tại lại.",
          "translate": "",
          "explain": ""
        },
        {
          "index": 53,
          "title": "Tự tri phân giả",
          "content": "自知分者，不可尤人 \n自知命者，不可怨天 \n知止常止，終身不恥 \n知足常足，終身不辱",
          "phonetic": "Tự tri phân giả, Bất khả vưu nhân. \nTự tri mệnh giả, Bất khả oán thiên. \nTri chỉ thường chỉ, Chung thân bất sỉ. \nTri túc thường túc, Chung thân bất nhục.",
          "translate": "",
          "explain": ""
        },
        {
          "index": 54,
          "title": "Minh minh hoàng tổ",
          "content": "明明皇祖，垂訓有五 \n內作色荒，外作禽荒 \n甘酒嗜音，峻宇雕墻 \n有一于此，未或不忘",
          "phonetic": "Minh minh hoàng tổ, Thùy huấn hữu ngũ. \nNội tác sắc hoang, Ngoại tác cầm hoang. \nCam tửu thị âm, Tuấn vũ điêu tường. \nHữu nhất vu thử, Vị hoặc bất vong.",
          "translate": "",
          "explain": ""
        },
        {
          "index": 55,
          "title": "Huấn tử nghĩa phương",
          "content": "訓子義方，失孝者八 \n學問不勤，賭博亡身 \n酒色爭鬥，盜偷奔走 \n爭訟敗家，宗族不和 \n父母不愛",
          "phonetic": "Huấn tử nghĩa phương, Thất hiếu giả bát. \nHọc vấn bất cần, Đổ bác vong thân. \nTửu sắc tranh đấu, Đạo thâu bôn tẩu. \nTranh tụng bại gia, Tông tộc bất hòa. \nPhụ mẫu bất ái.",
          "translate": "",
          "explain": ""
        },
        {
          "index": 56,
          "title": "Tri quá nhi cải",
          "content": "知過而改，亦可為賢 \n有過不改，失孝尤大",
          "phonetic": "Tri quá nhi cải, Diệc khả vi hiền. \nHữu quá bất cải, Thất hiếu vưu đại.",
          "translate": "",
          "explain": ""
        },
        {
          "index": 57,
          "title": "Giáo nữ chi pháp",
          "content": "教女之法，先正其身 \n婦人妊娠，勿食惡肉 \n勿听哀聲，正道而行 \n口無邪說，飲食失節 \n居處失常，外感內傷 \n病生多滯",
          "phonetic": "Giáo nữ chi pháp, Tiên chánh kì thân. \nPhụ nhân nhâm thần, Vật thực ác nhục. \nVật thính ai thanh, Chánh đạo nhi hành. \nKhẩu vô tà thuyết, ẩm thực thất tiết. \nCư xử thất thường, Ngoại cảm nội thương. \nBệnh sinh đa trệ.",
          "translate": "",
          "explain": ""
        },
        {
          "index": 58,
          "title": "Nữ tử bất học",
          "content": "女子不學，不知禮義 \n男子不學，不達事理 \n讀書求理，造燭求明 \n子孫雖賢，不教不明",
          "phonetic": "Nữ tử bất học, Bất tri lễ nghĩa. \nNam tử bất học, Bất đạt sự lí. \nĐộc thư cầu lí, Tạo chúc cầu minh. \nTử tôn tuy hiền, Bất giáo bất minh.",
          "translate": "",
          "explain": ""
        },
        {
          "index": 59,
          "title": "Cung kiếm bất học",
          "content": "弓劍不學，不知張武 \n文字不學，不知書畫 \n藥性不學，不知醫方 \n禮樂不學，不知祭祀",
          "phonetic": "Cung kiếm bất học, Bất tri trương vũ. \nVăn tự bất học, Bất tri thư họa. \nDược tính bất học, Bất tri y phương. \nLễ nhạc bất học, Bất tri tế tự.",
          "translate": "",
          "explain": ""
        },
        {
          "index": 60,
          "title": "Vạn khoảnh lương điền",
          "content": "萬頃良田，不如簿藝 \n天金遺子，不如一經",
          "phonetic": "Vạn khoảnh lương điền, Bất như bộ nghệ. \nThiên kim di tử, Bất như nhất kinh.",
          "translate": "",
          "explain": ""
        }
      ]
    }
  ]
}
