{
  "index": 1,
  "words": 4,
  "title": "千字文",
  "phonetic": "Thiên Tự Văn",
  "summary": "Thiên Tự Văn 千字文 được Châu Hưng Tự 周興嗣 thời Nam Lương biên soạn. Việc sáng tác được tương truyền rằng Lương Võ Đế ra lệnh cho Ân Thiết Thạch chép lại một ngàn từ không trùng lặp trên văn bia do Vương Hi Chi 王羲之- một nhà Thư pháp tài hoa bật nhất Trung Hoa thời Đông Tấn - viết để cho các hoàng tử lấy đó học tập. Nhưng do các chữ đều rời rạc, không liền nhau, cho nên ông cho gọi Châu Hưng Tự và bảo rằng: “Khanh có tài, hãy giúp ta vần bài này.” Chu Hưng Tự bỏ ra một đêm để biên soạn lại và dâng lên cho Võ Đế. Từ đó xuất hiện “Thiên Tự Văn” (bản văn đúng một ngàn chữ, một ngàn từ vựng) truyền đến ngày nay. \nTrong Thiên Tự Văn có nhiều vế đối tinh tế, mạch lạc rõ ràng, có chất thi ca, khiến người người thán phục. Câu văn tự nhiên như lời nói, dễ đọc dễ nhớ, là cuốn sách vỡ lòng dành cho trẻ con. \nNgoài việc học từ sách Thiên Tự Văn, ngày nay các Nhà Thư Pháp thường dùng bản văn này để luyện tập thư pháp. \nToàn văn chia làm 25 đoạn và phân thành sáu phần, xin lấy các chữ trong mỗi câu đầu  để đặt tựa.",
  "sections": [
    {
      "index": 1,
      "title": "Thiên Địa Huyền Hoàng",
      "summary": "Mở đầu Thiên Tự Văn nói về thời khởi nguyên của trời đất. Khi ấy vũ trụ còn hoang vu, mờ mịt. Mặt trời và mặt trăng thay nhau canh giữ ngày đêm. Khí trời quanh năm hết nóng rồi tới lạnh, mưa gió tuần hoàn, dần dần vạn vật và cây trái được hình thành. Bầu trời tối đen, mặt đất có màu vàng; vũ trụ bao la, hoang sơ và hỗn độn. Mặt trời lên cao rồi xế dần, mặt trăng tròn sáng rồi lại khuyết; sao hôm sao mai chia ra ngày đêm. Lạnh tới nóng đi; mùa thu thì thu hoạch để tàng trữ cho mùa đông. Tích lại một năm có dư ngày gọi là năm nhuận; dùng qui tắc: Lục Luật Lục Lữ để điều tiết âm dương. Mây bay lên gặp lạnh thành mưa; hơi sương vào đêm lạnh ngưng tụ thành sương mù.",
      "chapters": [
        {
          "index": 1,
          "title": "Thiên địa huyền hoàng",
          "content": "天地玄黃，宇宙洪荒 \n日月盈昃，辰宿列張 \n寒來暑往，秋收冬藏 \n閏餘成歲，律呂調陽 \n雲騰致雨，露結為霜",
          "phonetic": "Thiên địa huyền hoàng, vũ trụ hồng hoang. Nhật nguyệt doanh trắc, thần tú liệt trương. Hàn lai thử vãng, thu thâu đông tàng. Nhuận dư thành tuế, luật lữ điệu dương. Vân đằng trí vũ, lộ kết vi sương.",
          "translate": "Bầu trời tối đen, mặt đất có màu vàng; vũ trụ bao la, hoang sơ và hỗn độn. \nMặt trời lên cao rồi xế dần, mặt trăng tròn sáng rồi lại khuyết; sao hôm sao mai chia ra ngày đêm. \nLạnh tới nóng đi; mùa thu thì thu hoạch để tàng trữ cho mùa đông. Tích lại một năm có dư ngày gọi là năm nhuận; dùng qui tắc “lục luật lục lữ” để điều tiết âm dương. Mây bay lên gặp lạnh thành mưa; hơi sương vào đêm lạnh ngưng tụ thành sương mù.",
          "explain": "Thuở trời đất mới sinh ra bầu trời thì tối đen, mặt đất có màu vàng. Vũ trụ hình thành trong trạng thái hoang sơ, hỗn độn và mờ mịt. Ban ngày mặt trời từ từ lên cao tới đỉnh đầu rồi xế dần, mặt trăng ban đêm mỗi tháng tròn đầy rồi lại khuyết. Sao hôm và sao mai phân chia ngày và đêm. Tiết trời hết lạnh rồi tới nóng, mùa thu thì thu hoạch để tàng trữ cho mùa đông. Một năm tích lũy lại có ngày dư thừa là năm nhuận. Người xưa dùng cách tính “lục luật lục lữ” để điều hòa âm dương. Hơi nước bốc lên thành mây bay rong ruổi khắp nơi rồi gặp lạnh tụ lại mà thành mưa. Hơi sương vào đêm gặp tiết trời lạnh đọng lại kết thành sương mù."
        },
        {
          "index": 2,
          "title": "Kim sanh Lệ Thủy",
          "content": "金生麗水，玉出崑岡 \n劍號巨闕，珠稱夜光 \n果珍李柰，菜重芥薑 \n海鹹河淡，鱗潛羽翔",
          "phonetic": "Kim sanh Lệ Thủy, ngọc xuất Côn Cương. \nKiếm hiệu Cự Khuyết, châu xưng Dạ Quang. \nQuả trân lý nại, thái trọng giới khương. \nHải hàm hà đạm, lân tiềm vũ tường.",
          "translate": "Vàng sinh ra từ sông Lệ; ngọc thạch xuất xứ từ núi Côn Luân. \nKiếm nổi tiếng hiệu là “Cự Khuyết”, trân châu quý gọi là “Dạ Quang”. \nQuả quý là mận và táo, rau được xem trọng là cải và gừng. \nNước biển mặn, nước sông nhạt; cá bơi dưới nước, chim bay trên trời.",
          "explain": ""
        },
        {
          "index": 3,
          "title": "Long Sư Hỏa Đế",
          "content": "龍師火帝，鳥官人皇 \n始制文字，乃服衣裳 \n推位讓國，有虞陶唐 \n吊民伐罪，周發殷湯",
          "phonetic": "Long Sư Hỏa Đế, Điểu Quan Nhân Hoàng. \nThủy chế văn tự, nãi phục y thường. \nThôi vị nhượng quốc, Hữu Ngu Đào Đường. \nĐiếu dân phạt tội, Chu Phát Ân Thang.",
          "translate": "Long Sư, Hoả Đế, Điểu Quan, Nhân Hoàng là tên vua quan thời cổ. \nBắt đầu sáng tạo ra chữ viết; rồi bèn chế ra quần áo để che thân. \nNhường ngai vàng cho hiền nhân có Vua Nghiêu, Vua Thuấn. \nLàm yên lòng bách tính, thảo phạt bạo quân, có Cơ Phát nhà Chu, Thành Thang nhà Ân.",
          "explain": ""
        },
        {
          "index": 4,
          "title": "Tọa triều vấn đạo",
          "content": "坐朝問道，垂拱平章 \n愛育黎首，臣伏戎羌 \n遐邇壹體，率賓歸王 \n鳴鳳在樹，白駒食場 \n化被草木，賴及萬方",
          "phonetic": "Tọa triều vấn đạo, thùy củng bình chương. \nÁi dục lê thủ, thần phục Nhung Khương. \nHà nhĩ nhất thể, suất tân quy vương. \nMinh phượng tại thụ, bạch câu thực trường. \nHóa bị thảo mộc, lại cập vạn phương.",
          "translate": "Ngồi ở trong triều bàn hỏi về đạo, lời lẽ của bề trên, sự cung kính của kẻ dưới đều công chính, rõ ràng. \nYêu quý dân chúng, nuôi dưỡng tướng lĩnh; Tộc người Nhung Khương sẽ xưng thần. \nXa gần qui về một mối, toàn tâm nguyện khuất phục nhà vua. \nChim phượng hoàng kêu trên cây; con ngựa nhỏ màu trắng ăn cỏ trên cánh đồng lớn. \nSự cảm hóa bao trùm lên cả cỏ cây, mang ân huệ đến khắp nơi.",
          "explain": ""
        }
      ]
    },
    {
      "index": 2,
      "title": "Tứ Đại Ngũ Thường",
      "summary": "Phần thứ hai này nói về những vấn đề liên quan trực tiếp đến mỗi con người, từ thân thể tóc tai đến cách ứng xử, lẽ sống ở đời.",
      "chapters": [
        {
          "index": 5,
          "title": "Cái thử thân phát",
          "content": "蓋此身髮，四大五常 \n恭惟鞠養，豈敢毀傷 \n女慕貞絜，男傚才良 \n知過必改，得能莫忘 \n罔談彼短，靡恃己長 \n信使可覆，器慾難量",
          "phonetic": "Cái thử thân phát, tứ đại ngũ thường. \nCung duy cúc dưỡng, khởi cảm hủy thương. \nNữ mộ trinh kiết, nam hiệu tài lương. \nTri quá tất cải, đắc năng mạc vong. \nVõng đàm bỉ đoản, mị thị kỷ trường. \nTín sử khả phục, khí dục nan lượng.",
          "translate": "Thân thể con người ta do tứ đại mà thành; lời nói, hành động phải hợp với lẽ ngũ thường. \nTôn kính những người đã cưu mang và dưỡng dục, chớ có làm tổn thương thân thể của mình. \nCon gái phải biết ngưỡng mộ người trinh phụ khiết nữ; con trai noi theo những người tài đức. \nBiết sai phải sửa; đạt được một năng lực nào đó thì không thể quên được. \nChớ bàn tán điểm yếu của người khác, đừng ỷ vào điểm mạnh của mình. \nLời nói thật hay giả thì qua thời gian mới biết, tính khí và lòng ham muốn thì khó đo lường.",
          "explain": ""
        },
        {
          "index": 6,
          "title": "Mặc bi ti nhiễm",
          "content": "墨悲絲染，詩讃羔羊 \n景行維賢，剋念作聖 \n德建名立，形端錶正 \n空穀傳聲，虛堂習聽 \n禍因惡積，福緣善慶 \n尺璧非寶，寸陰是競",
          "phonetic": "Mặc bi ti nhiễm, thi tán Cao Dương. \nCảnh hành duy hiền, khắc niệm tác thánh. \nĐức kiến danh lập, hình đoan biểu chính. \nKhông cốc truyền thanh, hư đường tập thính. \nHọa nhân ác tích, phúc duyên thiện khánh. \nXích bích phi bảo, thốn âm thị cạnh.",
          "translate": "Mặc Tử than thở khi thấy tơ tầm bị nhuộm. Kinh Thi ca ngợi người liêm khiết thanh cao. \nPhẩm hạnh cao quí thường chỉ thấy ở hiền nhân; ghi nhớ trong tâm những điều thánh nhân đã làm. \nTạo dựng cái đức rồi mới lập cái danh, hình dáng đoan trang biểu lộ được sự chính trực. \nCái hang có không gian lớn thì truyền được âm thanh; sảnh đường rộng thì tiếng nói có thể nghe được rõ ràng. \nTai họa là do điều ác tích lại. Hạnh phúc có duyên cớ từ việc thiện mà thành. \nNgọc bích dài một thước không hẳn là quí; một tấc ánh sáng lại tranh giành nhau.",
          "explain": ""
        },
        {
          "index": 7,
          "title": "Tư phụ sự quân",
          "content": "資父事君，曰嚴與敬 \n孝當竭力，忠則盡命 \n臨深履薄，夙興溫凊 \n似蘭斯馨，如鬆之盛 \n川流不息，淵澂取映",
          "phonetic": "Tư phụ sự quân, viết nghiêm dữ kính. \nHiếu đương kiệt lực, trung tắc tận mệnh. \nLâm thâm lý bạc, túc hưng ôn sảnh. \nTự lan tư hinh, như tùng chi thịnh. \nXuyên lưu bất tức, uyên trừng thủ ánh.",
          "translate": "Giúp cha, hầu việc vua phải nghiêm túc và cung kính. \nHiếu thảo phải tận tâm tận lực, trung thành thì bất kể sinh mạng. \nVào rừng sâu, gặp nguy hiểm; thức khuya dậy sớm để lo đông ấm, hè mát. \nTựa như cây lan tỏ hương thơm lừng; như cây tùng xanh tốt. \nThường xuyên như dòng nước chảy không ngừng; vượt vực sâu làm trong dòng nước, giữ cho ánh mắt trời phản chiếu.",
          "explain": ""
        },
        {
          "index": 8,
          "title": "Dung chỉ nhược tư",
          "content": "容止若思，言辭安定 \n篤初誠美，愼終宜令 \n榮業所基，籍甚無竟 \n學優登仕，攝職從政 \n存以甘棠，去而益詠",
          "phonetic": "Dung chỉ nhược tư, ngôn từ an định. \nĐốc sơ thành mỹ, thận chung nghi lệnh. \nVinh nghiệp sở cơ, tịch thậm vô cánh. \nHọc ưu đăng sĩ,nhiếp chức tùng chính. \nTồn dĩ Cam Đường, khứ nhi ích vịnh.",
          "translate": "Dung mạo nghiêm chỉnh như lúc trầm tư, lời nói phải bình thản. \nTrung thực từ đầu thì sẽ tốt; nhưng thận trọng đến cùng thì mới được. \nSự nghiệp vinh hiển là nhờ lập được cái nền tản; tiếng tăm không ngừng vang dội. \nHọc xuất sắc sẽ lên làm quan; có chức vị và ra làm chính sự. \nLúc làm quan thì lấy tích Cam đường mà soi xét, lúc đi rồi mà còn có ích, được ca tụng.",
          "explain": ""
        },
        {
          "index": 9,
          "title": "Lạc thù quý tiện",
          "content": "樂殊貴賤，禮別尊卑 \n上龢下睦，夫唱婦隨 \n外受傅訓，入奉母儀 \n諸姑伯叔，猶子比兒 \n孔懷兄弟，同氣連枝",
          "phonetic": "Lạc thù quý tiện, lễ biệt tôn ti. \nThượng hòa hạ mục, phu xướng phụ tùy. \nNgoại thụ phó huấn, nhập phụng mẫu nghi. \nChư cô bá thúc, do tử bỉ nhi. \nKhổng hoài huynh đệ, đồng khí liên chi.",
          "translate": "Vui thú có phân biệt sang hèn; lễ tiết phân chia địa vị cao thấp. \nKẻ trên người dưới ứng xử thuận hòa; chồng đốc suất, vợ thuận theo. \nỞ bên ngoài thì tiếp thu lời thầy; về nhà tuân lời mẹ. \nBiết đối đãi với chú bác cô dì; coi cháu như con đẻ. \nAnh em nhớ thương, giúp đỡ lẫn nhau, vì cùng chung huyết thống, như cây liền cành.",
          "explain": ""
        },
        {
          "index": 10,
          "title": "Giao hữu đầu phận",
          "content": "交友投分，切磨箴規 \n仁慈隱惻，造佽弗離 \n節義廉退，顛沛匪虧 \n性靜情逸，心動神疲 \n守真誌滿，逐物意移 \n堅持雅操，好爵自縻",
          "phonetic": "Giao hữu đầu phận, thiết ma châm quy. \nNhân từ ẩn trắc, tạo thứ phất ly. \nTiết nghĩa liêm thối, điên phái phỉ khuy. \nTính tĩnh tình dật, tâm động thần bì. \nThủ chân chí mãn, trục vật ý di. \nKiên trì nhã thao, hảo tước tự mi.",
          "translate": "Kết bạn phải hợp nhau, thân phận tương đồng; cùng mày mò học tập, khuyên răn nhau. \nYêu người và có lòng thương xót; xây dựng và giúp đỡ nhau không nên chia cách. \nTiết, nghĩa, liêm, thói là bốn phẩm đức; lúc hoạn nạn, khốn khó không được phụ lòng. \nTính cách bình tĩnh, thanh thản thì tình cảm sâu kín. Tư tưởng, lòng dạ bị động thì tinh thần mệt mỏi. \nGiữ gìn sự chân thật thì cái chí sẽ được mãn nguyện; theo đuổi vật chất thì cái ý sẽ dễ thay đổi. \nCố giữ vững phẩm hạnh cao thượng, chức tước tốt đẹp sẽ tự tìm đến.",
          "explain": ""
        }
      ]
    },
    {
      "index": 3,
      "title": "Đô Ấp Hoa Hạ",
      "summary": "Phần thứ ba này nói về đền đài, cung điện, các địa danh và văn vật gắn liền với nền văn minh Trung Hoa. Qua đó nêu lên tên tuổi của những danh thần, tướng lĩnh đã giúp các bậc đế vương gây dựng cơ đồ. Những con người kiệt xuất, đa tài lừng danh trong thiên hạ cũng được nhắc đến.",
      "chapters": [
        {
          "index": 11,
          "title": "Đô ấp Hoa Hạ",
          "content": "都邑華夏，東西二京 \n背邙面洛，浮渭據涇 \n宮殿盤鬱，樓觀飛驚 \n圖寫禽獸，畫綵仙靈 \n丙舍傍啟，甲帳對楹",
          "phonetic": "Đô ấp Hoa Hạ, đông tây nhị kinh. \nBội Mang diện Lạc, phù Vị cứ Kính. \nCung điện bàn uất, lâu quan phi kinh. \nĐồ tả cầm thú, họa thải tiên linh. \nBính xá bàng khải, giáp trướng đối doanh",
          "translate": "Đất kinh đô có hai kinh là Đông và Tây. \nĐông kinh lưng dựa núi Mang, mặt hướng ra sông Lạc; Tây Kinh trước mặt là sông Vị, sau lưng là sông Kính. \nCung điện quanh co sầm uất, lâu đài cao ngút khiến người ta sợ hãi. \nHình vẽ miêu tả loài vật, tranh màu vẻ các vị tiên và thần linh. \nĐền thờ phụ ở hai bên, bức trướng (màn) treo ở bên ngoài hướng về phía các cột điện cao lớn.",
          "explain": ""
        },
        {
          "index": 12,
          "title": "Tứ diên thiết tịch",
          "content": "肆筵設席，鼓瑟吹笙 \n升階納陛，弁轉疑星 \n右通廣內，左達承明 \n既集墳典，亦聚羣英 \n杜稾鍾隸，漆書壁經",
          "phonetic": "Tứ diên thiết tịch, cổ sắt xuy sanh. \nThăng giai nạp bệ, biện chuyển nghi tinh. \nHữu thông Quảng Nội, tả đạt Thừa Minh. \nKý tập phần điển, diệc tụ quần anh. \nĐỗ cảo Chung lệ, tất thư bích kinh.",
          "translate": "Yến tiệc bày ra trên chiếu; khua trống đánh đàn sắt, thổi sênh cùng ca múa. \nCác bậc thềm dọc hai bên dẫn lên bệ vua ngồi, quan nhỏ đi lại bên dưới. \nBên phải thông đến điện Quảng Nội; bên trái dẫn đến điện Thừa Minh. \nCó tập sách tam phần ngũ điển; có giữ sách vỡ của các vị anh tài kiệt suất. \nChữ Thảo (cảo) của họ Đỗ, chữ Lệ của học Chung; Còn có quyển kinh viết trên thẻ tre xưa dấu trong tường.",
          "explain": ""
        },
        {
          "index": 13,
          "title": "Phủ la tương tướng",
          "content": "府羅將相，路俠槐卿 \n戶封八縣，家給千兵 \n高冠陪輦，驅轂振纓 \n世祿侈富，車駕肥輕",
          "phonetic": "Phủ la tương tướng, lộ hiệp hòe khanh. \nHộ phong bát huyện, gia cấp thiên binh. \nCao quan bồi liễn, khu cốc chấn anh. \nThế lộc xỉ phú, xa giá phì khinh.",
          "translate": "Trong dinh thự đông đảo tướng lĩnh; Phía ngoài đường có nhiều người nghĩa hiệp, quan chức, khách khanh. \nMỗi hộ quan được phong tám huyện, mỗi nhà nuôi đủ một ngàn binh. \nĐội mũ cao, đi bằng xe có người phụ tá, có người ruổi ngựa, có người đẩy xe, dừng xe, có người nắm dây dàm. \nBổng lộc to lớn, dồi dào. Xe cộ có loại lớn rộng, có loại tầm thường.",
          "explain": ""
        },
        {
          "index": 14,
          "title": "Sách công mậu thật",
          "content": "策功茂實，勒碑刻銘 \n磻溪伊尹，佐時阿衡 \n奄宅曲阜，微旦孰營 \n桓公匡合，濟弱扶傾 \n綺迴漢惠，說感武丁 \n俊乂密勿，多士寔寧",
          "phonetic": "Sách công mậu thật, lặc bi khắc minh. \nBàn Khê Y Duẫn, tả thời a hành. \nYểm trạch Khúc Phụ, vi Đán thục doanh. \nHoàn Công khuông hiệp, tế nhược phù khuynh. \nỶ hồi Hán Huệ, thuyết cảm Vũ Đinh. \nTuấn nghệ mật vật, đa sĩ thật nịnh.",
          "translate": "Công lao, sự nghiệp của những người tài giỏi được ghi vào sách một cách chân thật; tạc bia để lại, ghi nhớ không quên. \nChuyện trên sông Bàn Khê, chuyện ông Y Doãn; phụ giúp triều đình làm chức đại quan chấp chánh. \nNước Yểm ở đất Khúc Phục, chẳn phải là Cơ Đán thì ai có thể cai quản được? \nHoàn Công cứu giúp và tập hợp chư hầu; giúp đỡ nước yếu và phù trợ nhà Chu khi bị nguy ngập. \nỶ Lý trở lại triều đình mà Hán Huệ được giữ ngôi; truyền thuyết Vũ Đinh cảm mộng thấy hiền thần. \nNgười tài giỏi kế tiếp thay nhau yên định thiên hạ; nhiều kẻ sĩ sống một đời chân thật, yên ổn.",
          "explain": ""
        },
        {
          "index": 15,
          "title": "Tấn Sở canh bá",
          "content": "晉楚更霸，趙魏困橫 假途滅虢，踐土會盟 何遵約法，韓弊煩刑 起翦頗牧，用軍最精 宣威沙漠，馳譽丹青",
          "phonetic": "Tấn Sở canh bá, Triệu Ngụy khốn hoành. \nGiả đồ diệt Quắc, tiễn thổ hội minh. \nHà Tuân ước pháp, Hàn tệ phiền hình. \nKhởi Tiễn Pha Mục, dụng quân tối tinh. \nTuyên uy sa mạc, trì dự đan thanh",
          "translate": "Tấn, Sở thay nhau xưng bá; Triệu, Ngụy bị vây khốn bởi thuyết Liên Hoành. \nMượn đường diệt nước Quắc; giẫm đạp lên nhau để dành đất, phân chia cương vực rồi gặp nhau cùng thề. \nTiêu Hà dựa theo chế định lập ra pháp luật; Hàn Phi sầu lo về hình pháp mà mình đặt ra. \nBạch Khởi, Vương Tiễn, Liêm Pha, Lý Mục là những người giỏi quân đội nhất. \nOai quyền truyền rộng khắp nơi, đến tận miền sa mạc, tiếng tăm vang khắp thiên hạ; công trạng được lưu trong sử sách.",
          "explain": ""
        },
        {
          "index": 16,
          "title": "Cửu châu Vũ tích",
          "content": "九州禹跡，百郡秦并 \n嶽宗恆岱，禪主云亭 \n雁門紫塞，雞田赤城 \n昆池碣石，鉅野洞庭 \n曠遠緜邈，巖岫杳冥",
          "phonetic": "Cửu châu Vũ tích, bách quận Tần tịnh. \nNhạc Tông Hằng Đại, thiện chủ Vân Đình. \nNhạn Môn tử tái, Kê Điền xích thành. \nCôn Trì Kiệt Thạch, Cự Dã Động Đình. \nKhoáng viễn miên mạc, nham tụ yểu minh.",
          "translate": "Chín Châu điều có dấu tích của vua Vũ; nhà Tần hợp nhất trăm quận. \nNúi cao lớn nhất là Thái Sơn còn gọi là Đại Tông, Đại Nhạc. Các vị vua truyền ngôi làm lễ ở núi Vân Sơn và Đình Sơn. \nThành Nhạn môn có màu tím là đất hiểm yếu ngoài biên giới; Dịch trạm biên cương ở Kê Điền là thành màu đỏ. \nHồ Điền Trì ở Côn Minh, núi Kiệt Thạch; đầm Cự Dã, hồ Động Đình. \nMênh mong, sâu thẩm, dài dằn dặc và xa tít; Ngọn núi cao ngất hiểm trở, hang núi thâm u, mờ mịt, sâu xa.",
          "explain": ""
        }
      ]
    },
    {
      "index": 4,
      "title": "Trị Bản Ư Nông",
      "summary": "Phần này nói về các thuyết trị quốc thời xưa; nói đến các đức tính thanh khiết, cương nghi.",
      "chapters": [
        {
          "index": 17,
          "title": "Trị bản ư nông",
          "content": "治本於農，務茲稼穡 \n俶載南畝，我藝黍稷 \n稅熟貢新，勸賞黜陟",
          "phonetic": "Trị bản ư nông, vụ tư giá sắc. \nThục tái nam mẫu, ngã nghệ thử tắc. \nThuế thục cống tân, khuyến thưởng truất trắc.",
          "translate": "Trị quốc lấy nông nghiệp làm gốc, chuyên việc cày cấy, trồng trọt và gặt hái. \nMỗi năm lại bắt đầu, đất ruộng rộng lớn ở phương Nam; nghề của ta là trồng lúa mùa và lúa tắc. \nĐược mùa thì nộp thuế, cống nạp bằng lúa mới chính; khuyến khích, khen thưởng, hay cách chức hoặc thăng quan.",
          "explain": ""
        },
        {
          "index": 18,
          "title": "Mạnh Kha đôn tố",
          "content": "孟軻敦素，史魚秉直 \n庶幾中庸，勞謙謹敕 \n聆音察理，鑑貌辨色 \n貽厥嘉猷，勉其祗植",
          "phonetic": "Mạnh Kha đôn tố, Sử Ngư bỉnh trực. \nThứ kỉ Trung Dung, lao khiêm cẩn sắc. \nLinh âm sát lý, giám mạo biện sắc. \nDi quyết gia du, miễn kì chi thực.",
          "translate": "Mạnh Kha tôn sùng sự thanh khiết, Sử quan Tử Ngư giữ gìn sự cương trực. \nĐạo Trung Dung ngõ hầu là cần lao, khiêm tốn, cẩn thận và cảnh giới. \nNghe người khác nói cần xem xét lý lẽ; nhìn diện mạo của ai thì phải phân tích sắc mặt. \nCái để lại đời sau cốt yếu là điều tốt lành, có đạo lý và phép tắc; khuyến khích mọi người tôn kính và dựa vào điều ấy.",
          "explain": ""
        },
        {
          "index": 19,
          "title": "Tỉnh cung ky giới",
          "content": "省躬譏誡，寵增抗極 \n殆辱近恥，林皋幸即 \n兩疏見機，解組誰逼 \n索居閒處，沈默寂寥 \n求古尋論，散慮逍遙 \n欣奏累遣，慼謝歡招",
          "phonetic": "Tỉnh cung ky giới, sủng tăng kháng cực. \nĐãi nhục cận sỉ, lâm cao hạnh tức. \nLưỡng Sơ kiến cơ, giải tổ thùy bức. \nTác cư gian xứ, trầm mặc tịch liêu. \nCầu cổ tầm luận, tán lự tiêu dao. \nHân tấu lũy khiển, thích tạ hoan chiêu.",
          "translate": "Xét lại bản thân mình khi nghe lời cảnh báo, khuyên bảo; quá mức nuông chiều thì dẫn đến chỗ tận cùng. \nKhi chịu sự khuất phục, nhẫn nhục thì sắp gặp phải điều hổ thẹn; qui ẩn sơn lâm thì điều may mắn sẽ đến lập tức; \nHai người họ Sơ thấy được những điều then chốt, có tầm nhìn xa; họ đã từ chức mà không ai chờ đến lúc bức bách. \nỞ ẩn một mình trong không gian mênh mông; sống đời an nhàn êm đềm, vắng lặng. \nTìm hiểu người xưa việc cũ, các luận thuyết; mối ưu tư sẽ tan biến, cuộc sống trở nên ung dung không còn bó buộc. \nMừng đến, mối lo không còn; sự buồn rầu biến mất, sự vui vẻ tìm về.",
          "explain": ""
        },
        {
          "index": 20,
          "title": "Cừ hà đích lịch",
          "content": "渠荷的歷，園莽抽條 \n枇杷晚翠，梧桐早凋 \n陳根委翳，落葉飄颻 \n遊鵾獨運，凌摩絳霄",
          "phonetic": "Cừ hà đích lịch, viên mãng trừu điều. \nTì bà vãn thúy, ngô đồng tảo điêu. \nTrần căn ủy ế, lạc diệp phiêu diêu. \nDu côn độc vận, lăng ma giáng tiêu",
          "translate": "Hoa sen bên bờ kênh trắng xóa khắp một vùng; bụi cỏ um tùm trong vườn đâm chồi nảy lộc. \nCây Tì bà (sơn trà) già cỗi mà còn xanh biếc trong hoàng hôn; cây Ngô đồng rụng lá tan tác lúc ban mai. \nGốc cây già nua, ngọn cây tựa như cái lộng xe vua; Lá rụng trong tiếng gió thổi nhẹ nhàng. \nChim Côn một mình bay lượn; lao lên tận tầng mây đỏ thẫmm của ráng chiều.",
          "explain": ""
        }
      ]
    },
    {
      "index": 5,
      "title": "Đam Độc Ngoạn Thi",
      "summary": "Phần này nói về các thú vui thanh tao trong cuộc sống và các lề thói, phong tục. Mỗi câu như là một lời răn dạy từ việc chuẩn bị bữa ăn thường ngày đến việc thiết đãi yến tiệc; việc ăn uống, nói năng, ngủ nghỉ, cúng lại cho đến việc soạn công văn gửi đi và hồi đáp... đủ mọi mặt trong đời sống thường ngày.",
      "chapters": [
        {
          "index": 21,
          "title": "Đam độc ngoạn thị",
          "content": "耽讀翫市，寓目囊箱 \n易輶攸畏，屬耳垣墻 \n具膳餐飯，適口充腸 \n飽飫烹宰，飢厭糟糠 \n親戚故舊，老少異糧 \n妾御績紡，侍巾帷房",
          "phonetic": "Đam độc ngoạn thị, ngụ mục nang tương. \nDịch du du úy, chú nhĩ viên tường. \nCụ thiện xan phạn, thích khẩu sung tràng. \nBão ốc phanh tể, cơ yếm tao khang. \nThân thích cố cựu, lão thiểu dị lương. \nThiếp ngự tích phưởng, thị cân duy phòng.",
          "translate": "Đam mê đọc sách, ra chợ thưởng thức. Luôn để mắt vào giỏ đựng sách và thùng đựng sách. \nNói chuyện tùy tiện thật đáng sợ, bên ngoài sẽ có tai nghe trộm. \nSửa soạn ba bửa ăn trong ngày (thiện: ăn tối, xạn: ăn sáng; phạn: bửa ăn chính/trưa); vừa miệng, no bụng (đầy ruột). \nLúc no yến tiệc khó nuốt, lúc đói thức ăn kham khổ cũng đủ. \nBà con họ hàng thân thuộc, bạn bè cũ; già trẻ tùy người mà dùng những thức ăn khác nhau. \nNàng hầu (vợ lẻ), kẻ bộc dịch lo xe sợi, coi sóc khăn mũ, màn che, phòng ốc.",
          "explain": ""
        },
        {
          "index": 22,
          "title": "Hoàn phiến viên khiết",
          "content": "紈扇圓潔，銀燭煒煌 \n晝眠夕寐，藍筍象床 \n絃歌酒讌，接盃舉觴 \n矯手頓足，悅豫且康 \n嫡後嗣續，祭祀烝嘗 \n稽顙再拜，悚懼恐惶",
          "phonetic": "Hoàn phiến viên khiết, ngân chúc vĩ hoàng. \nTrú miên tịch mị, lam duẩn tượng sàng. \nHuyền ca tửu yên, tiếp bôi cử thương. \nKiểu thủ đốn túc, duyệt dự thả khang. \nĐích hậu tự tục, tế tự chưng thường. \nKhể tảng tái bái, tủng cụ khủng hoàng",
          "translate": "Quạt làm bằng lụa có hình tròn trông sạch sẽ; cây nến màu trắng bạc có ngọn lửa rực đỏ. \nBan ngày thì chợp mắt, ban đêm ngủ; Cái xà ngang để treo chuông, khánh làm bằng cây chàm, giá móc đồ bằng ngà voi. \nCa khúc nhạc với đàn huyền, mở tiệc uống rượu; chén rượu chiêu đãi nâng lên chúc mừng. \nHoa tay múa chân; vừa vui vẻ, vừa khỏe mạnh. \nCon cháu của vợ chính được nối dõi, kế thừa; chăm sóc chỗ thờ cúng và cúng tề đầy đủ hằng năm. \nLễ lạy của người có tang thì lạy hai lạy; Sợ sợ vô cùng.",
          "explain": ""
        },
        {
          "index": 23,
          "title": "Tiên điệp giản yếu",
          "content": "牋牒簡要，顧答審詳 \n骸垢想浴，執熱願涼 \n驢騾犢特，駭躍超驤 \n誅斬賊盜，捕獲叛亡",
          "phonetic": "Tiên điệp giản yếu, cố đáp thẩm tường. \nHài cấu tưởng dục, chấp nhiệt nguyện lương. \nLư loa độc đặc, hãi dược siêu tương. \nTru trảm tặc đạo, bộ hoạch bạn vong",
          "translate": "Công văn gửi lên quan trên phải giản dị và thiết yếu; việc trả lời phải xem xét tỉ mỉ và rõ ràng. \nCơ thể dơ bẩn thì nghĩ tới chuyện tắm rửa. Gặp lúc nóng nực thì mong muốn được mát mẻ. \nCon lừa, con la, con nghé và con trâu đực, khi giật mình thì nhảy lên và vượt nhanh về phía trước. \nTrừng phạt, chém đầu kẻ trộm cướp; truy lùng kẻ có tội, bắt sống tên phản nghịch đang bỏ trốn.",
          "explain": ""
        }
      ]
    },
    {
      "index": 6,
      "title": "Bố Xạ Liêu Hoàn",
      "summary": "Phần cuối cùng của Thiên Tự Văn không quên nhắc đến trai tài gái sắc, nhưng tiếc rằng tuổi trẻ kia lại trôi qua mau. \nChốt lại áng văn một nghìn chữ tác giả nhắc nhỡ việc tu thân tích phúc, sống có khuôn phép, luôn trao dồi kiến văn kẻo bị người đời chế nhạo.",
      "chapters": [
        {
          "index": 24,
          "title": "Bố xạ Liêu hoàn",
          "content": "布射遼丸，嵇琴阮嘯 \n恬筆倫紙，鈞巧任釣 \n釋紛利俗，並皆佳妙 \n毛施淑姿，工顰妍笑 \n年矢每催，曦暉朗耀 \n璇璣懸斡，晦魄環照",
          "phonetic": "Bố xạ Liêu hoàn, Kê cầm Nguyễn khiếu. \nĐiềm bút Luân chỉ, Quân xảo Nhậm điếu. \nThích phân lợi tục, tịnh giai giai diệu. \nMao Thi thục tư, công tần nghiên tiếu. \nNiên thỉ mỗi thôi, hi huy lãng diệu. \nTuyền ki huyền oát, hối phách hoàn chiếu.",
          "translate": "Lữ Bố giỏi bắn cung, Hùng Nghi Liêu giỏi tung hứng bóng; Kê Khang giỏi đánh đàn cầm, Nguyễn Tịch giỏi sáo dài. \nMộng Điềm chế tạo ra bút long, Thái Luân sáng tạo ra giấy. Mã Quân kéo léo chế thủy xa, công tử Nhậm có tài câu cá. \nGiải trừ nhiều khó khăn mang lại tiện lợi cho con người; tất cả đều rất quý giá, cao siêu và khéo léo. \nMao Tường và Tây Thi hiền thục, thùy mị; dù có nhíu mày nhưng cũng xinh đẹp như khi cười. \nHằng năm lại trôi qua vội vàng như mũi tên bắn đi; ánh mặt trời rực rỡ mãi còn chiếu sáng. \nSao Bắc Đẩu trên cao xoay chuyển; ngày cuối tháng bầu trời tối, rồi ánh trăng sáng dần theo ngày tháng, soi rọi khắp nơi.",
          "explain": ""
        },
        {
          "index": 25,
          "title": "Chỉ tân tu hỗ",
          "content": "指薪修祜，永綏吉劭 \n矩步引領，俯仰廊廟 \n束帶矜莊，徘徊瞻眺 \n孤陋寡聞，愚蒙等誚 \n謂語助者，焉哉乎也",
          "phonetic": "Chỉ tân tu hỗ, vĩnh tuy cát thiệu. \nCủ bộ dẫn lĩnh, phủ ngưỡng lang miếu. \nThúc đái căng trang, bồi hồi chiêm thiếu. \nCô lậu quả văn, ngu mông đẳng tiếu. \nVị ngữ trợ giả, yên tai hồ dã.",
          "translate": "Như đốt củi truyền lửa, tu đức tích phúc; mãi mãi bình an, tốt lành may mắn. \nLàm đúng theo khuôn phép thì mới lãnh đạo người khác được; biết cúi đầu và ngẩng đầu ở miếu thờ hay cung đình. \nTrên người buộc thắt lưng tỏ vẻ chỉnh tề, nghiêm trang; cử chỉ thông thả, ung dung có thể ngửaa mặt nhìn xa trông rộng. \nKiến thức nhỏ bé, kiến văn ít ỏi; loại người dốt nát, tối tâm thì bị đời chế nhạo. \nBàn về trợ tự thì có YÊN TAI HỒ DÃ",
          "explain": ""
        }
      ]
    }
  ]
}
