[
  {
    "phonetic": "",
    "means": ["loà (có con ngươi nhưng không trông nhìn được)"],
    "summary": "",
    "name": "mông",
    "character": "矇",
    "index": 5920
  },
  {
    "phonetic": "",
    "means": ["sợ, nhớn nhác"],
    "summary": "",
    "name": "quắc",
    "character": "矍",
    "index": 5921
  },
  {
    "phonetic": "",
    "means": ["(xem: mông lung 朦朧,曚曨,朦胧)"],
    "summary": "",
    "name": "lung",
    "character": "矓",
    "index": 5922
  },
  {
    "phonetic": "sốc, xúc",
    "means": ["vời vợi, sừng sững"],
    "summary": "",
    "name": "súc",
    "character": "矗",
    "index": 5923
  },
  {
    "phonetic": "",
    "means": ["nhìn kỹ, ngắm"],
    "summary": "",
    "name": "chúc",
    "character": "矚",
    "index": 5924
  },
  {
    "phonetic": "",
    "means": ["xà mâu (binh khí)"],
    "summary": "",
    "name": "mâu",
    "character": "矛",
    "index": 5925
  },
  {
    "phonetic": "quan",
    "means": ["khoe khoang"],
    "summary": "",
    "name": "căng",
    "character": "矜",
    "index": 5926
  },
  {
    "phonetic": "húc, quyệt",
    "means": ["rực rỡ, tốt đẹp", "sợ hãi", "giả dối"],
    "summary": "",
    "name": "duật",
    "character": "矞",
    "index": 5927
  },
  {
    "phonetic": "thỉ",
    "means": ["tên (bắn cung)"],
    "summary": "",
    "name": "thi",
    "character": "矢",
    "index": 5928
  },
  {
    "phonetic": "hĩ, hỹ",
    "means": ["vậy (trợ từ)"],
    "summary": "",
    "name": "hỷ",
    "character": "矣",
    "index": 5929
  },
  {
    "phonetic": "trí",
    "means": ["biết", "quen nhau"],
    "summary": "",
    "name": "tri",
    "character": "知",
    "index": 5930
  },
  {
    "phonetic": "",
    "means": ["tước Hầu"],
    "summary": "",
    "name": "hầu",
    "character": "矦",
    "index": 5931
  },
  {
    "phonetic": "",
    "means": ["ví bằng, huống chi", "chân răng", "cũng"],
    "summary": "",
    "name": "thẩn",
    "character": "矧",
    "index": 5932
  },
  {
    "phonetic": "",
    "means": ["cái khuôn", "khuôn phép"],
    "summary": "",
    "name": "củ",
    "character": "矩",
    "index": 5933
  },
  {
    "summary": "",
    "character": "矫",
    "traditionalCharacter": "矯",
    "phonetic": "",
    "means": ["nắn thẳng ra"],
    "name": "kiểu",
    "index": 5934
  },
  {
    "phonetic": "toa, toạ",
    "means": ["thấp, lùn"],
    "summary": "",
    "name": "toà",
    "character": "矬",
    "index": 5935
  },
  {
    "phonetic": "",
    "means": ["ngắn"],
    "summary": "",
    "name": "đoản",
    "character": "短",
    "index": 5936
  },
  {
    "phonetic": "oải, ải",
    "means": ["lùn, thấp", "thụp xuống"],
    "summary": "",
    "name": "nuỵ",
    "character": "矮",
    "index": 5937
  },
  {
    "phonetic": "",
    "means": ["nắn thẳng ra"],
    "summary": "",
    "name": "kiểu",
    "character": "矯",
    "index": 5938
  },
  {
    "phonetic": "đạn",
    "means": ["đá", "tạ (đơn vị đo, bằng 120 cân)"],
    "summary": "",
    "name": "thạch",
    "character": "石",
    "index": 5939
  },
  {
    "phonetic": "ki",
    "means": ["hòn đá ngăn nước"],
    "summary": "",
    "name": "ky",
    "character": "矶",
    "index": 5940
  },
  {
    "phonetic": "ngạn",
    "means": ["đá lẫn trong than đá, đá bìa"],
    "summary": "",
    "name": "can",
    "character": "矸",
    "index": 5941
  },
  {
    "phonetic": "khốt",
    "means": ["(xem: ngột ngột 矻矻)"],
    "summary": "",
    "name": "ngột",
    "character": "矻",
    "index": 5942
  },
  {
    "phonetic": "",
    "means": ["nguyên tố silic, Si"],
    "summary": "",
    "name": "tịch",
    "character": "矽",
    "index": 5943
  },
  {
    "phonetic": "",
    "means": ["phèn (hoá học)"],
    "summary": "",
    "name": "phàn",
    "character": "矾",
    "index": 5944
  },
  {
    "phonetic": "quáng",
    "means": ["quặng, khoáng sản"],
    "summary": "",
    "name": "khoáng",
    "character": "矿",
    "index": 5945
  },
  {
    "summary": "",
    "character": "砀",
    "traditionalCharacter": "碭",
    "phonetic": "nương, đãng",
    "means": ["đá hoa"],
    "name": "nãng",
    "index": 5946
  },
  {
    "summary": "",
    "character": "码",
    "traditionalCharacter": "碼",
    "phonetic": "",
    "means": ["mã hiệu", "(xem: mã não 瑪瑙,碼碯)"],
    "name": "mã",
    "index": 5947
  },
  {
    "phonetic": "",
    "means": ["đá vụn, sỏi vụn", "cát, sạn"],
    "summary": "",
    "name": "sa",
    "character": "砂",
    "index": 5948
  },
  {
    "phonetic": "",
    "means": ["răng rắc, sột, toạc"],
    "summary": "",
    "name": "hoạch",
    "character": "砉",
    "index": 5949
  },
  {
    "phonetic": "xế",
    "means": ["thềm", "xếp, đặt"],
    "summary": "",
    "name": "thế",
    "character": "砌",
    "index": 5950
  },
  {
    "phonetic": "",
    "means": ["chặt, bổ"],
    "summary": "",
    "name": "khảm",
    "character": "砍",
    "index": 5951
  },
  {
    "phonetic": "nha",
    "means": ["đá mài"],
    "summary": "",
    "name": "nhạ",
    "character": "砑",
    "index": 5952
  },
  {
    "phonetic": "phê, tì",
    "means": ["(một thứ đá có chất độc)"],
    "summary": "",
    "name": "tỳ",
    "character": "砒",
    "index": 5953
  },
  {
    "phonetic": "nghiễn",
    "means": ["nghiền, mài", "tìm tòi"],
    "summary": "",
    "name": "nghiên",
    "character": "研",
    "index": 5954
  },
  {
    "phonetic": "",
    "means": ["gạch đã nung chín"],
    "summary": "",
    "name": "chuyên",
    "character": "砖",
    "index": 5955
  },
  {
    "summary": "",
    "character": "砗",
    "traditionalCharacter": "硨",
    "phonetic": "",
    "means": ["(xem: xa cừ 硨磲,砗磲)"],
    "name": "xa",
    "index": 5956
  },
  {
    "summary": "",
    "character": "砚",
    "traditionalCharacter": "硯",
    "phonetic": "",
    "means": ["cái bát", "cái nghiên mực"],
    "name": "nghiễn",
    "index": 5958
  },
  {
    "phonetic": "",
    "means": ["sulphone (hoá học)"],
    "summary": "",
    "name": "phong",
    "character": "砜",
    "index": 5959
  },
  {
    "phonetic": "pháp",
    "means": ["rắn, cứng"],
    "summary": "",
    "name": "kiếp",
    "character": "砝",
    "index": 5960
  },
  {
    "phonetic": "",
    "means": ["quả cân", "quả lăn"],
    "summary": "",
    "name": "đà",
    "character": "砣",
    "index": 5962
  },
  {
    "phonetic": "để",
    "means": ["hòn đá mài", "dùi mài"],
    "summary": "",
    "name": "chỉ",
    "character": "砥",
    "index": 5963
  },
  {
    "phonetic": "",
    "means": ["(chỗ ở núi, lấy gỗ rào chung quanh để ở)"],
    "summary": "",
    "name": "trại",
    "character": "砦",
    "index": 5964
  },
  {
    "phonetic": "",
    "means": ["cái chày đá để giặt"],
    "summary": "",
    "name": "châm",
    "character": "砧",
    "index": 5965
  },
  {
    "phonetic": "phế",
    "summary": "",
    "name": "phất",
    "character": "砩",
    "index": 5966
  },
  {
    "phonetic": "",
    "means": ["cái kim bằng đá"],
    "summary": "",
    "name": "biêm",
    "character": "砭",
    "index": 5968
  },
  {
    "phonetic": "",
    "means": ["bịch, phịch, uỵch, đùng, đốp, đoàng, bùng, bốp (tiếng động)"],
    "summary": "",
    "name": "phanh",
    "character": "砰",
    "index": 5969
  },
  {
    "phonetic": "",
    "means": ["máy bắn đá", "pháo", "mìn"],
    "summary": "",
    "name": "pháo",
    "character": "砲",
    "index": 5970
  },
  {
    "phonetic": "",
    "means": ["rách nát", "phá vỡ, bổ ra"],
    "summary": "",
    "name": "phá",
    "character": "破",
    "index": 5971
  },
  {
    "phonetic": "",
    "means": ["nguyên tố asen, As"],
    "summary": "",
    "name": "thân",
    "character": "砷",
    "index": 5972
  },
  {
    "phonetic": "",
    "means": ["đóng, lèn chặt", "hỏng, vỡ"],
    "summary": "",
    "name": "tạp",
    "character": "砸",
    "index": 5973
  },
  {
    "summary": "",
    "character": "砺",
    "traditionalCharacter": "礪",
    "phonetic": "",
    "means": ["hòn đá mài to"],
    "name": "lệ",
    "index": 5975
  },
  {
    "summary": "",
    "character": "砻",
    "traditionalCharacter": "礱",
    "phonetic": "",
    "means": ["cái cối xay"],
    "name": "lung",
    "index": 5976
  },
  {
    "phonetic": "",
    "means": ["bê-tông"],
    "summary": "",
    "name": "đồng",
    "character": "砼",
    "index": 5977
  },
  {
    "summary": "",
    "character": "砾",
    "traditionalCharacter": "礫",
    "phonetic": "",
    "means": ["đá vụn, đá sỏi"],
    "name": "lịch",
    "index": 5978
  },
  {
    "summary": "",
    "character": "础",
    "traditionalCharacter": "礎",
    "phonetic": "",
    "means": ["đá tảng"],
    "name": "sở",
    "index": 5979
  },
  {
    "phonetic": "châu",
    "means": ["một thứ đá đỏ dùng làm thuốc chế từ thuỷ ngân"],
    "summary": "",
    "name": "chu",
    "character": "硃",
    "index": 5980
  },
  {
    "phonetic": "",
    "means": ["ngọc khuê", "nguyên tố silic, Si"],
    "summary": "",
    "name": "khuê",
    "character": "硅",
    "index": 5981
  },
  {
    "phonetic": "nao, nạo",
    "means": ["(xem: lỗ sa 硇砂)"],
    "summary": "",
    "name": "lỗ",
    "character": "硇",
    "index": 5982
  },
  {
    "phonetic": "lạc",
    "means": ["bị cấn (chỗ nằm không phẳng, nằm khó chịu)"],
    "summary": "",
    "name": "các",
    "character": "硌",
    "index": 5983
  },
  {
    "phonetic": "",
    "means": ["đá mài dao"],
    "summary": "",
    "name": "hình",
    "character": "硎",
    "index": 5984
  },
  {
    "phonetic": "",
    "summary": "",
    "name": "động",
    "character": "硐",
    "index": 5985
  },
  {
    "phonetic": "",
    "means": ["nguyên tố selen, Se"],
    "summary": "",
    "name": "tây",
    "character": "硒",
    "index": 5986
  },
  {
    "summary": "",
    "character": "硕",
    "traditionalCharacter": "碩",
    "phonetic": "",
    "means": ["to lớn"],
    "name": "thạc",
    "index": 5987
  },
  {
    "phonetic": "",
    "means": ["mõm núi (gie ra trong nước)"],
    "summary": "",
    "name": "giáp",
    "character": "硖",
    "index": 5988
  },
  {
    "summary": "",
    "character": "硗",
    "traditionalCharacter": "磽",
    "phonetic": "nghiêu, sao",
    "means": ["đất xấu, đất sỏi"],
    "name": "khao",
    "index": 5989
  },
  {
    "summary": "",
    "character": "硙",
    "traditionalCharacter": "磑",
    "phonetic": "ngại",
    "means": ["cái cối tán, cái bàn tán", "bền chắc, vững vàng"],
    "name": "cai",
    "index": 5990
  },
  {
    "phonetic": "",
    "means": ["đá tiêu (trong suốt, đốt cháy, dùng làm thuốc pháo)"],
    "summary": "",
    "name": "tiêu",
    "character": "硝",
    "index": 5991
  },
  {
    "phonetic": "nga, ngạ",
    "means": ["cái đầm, cái nện"],
    "summary": "",
    "name": "ngã",
    "character": "硪",
    "index": 5992
  },
  {
    "phonetic": "",
    "means": ["(xem: lưu hoàng, lưu huỳnh 硫黃)"],
    "summary": "",
    "name": "lưu",
    "character": "硫",
    "index": 5993
  },
  {
    "phonetic": "",
    "means": ["cứng, rắn"],
    "summary": "",
    "name": "ngạnh",
    "character": "硬",
    "index": 5994
  },
  {
    "phonetic": "",
    "means": ["(xem: mang tiêu 硭硝)"],
    "summary": "",
    "name": "mang",
    "character": "硭",
    "index": 5995
  },
  {
    "phonetic": "khác",
    "means": ["bền lâu", "đúng, trúng, chính xác"],
    "summary": "",
    "name": "xác",
    "character": "确",
    "index": 5996
  },
  {
    "phonetic": "",
    "means": ["cái bát", "cái nghiên mực"],
    "summary": "",
    "name": "nghiễn",
    "character": "硯",
    "index": 5997
  },
  {
    "phonetic": "kiềm, thiêm",
    "means": [
      "chất kiềm, chất dảm (trong đất, như xà phòng, dùng để giặt), bazơ"
    ],
    "summary": "",
    "name": "dảm",
    "character": "硷",
    "index": 5998
  },
  {
    "phonetic": "phanh",
    "means": ["boron, B"],
    "summary": "",
    "name": "bằng",
    "character": "硼",
    "index": 5999
  },
  {
    "phonetic": "đĩnh",
    "means": ["hòn đá để cột thuyền vào", "cái neo thuyền"],
    "summary": "",
    "name": "đính",
    "character": "碇",
    "index": 6000
  },
  {
    "phonetic": "",
    "means": ["nhà xây bằng đá để đề phòng giặc cướp, cái lô-cốt"],
    "summary": "",
    "name": "điêu",
    "character": "碉",
    "index": 6001
  },
  {
    "phonetic": "lựu",
    "means": ["(xem: lục lục 碌碌)"],
    "summary": "",
    "name": "lục",
    "character": "碌",
    "index": 6002
  },
  {
    "summary": "",
    "character": "碍",
    "traditionalCharacter": "礙",
    "phonetic": "",
    "means": ["trở ngại"],
    "name": "ngại",
    "index": 6003
  },
  {
    "phonetic": "",
    "means": ["đập vụn", "nhỏ mọn, vụn vặt"],
    "summary": "",
    "name": "toái",
    "character": "碎",
    "index": 6004
  },
  {
    "phonetic": "",
    "means": ["cái bia, đài bia", "cột mốc", "ca tụng"],
    "summary": "",
    "name": "bi",
    "character": "碑",
    "index": 6005
  },
  {
    "phonetic": "",
    "means": ["cái cối giã gạo"],
    "summary": "",
    "name": "đối",
    "character": "碓",
    "index": 6006
  },
  {
    "phonetic": "uyển",
    "means": ["cái bát nhỏ"],
    "summary": "",
    "name": "oản",
    "character": "碗",
    "index": 6007
  },
  {
    "phonetic": "",
    "means": ["chất điển, iôt"],
    "summary": "",
    "name": "điển",
    "character": "碘",
    "index": 6008
  },
  {
    "phonetic": "",
    "means": ["tên một vùng đất ở tỉnh Tứ Xuyên của Trung Quốc"],
    "summary": "",
    "name": "bội",
    "character": "碚",
    "index": 6009
  },
  {
    "summary": "",
    "character": "碛",
    "traditionalCharacter": "磧",
    "phonetic": "",
    "means": ["bãi sa mạc, bãi cát giữa sông"],
    "name": "thích",
    "index": 6010
  },
  {
    "phonetic": "",
    "means": ["xấu xí, bẽ mặt, khó coi"],
    "summary": "",
    "name": "sầm",
    "character": "碜",
    "index": 6011
  },
  {
    "phonetic": "",
    "means": ["cái đĩa"],
    "summary": "",
    "name": "điệp",
    "character": "碟",
    "index": 6012
  },
  {
    "phonetic": "",
    "means": ["đá lăn, hòn lăn, quả lăn"],
    "summary": "",
    "name": "độc",
    "character": "碡",
    "index": 6013
  },
  {
    "phonetic": "kệ",
    "means": ["hòn đá trơ trọi một mình"],
    "summary": "",
    "name": "kiệt",
    "character": "碣",
    "index": 6014
  },
  {
    "phonetic": "",
    "summary": "",
    "name": "biển",
    "character": "碥",
    "index": 6015
  },
  {
    "phonetic": "",
    "means": ["màu xanh biếc", "ngọc bích"],
    "summary": "",
    "name": "bích",
    "character": "碧",
    "index": 6016
  },
  {
    "phonetic": "",
    "means": ["to lớn"],
    "summary": "",
    "name": "thạc",
    "character": "碩",
    "index": 6017
  },
  {
    "phonetic": "binh, bánh",
    "means": ["lấy đá đập vào nhau"],
    "summary": "",
    "name": "bính",
    "character": "碰",
    "index": 6018
  },
  {
    "phonetic": "giảm, kiềm, kiểm, thiêm",
    "means": [
      "chất kiềm, chất dảm (trong đất, như xà phòng, dùng để giặt), bazơ"
    ],
    "summary": "",
    "name": "dảm",
    "character": "碱",
    "index": 6019
  },
  {
    "phonetic": "",
    "means": ["nguyên tố telu, Te"],
    "summary": "",
    "name": "đế",
    "character": "碲",
    "index": 6020
  },
  {
    "phonetic": "",
    "means": ["than củi"],
    "summary": "",
    "name": "thán",
    "character": "碳",
    "index": 6021
  },
  {
    "phonetic": "",
    "means": ["mảnh vụn", "chỗ mẻ, chỗ sứt", "xỉ"],
    "summary": "",
    "name": "tra",
    "character": "碴",
    "index": 6022
  },
  {
    "phonetic": "",
    "means": [
      "cây cầu, công trình kiến trúc có hình cung",
      "dùng gạch, đá để xây thành hình cầu"
    ],
    "summary": "",
    "name": "tuyên",
    "character": "碹",
    "index": 6023
  },
  {
    "phonetic": "",
    "means": ["bền lâu", "đúng, trúng, chính xác"],
    "summary": "",
    "name": "xác",
    "character": "確",
    "index": 6024
  },
  {
    "phonetic": "",
    "means": ["mã hiệu", "(xem: mã não 瑪瑙,碼碯)"],
    "summary": "",
    "name": "mã",
    "character": "碼",
    "index": 6025
  },
  {
    "phonetic": "chiển, niển, triển",
    "means": ["con lăn (để tán thuốc)", "nghiền nhỏ"],
    "summary": "",
    "name": "niễn",
    "character": "碾",
    "index": 6026
  },
  {
    "phonetic": "",
    "means": ["từ tính, từ trường, nam châm"],
    "summary": "",
    "name": "từ",
    "character": "磁",
    "index": 6027
  },
  {
    "phonetic": "bàng",
    "means": ["đá rơi lộp cộp", "pao (cân Anh, bằng 450g)", "cái cân"],
    "summary": "",
    "name": "bảng",
    "character": "磅",
    "index": 6028
  },
  {
    "phonetic": "",
    "means": ["đá tảng"],
    "summary": "",
    "name": "tảng",
    "character": "磉",
    "index": 6029
  },
  {
    "phonetic": "",
    "means": ["nhiều đá", "cao lớn"],
    "summary": "",
    "name": "lỗi",
    "character": "磊",
    "index": 6030
  },
  {
    "phonetic": "",
    "means": ["mài cho bóng"],
    "summary": "",
    "name": "tha",
    "character": "磋",
    "index": 6031
  },
  {
    "phonetic": "",
    "means": ["tảng đá lớn"],
    "summary": "",
    "name": "bàn",
    "character": "磐",
    "index": 6032
  },
  {
    "phonetic": "trích",
    "means": ["hình phanh thây", "nét phảy"],
    "summary": "",
    "name": "trách",
    "character": "磔",
    "index": 6033
  },
  {
    "phonetic": "",
    "means": ["tiếng đá chọi nhau"],
    "summary": "",
    "name": "khái",
    "character": "磕",
    "index": 6034
  },
  {
    "phonetic": "",
    "means": ["quả lăn, quả lu", "lăn"],
    "summary": "",
    "name": "cổn",
    "character": "磙",
    "index": 6035
  },
  {
    "phonetic": "",
    "means": ["gạch đã nung chín"],
    "summary": "",
    "name": "chuyên",
    "character": "磚",
    "index": 6036
  },
  {
    "phonetic": "má",
    "means": ["mài", "xay (gạo)"],
    "summary": "",
    "name": "ma",
    "character": "磨",
    "index": 6037
  },
  {
    "phonetic": "",
    "means": ["cái khánh"],
    "summary": "",
    "name": "khánh",
    "character": "磬",
    "index": 6038
  },
  {
    "phonetic": "ki",
    "means": ["hòn đá ngăn nước"],
    "summary": "",
    "name": "ky",
    "character": "磯",
    "index": 6039
  },
  {
    "phonetic": "",
    "means": ["(xem: xa cừ 硨磲)"],
    "summary": "",
    "name": "cừ",
    "character": "磲",
    "index": 6040
  },
  {
    "phonetic": "",
    "means": ["(xem: nham đặng 巖磴)"],
    "summary": "",
    "name": "đặng",
    "character": "磴",
    "index": 6041
  },
  {
    "phonetic": "lấn",
    "means": ["lửa ma chơi", "phốt-pho, P"],
    "summary": "",
    "name": "lân",
    "character": "磷",
    "index": 6042
  },
  {
    "phonetic": "khoáng",
    "means": ["lưu huỳnh"],
    "summary": "",
    "name": "hoàng",
    "character": "磺",
    "index": 6043
  },
  {
    "phonetic": "tiều",
    "means": ["đá ngầm", "san hô"],
    "summary": "",
    "name": "tiêu",
    "character": "礁",
    "index": 6044
  },
  {
    "phonetic": "",
    "means": ["khối đá lớn và dày"],
    "summary": "",
    "name": "đôn",
    "character": "礅",
    "index": 6045
  },
  {
    "phonetic": "",
    "means": ["đá tảng"],
    "summary": "",
    "name": "sở",
    "character": "礎",
    "index": 6046
  },
  {
    "phonetic": "",
    "means": ["thềm"],
    "summary": "",
    "name": "cương",
    "character": "礓",
    "index": 6047
  },
  {
    "phonetic": "",
    "means": ["trở ngại"],
    "summary": "",
    "name": "ngại",
    "character": "礙",
    "index": 6048
  },
  {
    "phonetic": "",
    "means": ["đá mông thạch (dùng làm thuốc)"],
    "summary": "",
    "name": "mông",
    "character": "礞",
    "index": 6049
  },
  {
    "phonetic": "",
    "means": ["đá thô"],
    "summary": "",
    "name": "sát",
    "character": "礤",
    "index": 6050
  },
  {
    "phonetic": "quáng",
    "means": ["quặng, khoáng sản"],
    "summary": "",
    "name": "khoáng",
    "character": "礦",
    "index": 6051
  },
  {
    "phonetic": "",
    "means": ["chất phèn"],
    "summary": "",
    "name": "phàn",
    "character": "礬",
    "index": 6052
  },
  {
    "phonetic": "",
    "means": ["(xem: bàn bạc 磐礡)"],
    "summary": "",
    "name": "bạc",
    "character": "礴",
    "index": 6053
  },
  {
    "phonetic": "kì, thị",
    "means": ["thần đất", "làm cho yên lòng", "cả, lớn"],
    "summary": "",
    "name": "kỳ",
    "character": "示",
    "index": 6054
  },
  {
    "phonetic": "",
    "summary": "",
    "name": "thị",
    "character": "礻",
    "index": 6055
  },
  {
    "summary": "",
    "character": "礼",
    "traditionalCharacter": "禮",
    "phonetic": "",
    "means": ["lễ nghi"],
    "name": "lễ",
    "index": 6056
  },
  {
    "phonetic": "",
    "means": ["thần đất", "đền thờ thần đất"],
    "summary": "",
    "name": "xã",
    "character": "社",
    "index": 6057
  },
  {
    "phonetic": "",
    "means": ["cúng tế", "năm"],
    "summary": "",
    "name": "tự",
    "character": "祀",
    "index": 6058
  },
  {
    "phonetic": "kì",
    "means": ["rất, cực kỳ"],
    "summary": "",
    "name": "kỳ",
    "character": "祁",
    "index": 6059
  },
  {
    "phonetic": "yêu",
    "means": ["một tôn giáo thờ thần lửa thời xưa"],
    "summary": "",
    "name": "hiên",
    "character": "祆",
    "index": 6060
  },
  {
    "phonetic": "chi, chỉ, kì",
    "means": ["thần đất", "làm cho yên lòng", "cả, lớn"],
    "summary": "",
    "name": "kỳ",
    "character": "祇",
    "index": 6061
  },
  {
    "phonetic": "kì",
    "means": ["cầu phúc, cầu cúng", "báo đền"],
    "summary": "",
    "name": "kỳ",
    "character": "祈",
    "index": 6062
  },
  {
    "phonetic": "",
    "means": ["phúc"],
    "summary": "",
    "name": "chỉ",
    "character": "祉",
    "index": 6063
  },
  {
    "summary": "",
    "character": "祎",
    "traditionalCharacter": "禕",
    "phonetic": "",
    "means": ["tốt đẹp"],
    "name": "y",
    "index": 6064
  },
  {
    "phonetic": "",
    "means": ["trừ khử đi"],
    "summary": "",
    "name": "phất",
    "character": "祓",
    "index": 6065
  },
  {
    "phonetic": "",
    "means": ["bí mật", "thần"],
    "summary": "",
    "name": "bí",
    "character": "祕",
    "index": 6066
  },
  {
    "phonetic": "",
    "means": ["ông", "tổ sư"],
    "summary": "",
    "name": "tổ",
    "character": "祖",
    "index": 6067
  },
  {
    "phonetic": "",
    "means": ["cung kính, kính trọng"],
    "summary": "",
    "name": "chi",
    "character": "祗",
    "index": 6068
  },
  {
    "phonetic": "",
    "means": ["tính toán"],
    "summary": "",
    "name": "toán",
    "character": "祘",
    "index": 6069
  },
  {
    "phonetic": "",
    "means": ["ngôi vua, triều vua", "vận nước", "phúc"],
    "summary": "",
    "name": "tộ",
    "character": "祚",
    "index": 6070
  },
  {
    "phonetic": "",
    "means": ["bài trừ, đuổi đi"],
    "summary": "",
    "name": "khư",
    "character": "祛",
    "index": 6071
  },
  {
    "phonetic": "",
    "means": ["phúc"],
    "summary": "",
    "name": "hỗ",
    "character": "祜",
    "index": 6072
  },
  {
    "phonetic": "chú",
    "means": ["khấn", "chúc tụng, mong muốn, mừng"],
    "summary": "",
    "name": "chúc",
    "character": "祝",
    "index": 6073
  },
  {
    "phonetic": "",
    "means": ["thần linh, thánh"],
    "summary": "",
    "name": "thần",
    "character": "神",
    "index": 6074
  },
  {
    "phonetic": "chuý, truý",
    "means": ["ma đói"],
    "summary": "",
    "name": "tuý",
    "character": "祟",
    "index": 6075
  },
  {
    "phonetic": "",
    "means": ["miếu thờ thần, nhà thờ", "cúng tế"],
    "summary": "",
    "name": "từ",
    "character": "祠",
    "index": 6076
  },
  {
    "summary": "",
    "character": "祢",
    "traditionalCharacter": "禰",
    "phonetic": "nễ",
    "means": ["miếu thờ cha"],
    "name": "nỉ",
    "index": 6077
  },
  {
    "phonetic": "",
    "means": ["điềm xấu tốt", "điềm lành"],
    "summary": "",
    "name": "tường",
    "character": "祥",
    "index": 6078
  },
  {
    "phonetic": "dao, thiêu",
    "means": ["nhà thờ để thần chủ đã lâu đời"],
    "summary": "",
    "name": "diêu",
    "character": "祧",
    "index": 6079
  },
  {
    "phonetic": "phiếu, tiêu",
    "means": ["nhẹ nhàng, nhanh nhẹn"],
    "summary": "",
    "name": "phiêu",
    "character": "票",
    "index": 6080
  },
  {
    "phonetic": "tế",
    "means": ["họ Sái"],
    "summary": "",
    "name": "sái",
    "character": "祭",
    "index": 6081
  },
  {
    "summary": "",
    "character": "祯",
    "traditionalCharacter": "禎",
    "phonetic": "",
    "means": ["điều tốt lành"],
    "name": "trinh",
    "index": 6082
  },
  {
    "summary": "",
    "character": "祷",
    "traditionalCharacter": "禱",
    "phonetic": "",
    "means": ["cầu cúng"],
    "name": "đảo",
    "index": 6083
  },
  {
    "summary": "",
    "character": "祸",
    "traditionalCharacter": "禍",
    "phonetic": "",
    "means": ["tai hoạ, tai vạ"],
    "name": "hoạ",
    "index": 6084
  },
  {
    "phonetic": "kì",
    "means": ["yên vui, tốt lành"],
    "summary": "",
    "name": "kỳ",
    "character": "祺",
    "index": 6085
  },
  {
    "phonetic": "lục",
    "means": ["phúc, tốt lành", "bổng lộc"],
    "summary": "",
    "name": "lộc",
    "character": "祿",
    "index": 6086
  },
  {
    "phonetic": "bằng, lẫm",
    "means": ["vâng mệnh, tuân theo", "thưa bẩm"],
    "summary": "",
    "name": "bẩm",
    "character": "禀",
    "index": 6087
  },
  {
    "phonetic": "câm, cầm",
    "means": ["cấm đoán (không cho phép)", "kiêng kị, tránh"],
    "summary": "",
    "name": "cấm",
    "character": "禁",
    "index": 6088
  },
  {
    "summary": "",
    "character": "禄",
    "traditionalCharacter": "祿",
    "phonetic": "",
    "means": ["phúc, tốt lành", "bổng lộc"],
    "name": "lộc",
    "index": 6089
  },
  {
    "summary": "",
    "character": "禅",
    "traditionalCharacter": "禪",
    "phonetic": "thiện",
    "means": ["lặng nghĩ suy xét", "thiền"],
    "name": "thiền",
    "index": 6090
  },
  {
    "phonetic": "hệ",
    "means": ["trừ ma quỷ"],
    "summary": "",
    "name": "hễ",
    "character": "禊",
    "index": 6091
  },
  {
    "phonetic": "",
    "means": ["tai hoạ, tai vạ"],
    "summary": "",
    "name": "hoạ",
    "character": "禍",
    "index": 6092
  },
  {
    "phonetic": "",
    "means": ["điều tốt lành"],
    "summary": "",
    "name": "trinh",
    "character": "禎",
    "index": 6093
  },
  {
    "phonetic": "",
    "means": ["phúc, may mắn"],
    "summary": "",
    "name": "phúc",
    "character": "福",
    "index": 6094
  },
  {
    "phonetic": "",
    "means": ["tốt đẹp"],
    "summary": "",
    "name": "y",
    "character": "禕",
    "index": 6095
  },
  {
    "phonetic": "",
    "summary": "",
    "name": "chước",
    "character": "禚",
    "index": 6096
  },
  {
    "phonetic": "",
    "means": ["được phúc nhờ có lòng thành"],
    "summary": "",
    "name": "chân",
    "character": "禛",
    "index": 6097
  },
  {
    "phonetic": "ngữ",
    "means": ["ngăn lại, chống lại"],
    "summary": "",
    "name": "ngự",
    "character": "禦",
    "index": 6098
  },
  {
    "phonetic": "hi",
    "means": ["phúc, tốt đẹp"],
    "summary": "",
    "name": "hy",
    "character": "禧",
    "index": 6099
  },
  {
    "phonetic": "thiện",
    "means": ["lặng nghĩ suy xét", "thiền"],
    "summary": "",
    "name": "thiền",
    "character": "禪",
    "index": 6100
  },
  {
    "phonetic": "",
    "means": ["lễ nghi"],
    "summary": "",
    "name": "lễ",
    "character": "禮",
    "index": 6101
  },
  {
    "phonetic": "nễ",
    "means": ["miếu thờ cha"],
    "summary": "",
    "name": "nỉ",
    "character": "禰",
    "index": 6102
  },
  {
    "phonetic": "",
    "means": ["cầu cúng"],
    "summary": "",
    "name": "đảo",
    "character": "禱",
    "index": 6103
  },
  {
    "phonetic": "",
    "means": ["lễ cầu mát"],
    "summary": "",
    "name": "nhương",
    "character": "禳",
    "index": 6104
  },
  {
    "phonetic": "nhựu",
    "means": ["vết chân thú"],
    "summary": "",
    "name": "nhụ",
    "character": "禸",
    "index": 6105
  },
  {
    "phonetic": "",
    "means": ["vua Vũ (đời nhà Hạ)"],
    "summary": "",
    "name": "vũ",
    "character": "禹",
    "index": 6106
  },
  {
    "phonetic": "ngung, ngẫu, ngụ",
    "means": ["đất Ngu", "vùng đất 10 dặm bằng 1 ngu"],
    "summary": "",
    "name": "ngu",
    "character": "禺",
    "index": 6107
  },
  {
    "phonetic": "li, lệ",
    "means": [
      "dời xa, chia lìa, dời khỏi",
      "quẻ Ly (trung hư) trong Kinh Dịch (chỉ có vạch giữa đứt, tượng Hoả (lửa), trượng trưng cho con gái giữa, hành Hoả, tuổi Ngọ, hướng Nam)"
    ],
    "summary": "",
    "name": "ly",
    "character": "离",
    "index": 6108
  },
  {
    "phonetic": "",
    "means": ["(một loài côn trùng)", "họ Tiết"],
    "summary": "",
    "name": "tiết",
    "character": "禼",
    "index": 6109
  },
  {
    "phonetic": "",
    "means": ["loài chim"],
    "summary": "",
    "name": "cầm",
    "character": "禽",
    "index": 6110
  },
  {
    "phonetic": "",
    "means": ["lúa, mạ"],
    "summary": "",
    "name": "hoà",
    "character": "禾",
    "index": 6111
  },
  {
    "phonetic": "thốc",
    "means": ["trọc, trụi, hói", "cùn, cụt"],
    "summary": "",
    "name": "ngốc",
    "character": "禿",
    "index": 6112
  },
  {
    "phonetic": "",
    "means": ["ra hoa, nở hoa", "đẹp đẽ", "giỏi, xuất sắc"],
    "summary": "",
    "name": "tú",
    "character": "秀",
    "index": 6113
  },
  {
    "phonetic": "",
    "means": ["riêng, việc riêng, của riêng"],
    "summary": "",
    "name": "tư",
    "character": "私",
    "index": 6114
  },
  {
    "summary": "",
    "character": "秃",
    "traditionalCharacter": "禿",
    "phonetic": "thốc",
    "means": ["trọc, trụi, hói", "cùn, cụt"],
    "name": "ngốc",
    "index": 6115
  },
  {
    "phonetic": "",
    "means": ["cuống lúa, thân cây lúa"],
    "summary": "",
    "name": "cán",
    "character": "秆",
    "index": 6116
  },
  {
    "phonetic": "",
    "means": ["cầm nắm"],
    "summary": "",
    "name": "bỉnh",
    "character": "秉",
    "index": 6117
  },
  {
    "phonetic": "thâu",
    "means": ["mùa thu"],
    "summary": "",
    "name": "thu",
    "character": "秋",
    "index": 6118
  },
  {
    "summary": "",
    "character": "种",
    "traditionalCharacter": "種",
    "phonetic": "chúng, trùng, xung",
    "means": ["thóc giống", "chủng loại, giống"],
    "name": "chủng",
    "index": 6119
  },
  {
    "phonetic": "",
    "means": [
      "khoa, bộ môn",
      "xử tội, kết án",
      "khoa cử, khoa thi",
      "để đầu trần",
      "phần trong một vở tuồng"
    ],
    "summary": "",
    "name": "khoa",
    "character": "科",
    "index": 6120
  },
  {
    "phonetic": "miễu",
    "means": ["tua lúa", "giây (bằng 1/60 phút)"],
    "summary": "",
    "name": "miểu",
    "character": "秒",
    "index": 6121
  },
  {
    "phonetic": "tỷ",
    "means": ["hạt lúa lép", "làm nhơ bẩn"],
    "summary": "",
    "name": "bỉ",
    "character": "秕",
    "index": 6122
  },
  {
    "phonetic": "",
    "means": ["bí mật", "thần"],
    "summary": "",
    "name": "bí",
    "character": "秘",
    "index": 6123
  },
  {
    "phonetic": "",
    "means": ["thưa thớt rõ rệt, thưa đều"],
    "summary": "",
    "name": "lịch",
    "character": "秝",
    "index": 6124
  },
  {
    "phonetic": "",
    "means": ["tô thuế", "cho thuê"],
    "summary": "",
    "name": "tô",
    "character": "租",
    "index": 6125
  },
  {
    "phonetic": "",
    "means": ["thóc cho ngựa ăn"],
    "summary": "",
    "name": "mạt",
    "character": "秣",
    "index": 6126
  },
  {
    "phonetic": "",
    "means": ["vừa, hợp với, xứng với", "cái cân"],
    "summary": "",
    "name": "xứng",
    "character": "秤",
    "index": 6127
  },
  {
    "phonetic": "",
    "means": ["đời nhà Tần", "nước Tần"],
    "summary": "",
    "name": "tần",
    "character": "秦",
    "index": 6128
  },
  {
    "phonetic": "ưởng",
    "means": ["gieo mạ", "cây lúa non"],
    "summary": "",
    "name": "ương",
    "character": "秧",
    "index": 6129
  },
  {
    "phonetic": "trật",
    "means": ["thứ tự", "trật (10 năm)"],
    "summary": "",
    "name": "dật",
    "character": "秩",
    "index": 6130
  },
  {
    "phonetic": "",
    "means": ["lúa nếp để cất rượu"],
    "summary": "",
    "name": "thuật",
    "character": "秫",
    "index": 6131
  },
  {
    "phonetic": "tỉ",
    "means": ["một tỷ"],
    "summary": "",
    "name": "tỷ",
    "character": "秭",
    "index": 6132
  },
  {
    "summary": "",
    "character": "积",
    "traditionalCharacter": "積",
    "phonetic": "tí",
    "means": ["chứa chất, tích, dồn lại", "tích (kết quả phép nhân)"],
    "name": "tích",
    "index": 6133
  },
  {
    "summary": "",
    "character": "称",
    "traditionalCharacter": "稱",
    "phonetic": "xứng",
    "means": ["gọi bằng, gọi là, xưng là"],
    "name": "xưng",
    "index": 6134
  },
  {
    "phonetic": "",
    "means": ["lõi của cọng rơm"],
    "summary": "",
    "name": "kiết",
    "character": "秸",
    "index": 6135
  },
  {
    "phonetic": "dị, sỉ, xỉ",
    "means": ["di chuyển"],
    "summary": "",
    "name": "di",
    "character": "移",
    "index": 6136
  },
  {
    "summary": "",
    "character": "秽",
    "traditionalCharacter": "穢",
    "phonetic": "",
    "means": ["cỏ xấu, cỏ dại", "bẩn thỉu"],
    "name": "uế",
    "index": 6137
  },
  {
    "phonetic": "hi",
    "means": ["thưa thớt", "loãng, lỏng"],
    "summary": "",
    "name": "hy",
    "character": "稀",
    "index": 6138
  },
  {
    "phonetic": "",
    "means": ["cỏ hoang, cỏ đồng"],
    "summary": "",
    "name": "lang",
    "character": "稂",
    "index": 6139
  },
  {
    "phonetic": "phu",
    "means": ["trấu"],
    "summary": "",
    "name": "phù",
    "character": "稃",
    "index": 6140
  },
  {
    "phonetic": "thuế, thối",
    "means": ["cởi bỏ, tháo"],
    "summary": "",
    "name": "thoát",
    "character": "稅",
    "index": 6141
  },
  {
    "phonetic": "",
    "means": ["lúa chét, lúa ma"],
    "summary": "",
    "name": "lữ",
    "character": "稆",
    "index": 6142
  },
  {
    "phonetic": "",
    "means": ["cuống lúa, thân cây lúa"],
    "summary": "",
    "name": "cán",
    "character": "稈",
    "index": 6143
  },
  {
    "phonetic": "",
    "means": ["đường đi, đoạn đường", "đo, lường", "trật tự"],
    "summary": "",
    "name": "trình",
    "character": "程",
    "index": 6144
  },
  {
    "phonetic": "sao",
    "means": ["chút ít, hơi hơi"],
    "summary": "",
    "name": "sảo",
    "character": "稍",
    "index": 6145
  },
  {
    "summary": "",
    "character": "税",
    "traditionalCharacter": "稅",
    "phonetic": "thoát, thối",
    "means": ["tô thuế"],
    "name": "thuế",
    "index": 6146
  },
  {
    "phonetic": "nẫm",
    "means": ["lúa chín, được mùa", "năm", "tội ác"],
    "summary": "",
    "name": "nhẫm",
    "character": "稔",
    "index": 6147
  },
  {
    "phonetic": "",
    "means": ["(một thứ cỏ)"],
    "summary": "",
    "name": "bại",
    "character": "稗",
    "index": 6148
  },
  {
    "phonetic": "thực",
    "means": ["trồng sớm hoặc chín sớm (lúa, hoa màu)"],
    "summary": "",
    "name": "trị",
    "character": "稙",
    "index": 6149
  },
  {
    "phonetic": "",
    "means": ["lúa non", "trẻ con"],
    "summary": "",
    "name": "trĩ",
    "character": "稚",
    "index": 6150
  },
  {
    "phonetic": "lắng",
    "means": ["oai linh", "góc, cạnh"],
    "summary": "",
    "name": "lăng",
    "character": "稜",
    "index": 6151
  },
  {
    "phonetic": "khoả",
    "means": ["cây lúa"],
    "summary": "",
    "name": "khoa",
    "character": "稞",
    "index": 6152
  },
  {
    "phonetic": "lẫm",
    "means": ["vâng mệnh, tuân theo", "thưa bẩm"],
    "summary": "",
    "name": "bẩm",
    "character": "稟",
    "index": 6153
  },
  {
    "phonetic": "điều, điệu",
    "means": ["đặc sệt, mau, sít, đông đúc"],
    "summary": "",
    "name": "trù",
    "character": "稠",
    "index": 6154
  },
  {
    "summary": "",
    "character": "稣",
    "traditionalCharacter": "穌",
    "phonetic": "",
    "means": ["(xem: gia tô 耶穌)"],
    "name": "tô",
    "index": 6155
  },
  {
    "phonetic": "",
    "means": ["(xem: biển đậu 藊豆,稨豆)"],
    "summary": "",
    "name": "biển",
    "character": "稨",
    "index": 6156
  },
  {
    "phonetic": "chúng",
    "means": ["thóc giống", "chủng loại, giống"],
    "summary": "",
    "name": "chủng",
    "character": "種",
    "index": 6157
  },
  {
    "phonetic": "xưng",
    "means": ["vừa, hợp với, xứng với", "cái cân"],
    "summary": "",
    "name": "xứng",
    "character": "稱",
    "index": 6158
  },
  {
    "summary": "",
    "character": "稳",
    "traditionalCharacter": "穩",
    "phonetic": "",
    "means": ["vững vàng, chắc chắn"],
    "name": "ổn",
    "index": 6159
  },
  {
    "phonetic": "",
    "means": ["lúa tắc (giống lúa quý nhất)", "thần lúa"],
    "summary": "",
    "name": "tắc",
    "character": "稷",
    "index": 6160
  },
  {
    "phonetic": "chân",
    "means": ["cây cỏ mọc thành bụi"],
    "summary": "",
    "name": "chẩn",
    "character": "稹",
    "index": 6161
  },
  {
    "phonetic": "",
    "means": ["lúa nước, lúa gié"],
    "summary": "",
    "name": "đạo",
    "character": "稻",
    "index": 6162
  },
  {
    "phonetic": "",
    "means": ["cấy lúa"],
    "summary": "",
    "name": "giá",
    "character": "稼",
    "index": 6163
  },
  {
    "phonetic": "khể",
    "means": ["xem xét, suy xét", "cãi cọ"],
    "summary": "",
    "name": "kê",
    "character": "稽",
    "index": 6164
  },
  {
    "phonetic": "",
    "means": ["rơm rạ", "bản thảo, bản nháp"],
    "summary": "",
    "name": "cảo",
    "character": "稿",
    "index": 6165
  },
  {
    "phonetic": "",
    "means": ["cây lương thực, thóc lúa, kê"],
    "summary": "",
    "name": "cốc",
    "character": "穀",
    "index": 6166
  },
  {
    "phonetic": "mặc",
    "means": ["hoà mục", "hàng mục (hàng bên phải)"],
    "summary": "",
    "name": "mục",
    "character": "穆",
    "index": 6167
  },
  {
    "phonetic": "",
    "means": ["(xem: gia tô 耶穌)"],
    "summary": "",
    "name": "tô",
    "character": "穌",
    "index": 6168
  },
  {
    "phonetic": "tý",
    "means": ["chứa chất, tích, dồn lại", "tích (kết quả phép nhân)"],
    "summary": "",
    "name": "tích",
    "character": "積",
    "index": 6169
  },
  {
    "phonetic": "",
    "means": ["bông lúa, ngọn lúa"],
    "summary": "",
    "name": "dĩnh",
    "character": "穎",
    "index": 6170
  },
  {
    "summary": "",
    "character": "穑",
    "traditionalCharacter": "穡",
    "phonetic": "",
    "means": ["gặt hái"],
    "name": "sắc",
    "index": 6171
  },
  {
    "phonetic": "",
    "means": ["bông lúa, bông hoa", "tàn đuốc"],
    "summary": "",
    "name": "tuệ",
    "character": "穗",
    "index": 6172
  },
  {
    "phonetic": "",
    "means": ["gặt hái"],
    "summary": "",
    "name": "sắc",
    "character": "穡",
    "index": 6173
  },
  {
    "phonetic": "",
    "means": ["cỏ xấu, cỏ dại", "bẩn thỉu"],
    "summary": "",
    "name": "uế",
    "character": "穢",
    "index": 6174
  },
  {
    "phonetic": "",
    "means": ["vững vàng, chắc chắn"],
    "summary": "",
    "name": "ổn",
    "character": "穩",
    "index": 6175
  },
  {
    "phonetic": "",
    "means": ["gặt lúa"],
    "summary": "",
    "name": "hoạch",
    "character": "穫",
    "index": 6176
  },
  {
    "phonetic": "nhưỡng",
    "means": ["thân cây lúa"],
    "summary": "",
    "name": "nhương",
    "character": "穰",
    "index": 6177
  },
  {
    "phonetic": "",
    "means": ["hang", "lỗ", "hố"],
    "summary": "",
    "name": "huyệt",
    "character": "穴",
    "index": 6178
  },
  {
    "phonetic": "ấp",
    "means": ["móc, thò tay"],
    "summary": "",
    "name": "oạt",
    "character": "穵",
    "index": 6179
  },
  {
    "phonetic": "",
    "means": ["kết cục", "suy xét tỉ mỉ"],
    "summary": "",
    "name": "cứu",
    "character": "究",
    "index": 6180
  },
  {
    "summary": "",
    "character": "穷",
    "traditionalCharacter": "窮",
    "phonetic": "",
    "means": ["cuối, hết"],
    "name": "cùng",
    "index": 6181
  },
  {
    "phonetic": "",
    "means": ["(xem: truân tịch 窀穸)"],
    "summary": "",
    "name": "tịch",
    "character": "穸",
    "index": 6182
  },
  {
    "phonetic": "",
    "means": ["cao lớn và hình khum cong"],
    "summary": "",
    "name": "khung",
    "character": "穹",
    "index": 6183
  },
  {
    "phonetic": "khống, khổng",
    "means": ["trống rỗng", "không gian"],
    "summary": "",
    "name": "không",
    "character": "空",
    "index": 6184
  },
  {
    "phonetic": "xuyến",
    "means": ["thủng lỗ", "xỏ, xâu, xiên"],
    "summary": "",
    "name": "xuyên",
    "character": "穿",
    "index": 6185
  },
  {
    "phonetic": "",
    "means": ["(xem: truân tịch 窀穸)"],
    "summary": "",
    "name": "truân",
    "character": "窀",
    "index": 6186
  },
  {
    "phonetic": "gia",
    "means": ["phá tung", "đột ngột, bỗng nhiên", "ống khói"],
    "summary": "",
    "name": "đột",
    "character": "突",
    "index": 6187
  },
  {
    "summary": "",
    "character": "窃",
    "traditionalCharacter": "竊",
    "phonetic": "",
    "means": ["ăn cắp, ăn trộm"],
    "name": "thiết",
    "index": 6188
  },
  {
    "phonetic": "",
    "means": ["trật hẹp"],
    "summary": "",
    "name": "trách",
    "character": "窄",
    "index": 6189
  },
  {
    "phonetic": "liểu, yểu",
    "means": ["mờ mịt, lặng bặt", "sâu thẳm"],
    "summary": "",
    "name": "diểu",
    "character": "窅",
    "index": 6190
  },
  {
    "phonetic": "",
    "means": ["hạ quan tài xuống huyệt"],
    "summary": "",
    "name": "biếm",
    "character": "窆",
    "index": 6191
  },
  {
    "phonetic": "",
    "means": ["sâu xa"],
    "summary": "",
    "name": "yểu",
    "character": "窈",
    "index": 6192
  },
  {
    "summary": "",
    "character": "窍",
    "traditionalCharacter": "竅",
    "phonetic": "",
    "means": ["lỗ, hốc"],
    "name": "khiếu",
    "index": 6193
  },
  {
    "summary": "",
    "character": "窑",
    "traditionalCharacter": "窯",
    "phonetic": "dao",
    "means": ["cái lò nung", "đồ sành sứ"],
    "name": "diêu",
    "index": 6194
  },
  {
    "phonetic": "chất",
    "means": ["tắc nghẽn, trở ngại"],
    "summary": "",
    "name": "trất",
    "character": "窒",
    "index": 6195
  },
  {
    "phonetic": "dao, thiêu",
    "means": ["nhỏ", "tốt đẹp"],
    "summary": "",
    "name": "điệu",
    "character": "窕",
    "index": 6196
  },
  {
    "phonetic": "giáo, giếu",
    "means": ["hầm, hố", "tấm lòng sâu xa"],
    "summary": "",
    "name": "diếu",
    "character": "窖",
    "index": 6197
  },
  {
    "phonetic": "",
    "means": ["cửa sổ"],
    "summary": "",
    "name": "song",
    "character": "窗",
    "index": 6198
  },
  {
    "phonetic": "",
    "means": ["túng thiếu, quẫn bách"],
    "summary": "",
    "name": "quẫn",
    "character": "窘",
    "index": 6199
  },
  {
    "summary": "",
    "character": "窜",
    "traditionalCharacter": "竄",
    "phonetic": "soán",
    "means": [
      "chạy trốn",
      "đuổi đi, đuổi ra",
      "sửa (bài), chữa (văn)",
      "sực mùi, nức mùi",
      "giấu giếm",
      "giết",
      "hun, xông (bằng thuốc)"
    ],
    "name": "thoán",
    "index": 6200
  },
  {
    "summary": "",
    "character": "窝",
    "traditionalCharacter": "窩",
    "phonetic": "",
    "means": ["tổ, hang, ổ"],
    "name": "oa",
    "index": 6201
  },
  {
    "phonetic": "",
    "means": ["cái hang, nhà hầm"],
    "summary": "",
    "name": "quật",
    "character": "窟",
    "index": 6202
  },
  {
    "phonetic": "khoa, khoả",
    "means": ["cái lỗ, cái hốc"],
    "summary": "",
    "name": "khoà",
    "character": "窠",
    "index": 6203
  },
  {
    "phonetic": "",
    "means": ["vọt ra khỏi hang", "tiếng huyên náo"],
    "summary": "",
    "name": "tốt",
    "character": "窣",
    "index": 6204
  },
  {
    "summary": "",
    "character": "窥",
    "traditionalCharacter": "窺",
    "phonetic": "",
    "means": ["dòm, ngó, nhìn trộm"],
    "name": "khuy",
    "index": 6205
  },
  {
    "summary": "",
    "character": "窦",
    "traditionalCharacter": "竇",
    "phonetic": "",
    "means": ["cái lỗ"],
    "name": "đậu",
    "index": 6206
  },
  {
    "phonetic": "huân",
    "means": ["cái nhà hầm", "chôn lâu"],
    "summary": "",
    "name": "ấm",
    "character": "窨",
    "index": 6207
  },
  {
    "phonetic": "",
    "means": ["tổ, hang, ổ"],
    "summary": "",
    "name": "oa",
    "character": "窩",
    "index": 6208
  },
  {
    "phonetic": "",
    "means": ["chỗ trũng"],
    "summary": "",
    "name": "oa",
    "character": "窪",
    "index": 6209
  },
  {
    "phonetic": "",
    "means": ["đào tường, khoét tường", "lỗ nhỏ trên cửa"],
    "summary": "",
    "name": "du",
    "character": "窬",
    "index": 6210
  },
  {
    "summary": "",
    "character": "窭",
    "traditionalCharacter": " ",
    "phonetic": "lũ",
    "means": ["nghèo túng"],
    "name": "cũ",
    "index": 6211
  },
  {
    "phonetic": "",
    "means": ["cuối, hết"],
    "summary": "",
    "name": "cùng",
    "character": "窮",
    "index": 6212
  },
  {
    "phonetic": "dao",
    "means": ["cái lò nung", "đồ sành sứ"],
    "summary": "",
    "name": "diêu",
    "character": "窯",
    "index": 6213
  },
  {
    "phonetic": "",
    "means": ["xấu, vô dụng"],
    "summary": "",
    "name": "dũ",
    "character": "窳",
    "index": 6214
  },
  {
    "phonetic": "",
    "means": ["tiếng huyên náo không yên"],
    "summary": "",
    "name": "tất",
    "character": "窸",
    "index": 6215
  },
  {
    "phonetic": "",
    "means": ["dòm, ngó, nhìn trộm"],
    "summary": "",
    "name": "khuy",
    "character": "窺",
    "index": 6216
  },
  {
    "phonetic": "",
    "means": ["chỗ hở ra", "rỗng"],
    "summary": "",
    "name": "khoản",
    "character": "窾",
    "index": 6217
  },
  {
    "phonetic": "long",
    "means": ["lõm, trũng", "cái hố"],
    "summary": "",
    "name": "lung",
    "character": "窿",
    "index": 6218
  },
  {
    "phonetic": "soán",
    "means": [
      "chạy trốn",
      "đuổi đi, đuổi ra",
      "sửa (bài), chữa (văn)",
      "sực mùi, nức mùi",
      "giấu giếm",
      "giết",
      "hun, xông (bằng thuốc)"
    ],
    "summary": "",
    "name": "thoán",
    "character": "竄",
    "index": 6219
  },
  {
    "phonetic": "",
    "means": ["lỗ, hốc"],
    "summary": "",
    "name": "khiếu",
    "character": "竅",
    "index": 6220
  },
  {
    "phonetic": "",
    "means": ["cái lỗ"],
    "summary": "",
    "name": "đậu",
    "character": "竇",
    "index": 6221
  },
  {
    "phonetic": "",
    "means": ["cái bếp"],
    "summary": "",
    "name": "táo",
    "character": "竈",
    "index": 6222
  },
  {
    "phonetic": "",
    "means": ["ăn cắp, ăn trộm"],
    "summary": "",
    "name": "thiết",
    "character": "竊",
    "index": 6223
  },
  {
    "phonetic": "",
    "means": ["đứng thẳng", "lập tức, tức thì"],
    "summary": "",
    "name": "lập",
    "character": "立",
    "index": 6224
  },
  {
    "summary": "",
    "character": "竖",
    "traditionalCharacter": "豎",
    "phonetic": "",
    "means": ["dựng đứng, chiều dọc", "nét dọc"],
    "name": "thụ",
    "index": 6225
  },
  {
    "phonetic": "",
    "summary": "",
    "name": "cú",
    "character": "竘",
    "index": 6226
  },
  {
    "phonetic": "",
    "means": ["đứng lâu", "nhà trạm, chỗ trú", "chặng đường, đoạn đường"],
    "summary": "",
    "name": "trạm",
    "character": "站",
    "index": 6227
  },
  {
    "summary": "",
    "character": "竞",
    "traditionalCharacter": "競",
    "phonetic": "",
    "means": ["mạnh, khỏe", "ganh đua"],
    "name": "cạnh",
    "index": 6228
  },
  {
    "phonetic": "cảnh",
    "means": ["xong, hoàn thành", "cuối cùng"],
    "summary": "",
    "name": "cánh",
    "character": "竟",
    "index": 6229
  },
  {
    "phonetic": "",
    "means": [
      "chương (sách)",
      "trật tự mạch lạc",
      "điều lệ",
      "con dấu",
      "huy chương"
    ],
    "summary": "",
    "name": "chương",
    "character": "章",
    "index": 6230
  },
  {
    "phonetic": "thuyên",
    "means": ["thôi, xong việc"],
    "summary": "",
    "name": "thuân",
    "character": "竣",
    "index": 6231
  },
  {
    "phonetic": "",
    "means": ["đứa trẻ"],
    "summary": "",
    "name": "đồng",
    "character": "童",
    "index": 6232
  },
  {
    "phonetic": "",
    "means": ["sợ, động"],
    "summary": "",
    "name": "tủng",
    "character": "竦",
    "index": 6233
  },
  {
    "phonetic": "",
    "means": ["hết, cạn", "vác, đội"],
    "summary": "",
    "name": "kiệt",
    "character": "竭",
    "index": 6234
  },
  {
    "phonetic": "",
    "means": ["đầu, mối"],
    "summary": "",
    "name": "đoan",
    "character": "端",
    "index": 6235
  },
  {
    "phonetic": "",
    "means": ["mạnh, khỏe", "ganh đua"],
    "summary": "",
    "name": "cạnh",
    "character": "競",
    "index": 6236
  },
  {
    "phonetic": "",
    "means": ["cây trúc, cây tre", "cây tiêu, cây sáo"],
    "summary": "",
    "name": "trúc",
    "character": "竹",
    "index": 6237
  },
  {
    "phonetic": "đốc",
    "means": ["nước Trúc"],
    "summary": "",
    "name": "trúc",
    "character": "竺",
    "index": 6238
  },
  {
    "phonetic": "",
    "means": ["cái vu (một loại nhạc cụ)"],
    "summary": "",
    "name": "vu",
    "character": "竽",
    "index": 6239
  },
  {
    "phonetic": "cán",
    "means": ["cái cần câu"],
    "summary": "",
    "name": "can",
    "character": "竿",
    "index": 6240
  },
  {
    "summary": "",
    "character": "笃",
    "traditionalCharacter": "篤",
    "phonetic": "",
    "means": ["dốc sức, dốc lòng"],
    "name": "đốc",
    "index": 6241
  },
  {
    "phonetic": "",
    "means": ["trâm cài đầu"],
    "summary": "",
    "name": "kê",
    "character": "笄",
    "index": 6242
  },
  {
    "phonetic": "",
    "means": ["cây tre gai", "bờ giậu, hàng rào"],
    "summary": "",
    "name": "ba",
    "character": "笆",
    "index": 6243
  },
  {
    "phonetic": "",
    "means": ["hòm sách, tráp sách"],
    "summary": "",
    "name": "cấp",
    "character": "笈",
    "index": 6244
  },
  {
    "phonetic": "trảo",
    "means": ["(xem: tráo ly 笊篱,笊籬)"],
    "summary": "",
    "name": "tráo",
    "character": "笊",
    "index": 6245
  },
  {
    "summary": "",
    "character": "笋",
    "traditionalCharacter": "”",
    "phonetic": "duẫn, tuân, tuẩn",
    "means": ["măng tre"],
    "name": "duẩn",
    "index": 6246
  },
  {
    "phonetic": "",
    "means": ["cái hốt (các quan dùng khi vào trầu)"],
    "summary": "",
    "name": "hốt",
    "character": "笏",
    "index": 6247
  },
  {
    "phonetic": "",
    "means": ["cười"],
    "summary": "",
    "name": "tiếu",
    "character": "笑",
    "index": 6248
  },
  {
    "summary": "",
    "character": "笔",
    "traditionalCharacter": "筆",
    "phonetic": "",
    "means": [
      "cái bút (để viết)",
      "viết bằng bút",
      "nét trong chữ Hán",
      "cách viết, cách vẽ",
      "món tiền",
      "bức tranh"
    ],
    "name": "bút",
    "index": 6249
  },
  {
    "phonetic": "",
    "means": ["ống máng tre"],
    "summary": "",
    "name": "kiển",
    "character": "笕",
    "index": 6250
  },
  {
    "phonetic": "sinh",
    "means": ["sinh (một nhạc cụ như sáo)", "cái sênh", "cái chiếu"],
    "summary": "",
    "name": "sanh",
    "character": "笙",
    "index": 6251
  },
  {
    "phonetic": "",
    "means": ["cái sáo (để thổi)"],
    "summary": "",
    "name": "địch",
    "character": "笛",
    "index": 6252
  },
  {
    "phonetic": "",
    "means": ["đánh roi, vọt roi"],
    "summary": "",
    "name": "si",
    "character": "笞",
    "index": 6253
  },
  {
    "phonetic": "",
    "means": ["cái nón", "cái lồng bàn"],
    "summary": "",
    "name": "lạp",
    "character": "笠",
    "index": 6254
  },
  {
    "phonetic": "",
    "means": ["(xem: điều trửu 笤帚)"],
    "summary": "",
    "name": "điều",
    "character": "笤",
    "index": 6255
  },
  {
    "phonetic": "",
    "means": ["cái sọt vuông, thùng vuông"],
    "summary": "",
    "name": "tứ",
    "character": "笥",
    "index": 6256
  },
  {
    "phonetic": "phù",
    "means": ["phù hiệu, thẻ bài", "cái bùa trừ ma"],
    "summary": "",
    "name": "bồ",
    "character": "符",
    "index": 6257
  },
  {
    "phonetic": "bát, bản",
    "means": [
      "đần, dốt, ngốc",
      "chậm chạp, vụng về",
      "cồng kềnh, cục kịch, nặng nề"
    ],
    "summary": "",
    "name": "bổn",
    "character": "笨",
    "index": 6258
  },
  {
    "phonetic": "",
    "means": ["chiếu đan bằng nan tre to"],
    "summary": "",
    "name": "đát",
    "character": "笪",
    "index": 6259
  },
  {
    "phonetic": "",
    "means": ["cái đệm lót giường"],
    "summary": "",
    "name": "chỉ",
    "character": "笫",
    "index": 6260
  },
  {
    "phonetic": "",
    "means": [
      "thứ bậc",
      "nhà của vương công hoặc đại thần",
      "khoa thi",
      "thi đỗ"
    ],
    "summary": "",
    "name": "đệ",
    "character": "第",
    "index": 6261
  },
  {
    "phonetic": "trá, tạc",
    "means": [
      "thúc bách, gấp rút",
      "tấm vỉ tre đặt giữa lớp ngói và hàng rui trên mái nhà",
      "túi đựng tên"
    ],
    "summary": "",
    "name": "trách",
    "character": "笮",
    "index": 6262
  },
  {
    "phonetic": "cầu, cẩu",
    "means": ["cái đó (để bắt cá)"],
    "summary": "",
    "name": "cú",
    "character": "笱",
    "index": 6263
  },
  {
    "phonetic": "gia",
    "means": ["cái kèn lá"],
    "summary": "",
    "name": "già",
    "character": "笳",
    "index": 6264
  },
  {
    "phonetic": "",
    "means": ["(xem: phả la 笸籮,笸箩)"],
    "summary": "",
    "name": "phả",
    "character": "笸",
    "index": 6265
  },
  {
    "summary": "",
    "character": "笺",
    "traditionalCharacter": "箋",
    "phonetic": "",
    "means": ["sách có chỉ dẫn, kiến giải tỉ mỉ"],
    "name": "tiên",
    "index": 6266
  },
  {
    "summary": "",
    "character": "笼",
    "traditionalCharacter": "籠",
    "phonetic": "lộng",
    "means": ["cái lồng", "lồng nhau"],
    "name": "lung",
    "index": 6267
  },
  {
    "summary": "",
    "character": "笾",
    "traditionalCharacter": "籩",
    "phonetic": "",
    "means": ["cái biên (để bày đồ cúng tế)"],
    "name": "biên",
    "index": 6268
  },
  {
    "phonetic": "",
    "means": ["cái bàn chải làm bằng tre"],
    "summary": "",
    "name": "tiển",
    "character": "筅",
    "index": 6270
  },
  {
    "phonetic": "",
    "means": [
      "cái bút (để viết)",
      "viết bằng bút",
      "nét trong chữ Hán",
      "cách viết, cách vẽ",
      "món tiền",
      "bức tranh"
    ],
    "summary": "",
    "name": "bút",
    "character": "筆",
    "index": 6271
  },
  {
    "phonetic": "",
    "means": ["(một giống trúc)"],
    "summary": "",
    "name": "cung",
    "character": "筇",
    "index": 6272
  },
  {
    "phonetic": "",
    "means": ["bằng nhau", "thứ bậc", "chờ đợi"],
    "summary": "",
    "name": "đẳng",
    "character": "等",
    "index": 6273
  },
  {
    "phonetic": "giảo",
    "means": ["dây bện bằng tre", "ống sáo nhỏ"],
    "summary": "",
    "name": "hào",
    "character": "筊",
    "index": 6274
  },
  {
    "phonetic": "",
    "means": ["gân (thớ thịt)"],
    "summary": "",
    "name": "cân",
    "character": "筋",
    "index": 6275
  },
  {
    "phonetic": "",
    "means": ["cái nơm cá"],
    "summary": "",
    "name": "thuyên",
    "character": "筌",
    "index": 6276
  },
  {
    "phonetic": "duẫn, tuân, tuẩn, tuận, tấn",
    "means": ["măng tre"],
    "summary": "",
    "name": "duẩn",
    "character": "筍",
    "index": 6277
  },
  {
    "phonetic": "phạt",
    "means": ["cái bè (thuyền bè)"],
    "summary": "",
    "name": "phiệt",
    "character": "筏",
    "index": 6278
  },
  {
    "phonetic": "",
    "means": ["cái giỏ tre"],
    "summary": "",
    "name": "khuông",
    "character": "筐",
    "index": 6279
  },
  {
    "summary": "",
    "character": "筑",
    "traditionalCharacter": "築",
    "phonetic": "",
    "means": ["xây cất"],
    "name": "trúc",
    "index": 6280
  },
  {
    "phonetic": "động",
    "means": ["ống tre", "ống"],
    "summary": "",
    "name": "đồng",
    "character": "筒",
    "index": 6281
  },
  {
    "phonetic": "",
    "means": ["trả lời", "báo đáp"],
    "summary": "",
    "name": "đáp",
    "character": "答",
    "index": 6282
  },
  {
    "phonetic": "",
    "means": ["thẻ tre để viết", "sách lược, mưu kế", "roi ngựa"],
    "summary": "",
    "name": "sách",
    "character": "策",
    "index": 6284
  },
  {
    "phonetic": "",
    "means": ["khổ, khuôn, go"],
    "summary": "",
    "name": "khấu",
    "character": "筘",
    "index": 6285
  },
  {
    "summary": "",
    "character": "筚",
    "traditionalCharacter": "篳",
    "phonetic": "",
    "means": ["nan tre"],
    "name": "tất",
    "index": 6286
  },
  {
    "summary": "",
    "character": "筛",
    "traditionalCharacter": "篩",
    "phonetic": "sư",
    "means": ["cái dần, cái sàng"],
    "name": "si",
    "index": 6287
  },
  {
    "summary": "",
    "character": "筜",
    "traditionalCharacter": "簹",
    "phonetic": "",
    "means": ["(xem: vân đương 篔簹,筼筜)"],
    "name": "đương",
    "index": 6288
  },
  {
    "summary": "",
    "character": "筝",
    "traditionalCharacter": "箏",
    "phonetic": "",
    "means": ["đàn tranh (13 dây)"],
    "name": "tranh",
    "index": 6289
  },
  {
    "phonetic": "",
    "means": ["cật tre già"],
    "summary": "",
    "name": "quân",
    "character": "筠",
    "index": 6290
  },
  {
    "phonetic": "",
    "means": ["cái bồ cào, cái cào cỏ"],
    "summary": "",
    "name": "ba",
    "character": "筢",
    "index": 6291
  },
  {
    "phonetic": "",
    "means": ["cai quản, trông nom", "cái bút", "ống tròn", "ống sáo"],
    "summary": "",
    "name": "quản",
    "character": "筦",
    "index": 6292
  },
  {
    "phonetic": "thệ",
    "means": ["bói cỏ thi"],
    "summary": "",
    "name": "phệ",
    "character": "筮",
    "index": 6293
  },
  {
    "phonetic": "",
    "means": ["tre nhỏ"],
    "summary": "",
    "name": "tiểu",
    "character": "筱",
    "index": 6294
  },
  {
    "phonetic": "",
    "means": ["cái rá vo gạo"],
    "summary": "",
    "name": "sao",
    "character": "筲",
    "index": 6295
  },
  {
    "phonetic": "",
    "means": ["cái chiếu trúc", "bữa tiệc"],
    "summary": "",
    "name": "diên",
    "character": "筵",
    "index": 6296
  },
  {
    "phonetic": "",
    "means": ["cây đũa"],
    "summary": "",
    "name": "khoái",
    "character": "筷",
    "index": 6297
  },
  {
    "summary": "",
    "character": "筹",
    "traditionalCharacter": "籌",
    "phonetic": "",
    "means": ["thẻ tre, que", "tính toán trước, trù tính"],
    "name": "trù",
    "index": 6298
  },
  {
    "summary": "",
    "character": "筼",
    "traditionalCharacter": "篔",
    "phonetic": "",
    "means": ["(xem: vân đương 篔簹,筼筜)"],
    "name": "vân",
    "index": 6300
  },
  {
    "summary": "",
    "character": "签",
    "traditionalCharacter": "簽",
    "phonetic": "",
    "means": ["viết chữ lên thẻ tre làm dấu hiệu", "đề tên, ký tên"],
    "name": "thiêm",
    "index": 6301
  },
  {
    "summary": "",
    "character": "简",
    "traditionalCharacter": "簡",
    "phonetic": "",
    "means": ["lược bớt, đơn giản hoá", "thẻ tre để viết"],
    "name": "giản",
    "index": 6302
  },
  {
    "phonetic": "bế",
    "means": ["cái vỉ đan bằng tre"],
    "summary": "",
    "name": "ty",
    "character": "箅",
    "index": 6303
  },
  {
    "phonetic": "",
    "means": ["sách có chỉ dẫn, kiến giải tỉ mỉ"],
    "summary": "",
    "name": "tiên",
    "character": "箋",
    "index": 6304
  },
  {
    "phonetic": "",
    "means": ["cái đai tre, cạp tre"],
    "summary": "",
    "name": "cô",
    "character": "箍",
    "index": 6305
  },
  {
    "phonetic": "",
    "means": ["đàn tranh (13 dây)"],
    "summary": "",
    "name": "tranh",
    "character": "箏",
    "index": 6306
  },
  {
    "phonetic": "tinh",
    "means": ["rừng tre già trong núi", "cung nỏ làm bằng tre"],
    "summary": "",
    "name": "thiến",
    "character": "箐",
    "index": 6307
  },
  {
    "summary": "",
    "character": "箓",
    "traditionalCharacter": "籙",
    "phonetic": "",
    "means": ["(xem: đồ lục 圖籙,图箓)"],
    "name": "lục",
    "index": 6308
  },
  {
    "phonetic": "",
    "means": ["rèm, mành", "dát mỏng"],
    "summary": "",
    "name": "bạc",
    "character": "箔",
    "index": 6309
  },
  {
    "phonetic": "ki, ky",
    "means": [
      "hoa tay, vằn tay",
      "sọt rác",
      "sao Ky (một trong Nhị thập bát tú)"
    ],
    "summary": "",
    "name": "cơ",
    "character": "箕",
    "index": 6310
  },
  {
    "phonetic": "",
    "means": ["tính toán"],
    "summary": "",
    "name": "toán",
    "character": "算",
    "index": 6311
  },
  {
    "phonetic": "",
    "means": ["(xem: không hầu 箜篌)"],
    "summary": "",
    "name": "không",
    "character": "箜",
    "index": 6312
  },
  {
    "phonetic": "",
    "means": ["cái kìm", "giữ, kìm", "cùm chân"],
    "summary": "",
    "name": "kiềm",
    "character": "箝",
    "index": 6313
  },
  {
    "phonetic": "",
    "means": ["cai quản, trông nom", "cái bút", "ống tròn", "ống sáo"],
    "summary": "",
    "name": "quản",
    "character": "管",
    "index": 6314
  },
  {
    "summary": "",
    "character": "箦",
    "traditionalCharacter": "簀",
    "phonetic": "",
    "means": ["chiếu tre"],
    "name": "trách",
    "index": 6316
  },
  {
    "summary": "",
    "character": "箧",
    "traditionalCharacter": "篋",
    "phonetic": "",
    "means": ["cái tráp, cái hòm nhỏ"],
    "name": "khiếp",
    "index": 6317
  },
  {
    "summary": "",
    "character": "箨",
    "traditionalCharacter": "籜",
    "phonetic": "",
    "means": ["cật tre, mo nang"],
    "name": "thác",
    "index": 6318
  },
  {
    "summary": "",
    "character": "箩",
    "traditionalCharacter": "籮",
    "phonetic": "",
    "means": ["cái rá vo gạo"],
    "name": "la",
    "index": 6319
  },
  {
    "phonetic": "đan",
    "means": ["cái giường"],
    "summary": "",
    "name": "đạm",
    "character": "箪",
    "index": 6320
  },
  {
    "summary": "",
    "character": "箫",
    "traditionalCharacter": "簫",
    "phonetic": "",
    "means": ["cây tiêu (nhạc cụ, như sáo)"],
    "name": "tiêu",
    "index": 6321
  },
  {
    "phonetic": "",
    "means": ["cây tre"],
    "summary": "",
    "name": "nhược",
    "character": "箬",
    "index": 6322
  },
  {
    "phonetic": "tiến",
    "means": ["tên (bắn cung)"],
    "summary": "",
    "name": "tiễn",
    "character": "箭",
    "index": 6323
  },
  {
    "phonetic": "sương",
    "means": ["cái hòm, rương, vali"],
    "summary": "",
    "name": "tương",
    "character": "箱",
    "index": 6324
  },
  {
    "phonetic": "",
    "means": [
      "khuyên răn",
      "viết chữ hay khắc vào gỗ để trông làm gương",
      "đơn vị đếm lông chim, bằng 10 cái"
    ],
    "summary": "",
    "name": "châm",
    "character": "箴",
    "index": 6325
  },
  {
    "phonetic": "trứ",
    "means": ["cái đũa"],
    "summary": "",
    "name": "trợ",
    "character": "箸",
    "index": 6326
  },
  {
    "phonetic": "tiệt",
    "means": [
      "đốt, đoạn",
      "tiết trời",
      "một khoảng thời gian",
      "ngày tết, lễ",
      "lễ tháo, tiết tháo"
    ],
    "summary": "",
    "name": "tiết",
    "character": "節",
    "index": 6327
  },
  {
    "phonetic": "",
    "means": ["bụi tre, cây tre"],
    "summary": "",
    "name": "hoàng",
    "character": "篁",
    "index": 6328
  },
  {
    "phonetic": "",
    "means": ["phép tắc, khuôn mẫu"],
    "summary": "",
    "name": "phạm",
    "character": "範",
    "index": 6329
  },
  {
    "phonetic": "",
    "means": ["chữ triện"],
    "summary": "",
    "name": "triện",
    "character": "篆",
    "index": 6330
  },
  {
    "phonetic": "",
    "means": ["thiên (sách)"],
    "summary": "",
    "name": "thiên",
    "character": "篇",
    "index": 6331
  },
  {
    "phonetic": "",
    "means": ["xây cất"],
    "summary": "",
    "name": "trúc",
    "character": "築",
    "index": 6332
  },
  {
    "phonetic": "",
    "means": ["cái tráp, cái hòm nhỏ"],
    "summary": "",
    "name": "khiếp",
    "character": "篋",
    "index": 6333
  },
  {
    "phonetic": "",
    "means": ["(xem: không hầu 箜篌)"],
    "summary": "",
    "name": "hầu",
    "character": "篌",
    "index": 6334
  },
  {
    "summary": "",
    "character": "篑",
    "traditionalCharacter": "簣",
    "phonetic": "",
    "means": ["cái sọt đựng đất"],
    "name": "quỹ",
    "index": 6335
  },
  {
    "summary": "",
    "character": "篓",
    "traditionalCharacter": "簍",
    "phonetic": "lũ",
    "means": ["cái sọt"],
    "name": "lâu",
    "index": 6336
  },
  {
    "phonetic": "",
    "means": ["(xem: vân đương 篔簹,筼筜)"],
    "summary": "",
    "name": "vân",
    "character": "篔",
    "index": 6337
  },
  {
    "phonetic": "",
    "means": ["cái sào chèo thuyền"],
    "summary": "",
    "name": "cao",
    "character": "篙",
    "index": 6338
  },
  {
    "phonetic": "",
    "means": ["cái thúng tròn có nắp"],
    "summary": "",
    "name": "phỉ",
    "character": "篚",
    "index": 6339
  },
  {
    "phonetic": "",
    "means": ["cái lồng phơi quần áo"],
    "summary": "",
    "name": "câu",
    "character": "篝",
    "index": 6340
  },
  {
    "phonetic": "thoán",
    "means": ["cướp, đoạt"],
    "summary": "",
    "name": "soán",
    "character": "篡",
    "index": 6341
  },
  {
    "phonetic": "",
    "means": ["dốc sức, dốc lòng"],
    "summary": "",
    "name": "đốc",
    "character": "篤",
    "index": 6342
  },
  {
    "phonetic": "",
    "means": ["cái kèn để làm hiện trong quân đội"],
    "summary": "",
    "name": "lật",
    "character": "篥",
    "index": 6343
  },
  {
    "phonetic": "bế, tỵ",
    "means": ["cái lược bí"],
    "summary": "",
    "name": "bề",
    "character": "篦",
    "index": 6344
  },
  {
    "phonetic": "sư",
    "means": ["cái dần, cái sàng"],
    "summary": "",
    "name": "si",
    "character": "篩",
    "index": 6345
  },
  {
    "phonetic": "",
    "means": ["cái sáo 8 lỗ"],
    "summary": "",
    "name": "trì",
    "character": "篪",
    "index": 6346
  },
  {
    "summary": "",
    "character": "篮",
    "traditionalCharacter": "籃",
    "phonetic": "",
    "means": ["cái giỏ"],
    "name": "lam",
    "index": 6347
  },
  {
    "phonetic": "li",
    "means": ["hàng rào, bờ giậu"],
    "summary": "",
    "name": "ly",
    "character": "篱",
    "index": 6348
  },
  {
    "phonetic": "",
    "means": ["nan tre"],
    "summary": "",
    "name": "tất",
    "character": "篳",
    "index": 6349
  },
  {
    "phonetic": "",
    "means": ["(xem: bồng bột 篷勃)"],
    "summary": "",
    "name": "bồng",
    "character": "篷",
    "index": 6350
  },
  {
    "phonetic": "toán, toản",
    "summary": "",
    "name": "soạn",
    "character": "篹",
    "index": 6351
  },
  {
    "phonetic": "",
    "means": ["cái gùi", "xe bằng tre"],
    "summary": "",
    "name": "đâu",
    "character": "篼",
    "index": 6352
  },
  {
    "phonetic": "miết, mịch",
    "means": ["cật tre"],
    "summary": "",
    "name": "miệt",
    "character": "篾",
    "index": 6353
  },
  {
    "phonetic": "thấu, tộc",
    "means": ["sum họp, súm xít", "mũi tên"],
    "summary": "",
    "name": "thốc",
    "character": "簇",
    "index": 6354
  },
  {
    "phonetic": "sửu",
    "means": ["người theo hầu", "xe hộ tống"],
    "summary": "",
    "name": "sứu",
    "character": "簉",
    "index": 6355
  },
  {
    "phonetic": "",
    "means": ["bình đựng xôi"],
    "summary": "",
    "name": "quỹ",
    "character": "簋",
    "index": 6356
  },
  {
    "phonetic": "tốc",
    "means": ["tiếng sột soạt", "chảy ròng ròng"],
    "summary": "",
    "name": "thốc",
    "character": "簌",
    "index": 6357
  },
  {
    "phonetic": "",
    "means": ["cái sọt cao, cái bễ tre"],
    "summary": "",
    "name": "lộc",
    "character": "簏",
    "index": 6358
  },
  {
    "summary": "",
    "character": "簖",
    "traditionalCharacter": "籪",
    "phonetic": "",
    "means": ["cái lờ, cái đó"],
    "name": "đoán",
    "index": 6359
  },
  {
    "phonetic": "",
    "means": ["cái giường"],
    "summary": "",
    "name": "đan",
    "character": "簞",
    "index": 6360
  },
  {
    "phonetic": "",
    "means": ["cái chiếu đan"],
    "summary": "",
    "name": "điệm",
    "character": "簟",
    "index": 6361
  },
  {
    "phonetic": "",
    "means": ["lược bớt, đơn giản hoá", "thẻ tre để viết"],
    "summary": "",
    "name": "giản",
    "character": "簡",
    "index": 6362
  },
  {
    "phonetic": "",
    "means": ["cái sọt đựng đất"],
    "summary": "",
    "name": "quỹ",
    "character": "簣",
    "index": 6363
  },
  {
    "phonetic": "",
    "means": ["cái ô (cái dù) lợp bằng lá để che nắng"],
    "summary": "",
    "name": "đăng",
    "character": "簦",
    "index": 6364
  },
  {
    "phonetic": "",
    "means": [
      "cái vè đồng (lấy đồng dát mỏng trong lỗ tiêu hay sáo để thổi cho kêu)"
    ],
    "summary": "",
    "name": "hoàng",
    "character": "簧",
    "index": 6365
  },
  {
    "phonetic": "",
    "means": ["cái trâm cài đầu"],
    "summary": "",
    "name": "trâm",
    "character": "簪",
    "index": 6366
  },
  {
    "phonetic": "tiểu",
    "means": ["cây tiêu (nhạc cụ, như sáo)"],
    "summary": "",
    "name": "tiêu",
    "character": "簫",
    "index": 6367
  },
  {
    "phonetic": "thiềm",
    "means": ["mái hiên, mái nhà", "vành mũ, diềm mũ"],
    "summary": "",
    "name": "diêm",
    "character": "簷",
    "index": 6368
  },
  {
    "phonetic": "",
    "means": ["cái sàng, cái nia"],
    "summary": "",
    "name": "bá",
    "character": "簸",
    "index": 6369
  },
  {
    "phonetic": "",
    "means": ["(xem: vân đương 篔簹,筼筜)"],
    "summary": "",
    "name": "đương",
    "character": "簹",
    "index": 6370
  },
  {
    "phonetic": "",
    "means": ["viết chữ lên thẻ tre làm dấu hiệu", "đề tên, ký tên"],
    "summary": "",
    "name": "thiêm",
    "character": "簽",
    "index": 6371
  },
  {
    "phonetic": "",
    "means": ["cái mành mành"],
    "summary": "",
    "name": "liêm",
    "character": "簾",
    "index": 6372
  },
  {
    "phonetic": "bạc, bộ",
    "means": ["sổ sách"],
    "summary": "",
    "name": "bạ",
    "character": "簿",
    "index": 6373
  },
  {
    "phonetic": "",
    "means": ["lối chữ trứu (chữ đại triện)", "diễn giải kinh sách"],
    "summary": "",
    "name": "trứu",
    "character": "籀",
    "index": 6374
  },
  {
    "summary": "",
    "character": "籁",
    "traditionalCharacter": "籟",
    "phonetic": "lãi",
    "means": ["cái tiêu"],
    "name": "lại",
    "index": 6375
  },
  {
    "phonetic": "",
    "means": ["cái giỏ"],
    "summary": "",
    "name": "lam",
    "character": "籃",
    "index": 6376
  },
  {
    "phonetic": "",
    "means": ["thẻ tre, que", "tính toán trước, trù tính"],
    "summary": "",
    "name": "trù",
    "character": "籌",
    "index": 6377
  },
  {
    "phonetic": "tạ",
    "means": ["ghi chép vào sổ, liệt kê"],
    "summary": "",
    "name": "tịch",
    "character": "籍",
    "index": 6378
  },
  {
    "phonetic": "",
    "means": ["biên soạn, soạn thảo"],
    "summary": "",
    "name": "soạn",
    "character": "籑",
    "index": 6379
  },
  {
    "phonetic": "",
    "means": ["(xem: đồ lục 圖籙,图箓)"],
    "summary": "",
    "name": "lục",
    "character": "籙",
    "index": 6380
  },
  {
    "phonetic": "lãi",
    "means": ["cái tiêu"],
    "summary": "",
    "name": "lại",
    "character": "籟",
    "index": 6381
  },
  {
    "phonetic": "lộng",
    "means": ["cái lồng", "lồng nhau"],
    "summary": "",
    "name": "lung",
    "character": "籠",
    "index": 6382
  },
  {
    "phonetic": "tiêm",
    "means": ["viết chữ lên thẻ tre làm dấu hiệu", "đề tên, ký tên"],
    "summary": "",
    "name": "thiêm",
    "character": "籤",
    "index": 6383
  },
  {
    "phonetic": "li",
    "means": ["hàng rào, bờ giậu"],
    "summary": "",
    "name": "ly",
    "character": "籬",
    "index": 6384
  },
  {
    "phonetic": "",
    "means": ["cái rá vo gạo"],
    "summary": "",
    "name": "la",
    "character": "籮",
    "index": 6385
  },
  {
    "phonetic": "",
    "means": ["kêu, gọi, thỉnh cầu"],
    "summary": "",
    "name": "dụ",
    "character": "籲",
    "index": 6386
  },
  {
    "phonetic": "",
    "means": ["gạo", "mét (đơn vị đo chiều dài)"],
    "summary": "",
    "name": "mễ",
    "character": "米",
    "index": 6387
  },
  {
    "summary": "",
    "character": "籴",
    "traditionalCharacter": "糴",
    "phonetic": "",
    "means": ["mua thóc, nhập thóc"],
    "name": "địch",
    "index": 6388
  },
  {
    "summary": "",
    "character": "类",
    "traditionalCharacter": "類",
    "phonetic": "",
    "means": ["chủng loại, loài"],
    "name": "loại",
    "index": 6389
  },
  {
    "phonetic": "",
    "means": ["lúa ba trăng ta (một thứ lúa chín sớm, không có nhựa dính)"],
    "summary": "",
    "name": "tiên",
    "character": "籼",
    "index": 6390
  },
  {
    "phonetic": "",
    "means": ["hạt giống"],
    "summary": "",
    "name": "tử",
    "character": "籽",
    "index": 6391
  },
  {
    "phonetic": "",
    "means": ["bột, phấn", "son phấn"],
    "summary": "",
    "name": "phấn",
    "character": "粉",
    "index": 6392
  },
  {
    "phonetic": "",
    "means": ["(xem: ta ba 糌粑)"],
    "summary": "",
    "name": "ba",
    "character": "粑",
    "index": 6393
  },
  {
    "phonetic": "",
    "means": ["hạt gạo, hạt thóc"],
    "summary": "",
    "name": "lạp",
    "character": "粒",
    "index": 6394
  },
  {
    "phonetic": "",
    "means": ["(xem: tao phách 糟粕)"],
    "summary": "",
    "name": "phách",
    "character": "粕",
    "index": 6395
  },
  {
    "phonetic": "thố",
    "means": ["to, thô, sơ sài"],
    "summary": "",
    "name": "thô",
    "character": "粗",
    "index": 6396
  },
  {
    "phonetic": "",
    "means": ["chất dính", "dán vào"],
    "summary": "",
    "name": "niêm",
    "character": "粘",
    "index": 6397
  },
  {
    "summary": "",
    "character": "粜",
    "traditionalCharacter": "糶",
    "phonetic": "",
    "means": ["bán thóc ra"],
    "name": "thiếu",
    "index": 6398
  },
  {
    "summary": "",
    "character": "粝",
    "traditionalCharacter": "糲",
    "phonetic": "",
    "means": ["gạo giã chưa kỹ"],
    "name": "lệ",
    "index": 6399
  },
  {
    "phonetic": "",
    "means": ["hạt tấm gạo"],
    "summary": "",
    "name": "tê",
    "character": "粞",
    "index": 6400
  },
  {
    "phonetic": "",
    "means": ["cây ngô", "thóc lúa"],
    "summary": "",
    "name": "túc",
    "character": "粟",
    "index": 6401
  },
  {
    "phonetic": "tế, từ",
    "means": ["thóc nếp, lúa nếp"],
    "summary": "",
    "name": "tư",
    "character": "粢",
    "index": 6402
  },
  {
    "summary": "",
    "character": "粤",
    "traditionalCharacter": "粵",
    "phonetic": "",
    "means": ["vùng Lưỡng Quảng", "người Bách Việt", "bèn, nên"],
    "name": "việt",
    "index": 6403
  },
  {
    "phonetic": "dục",
    "means": ["cháo loãng"],
    "summary": "",
    "name": "chúc",
    "character": "粥",
    "index": 6404
  },
  {
    "phonetic": "",
    "summary": "",
    "name": "lân",
    "character": "粦",
    "index": 6405
  },
  {
    "phonetic": "phấn, phẩn",
    "means": ["phân, cứt", "bón phân"],
    "summary": "",
    "name": "phân",
    "character": "粪",
    "index": 6406
  },
  {
    "summary": "",
    "character": "粮",
    "traditionalCharacter": "糧",
    "phonetic": "",
    "means": ["cơm, lương thực"],
    "name": "lương",
    "index": 6407
  },
  {
    "phonetic": "",
    "means": ["gạo lúa mạch"],
    "summary": "",
    "name": "lương",
    "character": "粱",
    "index": 6408
  },
  {
    "phonetic": "xán",
    "means": [
      "gạo đã giã kỹ",
      "tươi sáng, đẹp đẽ",
      "rõ ràng, minh bạch",
      "cười, phì cười"
    ],
    "summary": "",
    "name": "sán",
    "character": "粲",
    "index": 6409
  },
  {
    "phonetic": "cánh, ngạnh",
    "means": ["lúa tám cánh ta"],
    "summary": "",
    "name": "canh",
    "character": "粳",
    "index": 6410
  },
  {
    "phonetic": "",
    "means": ["vùng Lưỡng Quảng", "người Bách Việt", "bèn, nên"],
    "summary": "",
    "name": "việt",
    "character": "粵",
    "index": 6411
  },
  {
    "phonetic": "toái",
    "means": ["thuần khiết, tinh tuý"],
    "summary": "",
    "name": "tuý",
    "character": "粹",
    "index": 6412
  },
  {
    "phonetic": "",
    "means": ["nước ở giữa các hòn đá"],
    "summary": "",
    "name": "lân",
    "character": "粼",
    "index": 6413
  },
  {
    "phonetic": "tông",
    "means": ["bánh bột nếp"],
    "summary": "",
    "name": "tống",
    "character": "粽",
    "index": 6414
  },
  {
    "phonetic": "",
    "means": ["gạo đã giã", "tinh tuý"],
    "summary": "",
    "name": "tinh",
    "character": "精",
    "index": 6415
  },
  {
    "summary": "",
    "character": "糁",
    "traditionalCharacter": "糝",
    "phonetic": "",
    "means": ["hạt gạo", "cơm hoà với canh"],
    "name": "tảm",
    "index": 6416
  },
  {
    "phonetic": "",
    "means": ["lẫn lộn"],
    "summary": "",
    "name": "nhữu",
    "character": "糅",
    "index": 6417
  },
  {
    "phonetic": "",
    "means": ["lương khô"],
    "summary": "",
    "name": "hầu",
    "character": "糇",
    "index": 6418
  },
  {
    "phonetic": "sở",
    "means": ["tư lương", "gạo ngon"],
    "summary": "",
    "name": "tư",
    "character": "糈",
    "index": 6419
  },
  {
    "phonetic": "",
    "means": ["hồ dán", "dán bằng hồ"],
    "summary": "",
    "name": "hồ",
    "character": "糊",
    "index": 6420
  },
  {
    "phonetic": "",
    "means": ["(xem: ta ba 糌粑)"],
    "summary": "",
    "name": "ta",
    "character": "糌",
    "index": 6421
  },
  {
    "phonetic": "",
    "means": ["(xem: từ ba 糍粑)"],
    "summary": "",
    "name": "từ",
    "character": "糍",
    "index": 6422
  },
  {
    "phonetic": "",
    "means": ["bánh bột lọc"],
    "summary": "",
    "name": "cao",
    "character": "糕",
    "index": 6423
  },
  {
    "phonetic": "",
    "means": ["đường ăn, chất ngọt"],
    "summary": "",
    "name": "đường",
    "character": "糖",
    "index": 6424
  },
  {
    "phonetic": "",
    "means": ["lương khô"],
    "summary": "",
    "name": "khứu",
    "character": "糗",
    "index": 6425
  },
  {
    "phonetic": "",
    "means": ["gạo xay"],
    "summary": "",
    "name": "tháo",
    "character": "糙",
    "index": 6426
  },
  {
    "phonetic": "mi",
    "means": ["cháo nhừ"],
    "summary": "",
    "name": "my",
    "character": "糜",
    "index": 6427
  },
  {
    "phonetic": "phấn, phẩn",
    "means": ["phân, cứt", "bón phân"],
    "summary": "",
    "name": "phân",
    "character": "糞",
    "index": 6428
  },
  {
    "phonetic": "",
    "means": [
      "cặn rượu",
      "ngâm rượu",
      "ướp, muối, ngâm",
      "mục nát, mủn",
      "hỏng, yếu kém, bại hoại"
    ],
    "summary": "",
    "name": "tao",
    "character": "糟",
    "index": 6429
  },
  {
    "phonetic": "",
    "means": ["cám, trấu"],
    "summary": "",
    "name": "khang",
    "character": "糠",
    "index": 6430
  },
  {
    "phonetic": "",
    "means": ["cái khuôn bằng gỗ", "mô phỏng", "gương mẫu", "mơ hồ, mập mờ"],
    "summary": "",
    "name": "mô",
    "character": "糢",
    "index": 6431
  },
  {
    "phonetic": "",
    "means": ["cơm, lương thực"],
    "summary": "",
    "name": "lương",
    "character": "糧",
    "index": 6432
  },
  {
    "phonetic": "",
    "means": ["đặc quánh"],
    "summary": "",
    "name": "cưỡng",
    "character": "糨",
    "index": 6433
  },
  {
    "phonetic": "noạ",
    "means": ["gạo nếp để cất rượu"],
    "summary": "",
    "name": "nhu",
    "character": "糯",
    "index": 6435
  },
  {
    "phonetic": "",
    "means": ["bánh làm bằng bột"],
    "summary": "",
    "name": "đoàn",
    "character": "糰",
    "index": 6436
  },
  {
    "phonetic": "",
    "means": ["gạo giã chưa kỹ"],
    "summary": "",
    "name": "lệ",
    "character": "糲",
    "index": 6437
  },
  {
    "phonetic": "",
    "means": ["bộ mịch"],
    "summary": "",
    "name": "mịch",
    "character": "糸",
    "index": 6438
  },
  {
    "phonetic": "",
    "means": ["bộ mịch"],
    "summary": "",
    "name": "mịch",
    "character": "糹",
    "index": 6439
  },
  {
    "summary": "",
    "character": "系",
    "traditionalCharacter": "繫",
    "phonetic": "",
    "means": ["buộc, bó, nối"],
    "name": "hệ",
    "index": 6440
  },
  {
    "phonetic": "kiểu",
    "means": ["dây chập ba lần", "thu lại, gộp lại"],
    "summary": "",
    "name": "củ",
    "character": "糾",
    "index": 6441
  },
  {
    "phonetic": "kỉ",
    "means": ["gỡ mối rối", "12 năm", "kỷ cương, kỷ luật", "nước Kỷ"],
    "summary": "",
    "name": "kỷ",
    "character": "紀",
    "index": 6442
  },
  {
    "phonetic": "",
    "means": ["người tàn nhẫn, bất nghĩa"],
    "summary": "",
    "name": "trụ",
    "character": "紂",
    "index": 6443
  },
  {
    "phonetic": "yêu",
    "means": ["thắt, bó", "đại lược, chừng, khoảng", "giao ước, ước hẹn"],
    "summary": "",
    "name": "ước",
    "character": "約",
    "index": 6444
  },
  {
    "phonetic": "công",
    "means": ["màu hồng, màu đỏ"],
    "summary": "",
    "name": "hồng",
    "character": "紅",
    "index": 6445
  },
  {
    "phonetic": "u, vu",
    "means": ["quanh co"],
    "summary": "",
    "name": "hu",
    "character": "紆",
    "index": 6446
  },
  {
    "phonetic": "",
    "means": ["sợi tơ rủ xuống", "núm, nơ, gút, nút"],
    "summary": "",
    "name": "hột",
    "character": "紇",
    "index": 6447
  },
  {
    "phonetic": "",
    "means": ["lụa nõn"],
    "summary": "",
    "name": "hoàn",
    "character": "紈",
    "index": 6448
  },
  {
    "phonetic": "nhân",
    "means": ["xâu kim (xỏ chỉ vào kim)"],
    "summary": "",
    "name": "nhận",
    "character": "紉",
    "index": 6449
  },
  {
    "phonetic": "vấn",
    "means": ["rối (sợi)"],
    "summary": "",
    "name": "vặn",
    "character": "紊",
    "index": 6450
  },
  {
    "phonetic": "vấn",
    "means": ["đường, vết, vằn", "nếp nhăn"],
    "summary": "",
    "name": "văn",
    "character": "紋",
    "index": 6451
  },
  {
    "phonetic": "",
    "means": ["thu vào", "giao nộp"],
    "summary": "",
    "name": "nạp",
    "character": "納",
    "index": 6452
  },
  {
    "phonetic": "nựu",
    "means": ["cái quạt, cái núm", "buộc, thắt"],
    "summary": "",
    "name": "nữu",
    "character": "紐",
    "index": 6453
  },
  {
    "phonetic": "",
    "means": ["giải, gỡ", "hoãn lại"],
    "summary": "",
    "name": "thư",
    "character": "紓",
    "index": 6454
  },
  {
    "phonetic": "chuẩn, truy, tuyền, đồn",
    "means": ["thuần tuý, không có loại khác"],
    "summary": "",
    "name": "thuần",
    "character": "純",
    "index": 6455
  },
  {
    "phonetic": "bỉ, phi",
    "means": ["lỗi, bất cẩn", "lụa dệt lỗi"],
    "summary": "",
    "name": "bì",
    "character": "紕",
    "index": 6456
  },
  {
    "phonetic": "",
    "means": ["sợi vải", "lụa mỏng", "the, rèm"],
    "summary": "",
    "name": "sa",
    "character": "紗",
    "index": 6457
  },
  {
    "phonetic": "",
    "means": ["giấy viết"],
    "summary": "",
    "name": "chỉ",
    "character": "紙",
    "index": 6458
  },
  {
    "phonetic": "",
    "means": ["cấp bậc"],
    "summary": "",
    "name": "cấp",
    "character": "級",
    "index": 6459
  },
  {
    "phonetic": "",
    "means": ["rối rắm"],
    "summary": "",
    "name": "phân",
    "character": "紛",
    "index": 6460
  },
  {
    "phonetic": "",
    "means": ["lộn xộn"],
    "summary": "",
    "name": "vân",
    "character": "紜",
    "index": 6461
  },
  {
    "phonetic": "",
    "means": ["tơ trắng", "trắng nõn", "chất"],
    "summary": "",
    "name": "tố",
    "character": "素",
    "index": 6462
  },
  {
    "phonetic": "",
    "means": ["xe thành sợi"],
    "summary": "",
    "name": "phưởng",
    "character": "紡",
    "index": 6463
  },
  {
    "phonetic": "tác",
    "means": ["dây tơ", "tìm tòi, lục", "tan tác, chia lìa"],
    "summary": "",
    "name": "sách",
    "character": "索",
    "index": 6464
  },
  {
    "phonetic": "",
    "means": ["chét, bó, buộc"],
    "summary": "",
    "name": "trát",
    "character": "紥",
    "index": 6465
  },
  {
    "summary": "",
    "character": "紧",
    "traditionalCharacter": "緊",
    "phonetic": "",
    "means": ["căng (dây)"],
    "name": "khẩn",
    "index": 6466
  },
  {
    "phonetic": "",
    "means": ["đỏ tía, tím"],
    "summary": "",
    "name": "tử",
    "character": "紫",
    "index": 6467
  },
  {
    "phonetic": "",
    "means": ["chét, bó, buộc"],
    "summary": "",
    "name": "trát",
    "character": "紮",
    "index": 6468
  },
  {
    "phonetic": "loã, luỵ, luỹ",
    "means": ["xâu liền, nối liền", "dây to", "bắt giam"],
    "summary": "",
    "name": "luy",
    "character": "累",
    "index": 6469
  },
  {
    "phonetic": "",
    "means": ["nhỏ bé", "tinh xảo", "mịn"],
    "summary": "",
    "name": "tế",
    "character": "細",
    "index": 6470
  },
  {
    "phonetic": "",
    "means": ["cái đai áo, dải áo"],
    "summary": "",
    "name": "thân",
    "character": "紳",
    "index": 6471
  },
  {
    "phonetic": "",
    "means": ["tiếp nối"],
    "summary": "",
    "name": "thiệu",
    "character": "紹",
    "index": 6472
  },
  {
    "phonetic": "",
    "means": ["xanh biếc"],
    "summary": "",
    "name": "cám",
    "character": "紺",
    "index": 6473
  },
  {
    "phonetic": "",
    "means": ["dây tam cố (để buộc quan tài)"],
    "summary": "",
    "name": "phất",
    "character": "紼",
    "index": 6474
  },
  {
    "phonetic": "chuyết",
    "means": ["thiếu, không đủ"],
    "summary": "",
    "name": "truất",
    "character": "絀",
    "index": 6475
  },
  {
    "phonetic": "",
    "means": ["hết", "cuối, kết thúc"],
    "summary": "",
    "name": "chung",
    "character": "終",
    "index": 6476
  },
  {
    "phonetic": "",
    "means": ["dây tơ mỏng và to bản", "liên lạc"],
    "summary": "",
    "name": "tổ",
    "character": "組",
    "index": 6477
  },
  {
    "phonetic": "bạn",
    "means": ["cùm lại, giữ lại", "vướng, vấp", "vật cản trở, chướng ngại vật"],
    "summary": "",
    "name": "bán",
    "character": "絆",
    "index": 6478
  },
  {
    "phonetic": "hạnh",
    "means": ["khâu lược"],
    "summary": "",
    "name": "hàng",
    "character": "絎",
    "index": 6479
  },
  {
    "phonetic": "kế",
    "means": ["thắt nút", "kết, bó", "liên kết", "kết hợp", "ra quả, kết quả"],
    "summary": "",
    "name": "kết",
    "character": "結",
    "index": 6480
  },
  {
    "phonetic": "quai",
    "means": ["trở ngại, cản trở, vướng víu"],
    "summary": "",
    "name": "quái",
    "character": "絓",
    "index": 6481
  },
  {
    "phonetic": "",
    "means": [
      "cắt đứt, dứt, cự tuyệt",
      "hết, dứt",
      "rất, cực kỳ",
      "có một không hai"
    ],
    "summary": "",
    "name": "tuyệt",
    "character": "絕",
    "index": 6482
  },
  {
    "phonetic": "",
    "means": ["dây bằng sợi tơ"],
    "summary": "",
    "name": "thao",
    "character": "絛",
    "index": 6484
  },
  {
    "phonetic": "hiệt, kiết",
    "means": ["sạch sẽ"],
    "summary": "",
    "name": "khiết",
    "character": "絜",
    "index": 6485
  },
  {
    "phonetic": "hào",
    "means": ["vặn, xoắn", "treo cổ"],
    "summary": "",
    "name": "giảo",
    "character": "絞",
    "index": 6486
  },
  {
    "phonetic": "",
    "means": ["quấn quanh", "ràng buộc"],
    "summary": "",
    "name": "lạc",
    "character": "絡",
    "index": 6487
  },
  {
    "phonetic": "",
    "means": ["trang sức sặc sỡ"],
    "summary": "",
    "name": "huyến",
    "character": "絢",
    "index": 6488
  },
  {
    "phonetic": "",
    "means": ["đủ dùng", "cấp, phát"],
    "summary": "",
    "name": "cấp",
    "character": "給",
    "index": 6489
  },
  {
    "phonetic": "",
    "means": ["nhung, bằng lông thú"],
    "summary": "",
    "name": "nhung",
    "character": "絨",
    "index": 6490
  },
  {
    "phonetic": "trữ",
    "means": ["sợi bông", "may (áo)", "hoa nhẹ như bông và bay được"],
    "summary": "",
    "name": "nhứ",
    "character": "絮",
    "index": 6491
  },
  {
    "phonetic": "",
    "means": ["mối tơ", "dòng, hệ thống", "thống trị"],
    "summary": "",
    "name": "thống",
    "character": "統",
    "index": 6492
  },
  {
    "phonetic": "ti",
    "means": ["sợi tơ"],
    "summary": "",
    "name": "ty",
    "character": "絲",
    "index": 6493
  },
  {
    "phonetic": "ráng",
    "means": ["màu đỏ"],
    "summary": "",
    "name": "giáng",
    "character": "絳",
    "index": 6494
  },
  {
    "summary": "",
    "character": "絷",
    "traditionalCharacter": "縶",
    "phonetic": "",
    "means": ["buộc, trói, cùm lại"],
    "name": "trập",
    "index": 6495
  },
  {
    "phonetic": "",
    "means": ["vải lụa"],
    "summary": "",
    "name": "quyên",
    "character": "絹",
    "index": 6496
  },
  {
    "phonetic": "miện, vãn, vấn",
    "means": ["áo lễ"],
    "summary": "",
    "name": "miễn",
    "character": "絻",
    "index": 6497
  },
  {
    "phonetic": "bảng",
    "means": ["trói, buộc", "dây trói"],
    "summary": "",
    "name": "bang",
    "character": "綁",
    "index": 6498
  },
  {
    "phonetic": "nhuy, thoả",
    "means": ["dây chằng xe", "bình định, yên định", "lui quân", "cờ tinh"],
    "summary": "",
    "name": "tuy",
    "character": "綏",
    "index": 6499
  },
  {
    "phonetic": "",
    "means": ["dây vải", "kinh sách", "trải qua, chịu đựng"],
    "summary": "",
    "name": "kinh",
    "character": "經",
    "index": 6500
  },
  {
    "phonetic": "tông, tổng",
    "means": ["dệt lẫn lộn với nhau", "hợp cả lại"],
    "summary": "",
    "name": "tống",
    "character": "綜",
    "index": 6501
  },
  {
    "phonetic": "",
    "means": ["màu xanh"],
    "summary": "",
    "name": "lục",
    "character": "綠",
    "index": 6502
  },
  {
    "phonetic": "thao, trù",
    "means": ["quấn sợi, xe sợi"],
    "summary": "",
    "name": "trừu",
    "character": "綢",
    "index": 6503
  },
  {
    "phonetic": "",
    "means": ["giới hạn trong một dặm"],
    "summary": "",
    "name": "quyển",
    "character": "綣",
    "index": 6504
  },
  {
    "phonetic": "kì",
    "means": ["xanh nhợt, xanh nhạt", "rất"],
    "summary": "",
    "name": "kỳ",
    "character": "綦",
    "index": 6505
  },
  {
    "phonetic": "",
    "means": ["dây thao đỏ"],
    "summary": "",
    "name": "thụ",
    "character": "綬",
    "index": 6506
  },
  {
    "phonetic": "",
    "means": ["nối liền", "gìn giữ"],
    "summary": "",
    "name": "duy",
    "character": "維",
    "index": 6507
  },
  {
    "phonetic": "khể",
    "means": ["(xem: khẳng khính 肯綮)"],
    "summary": "",
    "name": "khính",
    "character": "綮",
    "index": 6508
  },
  {
    "phonetic": "",
    "means": ["dây cáp"],
    "summary": "",
    "name": "cương",
    "character": "綱",
    "index": 6509
  },
  {
    "phonetic": "",
    "means": ["cái lưới", "vu khống, lừa"],
    "summary": "",
    "name": "võng",
    "character": "網",
    "index": 6510
  },
  {
    "phonetic": "chuyết, xuyết",
    "means": ["nối liền, khâu lại"],
    "summary": "",
    "name": "chuế",
    "character": "綴",
    "index": 6511
  },
  {
    "phonetic": "thải, thể",
    "means": ["tia sáng", "rực rỡ, nhiều màu", "tiếng hoan hô, reo hò"],
    "summary": "",
    "name": "thái",
    "character": "綵",
    "index": 6512
  },
  {
    "phonetic": "tối",
    "means": ["(xem: tuý sái 綷縩)"],
    "summary": "",
    "name": "tuý",
    "character": "綷",
    "index": 6513
  },
  {
    "phonetic": "quan",
    "means": ["cái quạt"],
    "summary": "",
    "name": "luân",
    "character": "綸",
    "index": 6514
  },
  {
    "phonetic": "",
    "means": ["20 sợi tơ", "cuộn chỉ", "chòm, món, túm"],
    "summary": "",
    "name": "lữu",
    "character": "綹",
    "index": 6515
  },
  {
    "phonetic": "khỉ",
    "means": ["vải lụa"],
    "summary": "",
    "name": "ỷ",
    "character": "綺",
    "index": 6516
  },
  {
    "phonetic": "",
    "means": ["đường khâu áo"],
    "summary": "",
    "name": "trán",
    "character": "綻",
    "index": 6517
  },
  {
    "phonetic": "",
    "means": ["thong thả", "rộng rãi"],
    "summary": "",
    "name": "xước",
    "character": "綽",
    "index": 6518
  },
  {
    "phonetic": "",
    "means": ["tơ tằm", "kéo dài, liền", "mềm mại"],
    "summary": "",
    "name": "miên",
    "character": "綿",
    "index": 6519
  },
  {
    "phonetic": "hỗn",
    "summary": "",
    "name": "cổn",
    "character": "緄",
    "index": 6520
  }
]
