[
  {
    "phonetic": "",
    "means": ["gỗ mục"],
    "summary": "",
    "name": "hủ",
    "character": "朽",
    "index": 4117
  },
  {
    "phonetic": "",
    "summary": "",
    "name": "thứ",
    "character": "朿",
    "index": 4118
  },
  {
    "summary": "",
    "character": "杀",
    "traditionalCharacter": "殺",
    "phonetic": "sái, tát",
    "means": ["giết chết"],
    "name": "sát",
    "index": 4119
  },
  {
    "summary": "",
    "character": "杂",
    "traditionalCharacter": "雜",
    "phonetic": "",
    "means": ["vặt vãnh", "lẫn lộn"],
    "name": "tạp",
    "index": 4120
  },
  {
    "summary": "",
    "character": "权",
    "traditionalCharacter": "權",
    "phonetic": "",
    "means": ["quả cân", "quyền lợi"],
    "name": "quyền",
    "index": 4121
  },
  {
    "phonetic": "hãn",
    "means": ["cái gậy gỗ, cái côn, cái mộc", "chấn song cửa sổ"],
    "summary": "",
    "name": "can",
    "character": "杆",
    "index": 4122
  },
  {
    "phonetic": "sá",
    "means": ["cái nang cây, chạc cây"],
    "summary": "",
    "name": "xoa",
    "character": "杈",
    "index": 4123
  },
  {
    "phonetic": "am",
    "means": ["cây sam (một loài giống cây thông)"],
    "summary": "",
    "name": "sam",
    "character": "杉",
    "index": 4124
  },
  {
    "phonetic": "",
    "means": ["(xem: ngột niết 杌隉)"],
    "summary": "",
    "name": "ngột",
    "character": "杌",
    "index": 4125
  },
  {
    "phonetic": "lí",
    "means": ["cây mận"],
    "summary": "",
    "name": "lý",
    "character": "李",
    "index": 4126
  },
  {
    "phonetic": "",
    "means": ["cây hạnh (một loại cây như cây mận)"],
    "summary": "",
    "name": "hạnh",
    "character": "杏",
    "index": 4127
  },
  {
    "phonetic": "",
    "means": ["những thứ có sẵn trong tự nhiên mà dùng được"],
    "summary": "",
    "name": "tài",
    "character": "材",
    "index": 4128
  },
  {
    "phonetic": "",
    "means": ["thôn xóm, nhà quê"],
    "summary": "",
    "name": "thôn",
    "character": "村",
    "index": 4129
  },
  {
    "phonetic": "chước, thược",
    "means": ["chuôi sao Bắc Đẩu", "gạt ra, lôi ra"],
    "summary": "",
    "name": "tiêu",
    "character": "杓",
    "index": 4130
  },
  {
    "phonetic": "tráng",
    "means": ["cái gậy chống", "gậy, que", "người chống gậy"],
    "summary": "",
    "name": "trượng",
    "character": "杖",
    "index": 4131
  },
  {
    "phonetic": "",
    "means": ["cây đỗ (còn gọi là cây đường lê)", "ngăn chặn"],
    "summary": "",
    "name": "đỗ",
    "character": "杜",
    "index": 4132
  },
  {
    "phonetic": "kỉ",
    "means": ["cây kỷ"],
    "summary": "",
    "name": "kỷ",
    "character": "杞",
    "index": 4133
  },
  {
    "phonetic": "thú",
    "means": ["bó, buộc"],
    "summary": "",
    "name": "thúc",
    "character": "束",
    "index": 4134
  },
  {
    "phonetic": "cống",
    "means": ["cán cờ", "cái cầu nhỏ"],
    "summary": "",
    "name": "giang",
    "character": "杠",
    "index": 4135
  },
  {
    "summary": "",
    "character": "条",
    "traditionalCharacter": "條",
    "phonetic": "thiêu, điêu",
    "means": ["điều khoản, khoản mục", "sọc, vằn, sợi", "cành cây"],
    "name": "điều",
    "index": 4136
  },
  {
    "summary": "",
    "character": "来",
    "traditionalCharacter": "來",
    "phonetic": "lãi",
    "means": ["đến nơi"],
    "name": "lai",
    "index": 4137
  },
  {
    "summary": "",
    "character": "杨",
    "traditionalCharacter": "楊",
    "phonetic": "",
    "means": ["cây dương liễu"],
    "name": "dương",
    "index": 4138
  },
  {
    "phonetic": "miểu",
    "means": ["cánh nhỏ"],
    "summary": "",
    "name": "diểu",
    "character": "杪",
    "index": 4140
  },
  {
    "phonetic": "",
    "means": ["cái xuồng (như: 航)", "châu Hàng (Trung Quốc)"],
    "summary": "",
    "name": "hàng",
    "character": "杭",
    "index": 4141
  },
  {
    "phonetic": "",
    "means": ["cái cốc, cái chén"],
    "summary": "",
    "name": "bôi",
    "character": "杯",
    "index": 4142
  },
  {
    "summary": "",
    "character": "杰",
    "traditionalCharacter": "傑",
    "phonetic": "",
    "means": ["giỏi giang (trong tuấn kiệt)"],
    "name": "kiệt",
    "index": 4143
  },
  {
    "phonetic": "",
    "means": ["phía đông, phương đông"],
    "summary": "",
    "name": "đông",
    "character": "東",
    "index": 4144
  },
  {
    "phonetic": "",
    "means": ["sáng", "cao"],
    "summary": "",
    "name": "cảo",
    "character": "杲",
    "index": 4145
  },
  {
    "phonetic": "liểu, liễu, yểu",
    "means": ["mờ mịt, lặng bặt", "sâu thẳm"],
    "summary": "",
    "name": "diểu",
    "character": "杳",
    "index": 4146
  },
  {
    "phonetic": "xử",
    "means": ["cái chầy, cái chày"],
    "summary": "",
    "name": "chử",
    "character": "杵",
    "index": 4147
  },
  {
    "phonetic": "bà, bá",
    "means": ["cái bồ cào, cái cào cỏ"],
    "summary": "",
    "name": "ba",
    "character": "杷",
    "index": 4148
  },
  {
    "phonetic": "thư, thữ, thự",
    "means": ["cái thoi dệt vải"],
    "summary": "",
    "name": "trữ",
    "character": "杼",
    "index": 4149
  },
  {
    "phonetic": "tung, tông",
    "means": ["cây tùng, cây thông"],
    "summary": "",
    "name": "tùng",
    "character": "松",
    "index": 4150
  },
  {
    "phonetic": "",
    "means": ["tấm, miếng", "gỗ đóng quan tài", "cứng, rắn", "người chủ"],
    "summary": "",
    "name": "bản",
    "character": "板",
    "index": 4151
  },
  {
    "phonetic": "cập, cực, kiệp",
    "means": ["giá gỗ chở đồ trên lưng lừa", "hòm đựng sách"],
    "summary": "",
    "name": "cấp",
    "character": "极",
    "index": 4152
  },
  {
    "summary": "",
    "character": "构",
    "traditionalCharacter": "構",
    "phonetic": "",
    "means": ["làm ra, tạo ra, xây dựng", "tác phẩm"],
    "name": "cấu",
    "index": 4153
  },
  {
    "phonetic": "tì",
    "means": ["cây sơn trà"],
    "summary": "",
    "name": "tỳ",
    "character": "枇",
    "index": 4154
  },
  {
    "phonetic": "",
    "means": ["tà, cong", "oan uổng", "uổng phí"],
    "summary": "",
    "name": "uổng",
    "character": "枉",
    "index": 4155
  },
  {
    "phonetic": "bính",
    "means": ["cây phương (dùng làm thuốc nhuộm)"],
    "summary": "",
    "name": "phương",
    "character": "枋",
    "index": 4156
  },
  {
    "phonetic": "",
    "means": ["gỡ, tách, tẽ, chẻ"],
    "summary": "",
    "name": "tích",
    "character": "析",
    "index": 4157
  },
  {
    "phonetic": "nhạ",
    "means": ["chạc cây", "vành bánh xe"],
    "summary": "",
    "name": "nha",
    "character": "枒",
    "index": 4158
  },
  {
    "phonetic": "chủ, đẩu",
    "means": ["cái đấu (để đong)", "một đấu"],
    "summary": "",
    "name": "đấu",
    "character": "枓",
    "index": 4159
  },
  {
    "phonetic": "chấm",
    "means": ["xương trong óc cá", "cái gối đầu"],
    "summary": "",
    "name": "chẩm",
    "character": "枕",
    "index": 4160
  },
  {
    "phonetic": "",
    "means": ["rừng cây"],
    "summary": "",
    "name": "lâm",
    "character": "林",
    "index": 4161
  },
  {
    "phonetic": "",
    "means": ["khớp mộng, vào mộng (nghề mộc)"],
    "summary": "",
    "name": "nhuế",
    "character": "枘",
    "index": 4162
  },
  {
    "phonetic": "",
    "means": ["cây, quả, trái", "cái núm quả chuông"],
    "summary": "",
    "name": "mai",
    "character": "枚",
    "index": 4163
  },
  {
    "phonetic": "",
    "means": ["quả, trái", "quả nhiên", "kết quả", "nếu"],
    "summary": "",
    "name": "quả",
    "character": "果",
    "index": 4164
  },
  {
    "phonetic": "kì, kỳ",
    "means": ["cành cây"],
    "summary": "",
    "name": "chi",
    "character": "枝",
    "index": 4165
  },
  {
    "summary": "",
    "character": "枞",
    "traditionalCharacter": "樅",
    "phonetic": "",
    "means": ["cây tung, cây linh sam", "chót vót", "khua, đánh"],
    "name": "tung",
    "index": 4166
  },
  {
    "summary": "",
    "character": "枢",
    "traditionalCharacter": "樞",
    "phonetic": "",
    "means": ["cái then cửa", "cây xu", "sao Xu"],
    "name": "xu",
    "index": 4167
  },
  {
    "summary": "",
    "character": "枣",
    "traditionalCharacter": "棗",
    "phonetic": "táo",
    "means": ["quả táo, cây táo"],
    "name": "tảo",
    "index": 4168
  },
  {
    "summary": "",
    "character": "枥",
    "traditionalCharacter": "櫪",
    "phonetic": "",
    "means": ["ổn định"],
    "name": "lịch",
    "index": 4169
  },
  {
    "summary": "",
    "character": "枨",
    "traditionalCharacter": "棖",
    "phonetic": "trành",
    "means": ["cái bậc cửa"],
    "name": "tranh",
    "index": 4171
  },
  {
    "phonetic": "sanh, thương",
    "means": ["cái thương (binh khí)", "khẩu súng"],
    "summary": "",
    "name": "sang",
    "character": "枪",
    "index": 4172
  },
  {
    "summary": "",
    "character": "枫",
    "traditionalCharacter": "楓",
    "phonetic": "",
    "means": ["cây phong"],
    "name": "phong",
    "index": 4173
  },
  {
    "summary": "",
    "character": "枭",
    "traditionalCharacter": "梟",
    "phonetic": "",
    "means": ["chim kiêu", "hình kiêu (chém đầu rồi bêu lên cây)"],
    "name": "kiêu",
    "index": 4174
  },
  {
    "phonetic": "",
    "means": ["héo hon (cây)", "khô, cạn"],
    "summary": "",
    "name": "khô",
    "character": "枯",
    "index": 4175
  },
  {
    "phonetic": "bình",
    "means": ["ván giát giường", "cây bính"],
    "summary": "",
    "name": "bính",
    "character": "枰",
    "index": 4176
  },
  {
    "phonetic": "",
    "means": ["cây chỉ"],
    "summary": "",
    "name": "chỉ",
    "character": "枳",
    "index": 4177
  },
  {
    "phonetic": "",
    "means": ["cây rỗng", "rỗng không"],
    "summary": "",
    "name": "hiêu",
    "character": "枵",
    "index": 4178
  },
  {
    "phonetic": "",
    "means": ["cái giá, gác (để đặt đồ vật)"],
    "summary": "",
    "name": "giá",
    "character": "架",
    "index": 4179
  },
  {
    "phonetic": "già, giá",
    "means": ["cái gông (để cùm đầu phạm nhân)"],
    "summary": "",
    "name": "gia",
    "character": "枷",
    "index": 4180
  },
  {
    "phonetic": "câu, củ",
    "means": ["cây cẩu kỷ (quả dùng làm thuốc)", "cây gỗ dựng đứng"],
    "summary": "",
    "name": "cẩu",
    "character": "枸",
    "index": 4181
  },
  {
    "phonetic": "",
    "summary": "",
    "name": "diệp",
    "character": "枼",
    "index": 4182
  },
  {
    "phonetic": "đả",
    "means": ["bánh lái thuyền"],
    "summary": "",
    "name": "đà",
    "character": "柁",
    "index": 4183
  },
  {
    "phonetic": "",
    "summary": "",
    "name": "linh",
    "character": "柃",
    "index": 4184
  },
  {
    "phonetic": "",
    "means": ["cán, báng, tay cầm", "người cầm quyền"],
    "summary": "",
    "name": "bính",
    "character": "柄",
    "index": 4185
  },
  {
    "phonetic": "",
    "summary": "",
    "name": "chung",
    "character": "柊",
    "index": 4186
  },
  {
    "phonetic": "bá",
    "means": ["cây bách, cây tuyết tùng"],
    "summary": "",
    "name": "bách",
    "character": "柏",
    "index": 4187
  },
  {
    "phonetic": "",
    "means": ["(dùng làm tiếng đệm khi xưng hô)"],
    "summary": "",
    "name": "mỗ",
    "character": "某",
    "index": 4188
  },
  {
    "phonetic": "kiềm",
    "means": ["cây cam"],
    "summary": "",
    "name": "cam",
    "character": "柑",
    "index": 4189
  },
  {
    "phonetic": "",
    "means": ["7, bảy (như: 七, dùng viết trong văn tự)"],
    "summary": "",
    "name": "thất",
    "character": "柒",
    "index": 4190
  },
  {
    "phonetic": "",
    "means": ["nhiễm, mắc, lây", "nhuộm"],
    "summary": "",
    "name": "nhiễm",
    "character": "染",
    "index": 4191
  },
  {
    "phonetic": "",
    "means": ["mềm dẻo"],
    "summary": "",
    "name": "nhu",
    "character": "柔",
    "index": 4192
  },
  {
    "phonetic": "chạ, giá",
    "means": ["cây gai, cây chá (một loài giống cây dâu tằm)"],
    "summary": "",
    "name": "chá",
    "character": "柘",
    "index": 4193
  },
  {
    "phonetic": "giáp",
    "means": ["cái cũi", "bao đựng gươm"],
    "summary": "",
    "name": "hiệp",
    "character": "柙",
    "index": 4194
  },
  {
    "phonetic": "trục",
    "means": ["cây bưởi"],
    "summary": "",
    "name": "dữu",
    "character": "柚",
    "index": 4195
  },
  {
    "phonetic": "cử, quỹ",
    "means": ["cây cự (một loài liễu lớn)", "cái quầy, cái tủ"],
    "summary": "",
    "name": "cự",
    "character": "柜",
    "index": 4196
  },
  {
    "phonetic": "",
    "means": ["mõ canh (gõ cầm canh ban đêm)"],
    "summary": "",
    "name": "thác",
    "character": "柝",
    "index": 4197
  },
  {
    "phonetic": "sạ, trách",
    "means": [
      "cây tạc (lá có răng cưa, dùng để chải đầu)",
      "phạt cây, phát cây",
      "chật hẹp",
      "tiếng vang ra ngoài"
    ],
    "summary": "",
    "name": "tạc",
    "character": "柞",
    "index": 4198
  },
  {
    "summary": "",
    "character": "柠",
    "traditionalCharacter": "檸",
    "phonetic": "ninh",
    "means": ["(xem: nịnh mông 檸檬,柠檬)"],
    "name": "nịnh",
    "index": 4199
  },
  {
    "phonetic": "đế",
    "means": ["rễ cây"],
    "summary": "",
    "name": "để",
    "character": "柢",
    "index": 4200
  },
  {
    "phonetic": "",
    "means": ["cái bè", "soát, xét, kiểm tra"],
    "summary": "",
    "name": "tra",
    "character": "查",
    "index": 4201
  },
  {
    "phonetic": "",
    "means": ["áo quan (mặc cho người chết)"],
    "summary": "",
    "name": "cữu",
    "character": "柩",
    "index": 4202
  },
  {
    "phonetic": "",
    "means": ["kén chọn", "thư, thiếp, thiệp"],
    "summary": "",
    "name": "giản",
    "character": "柬",
    "index": 4203
  },
  {
    "phonetic": "",
    "means": ["cành cây", "cái cán búa"],
    "summary": "",
    "name": "kha",
    "character": "柯",
    "index": 4204
  },
  {
    "phonetic": "",
    "means": ["cây nại"],
    "summary": "",
    "name": "nại",
    "character": "柰",
    "index": 4205
  },
  {
    "phonetic": "trú",
    "means": ["cái cột"],
    "summary": "",
    "name": "trụ",
    "character": "柱",
    "index": 4206
  },
  {
    "phonetic": "",
    "means": ["cây liễu", "sao Liễu (một trong Nhị thập bát tú)"],
    "summary": "",
    "name": "liễu",
    "character": "柳",
    "index": 4207
  },
  {
    "phonetic": "si, trại, tái, tý, tứ",
    "means": ["củi đun"],
    "summary": "",
    "name": "sài",
    "character": "柴",
    "index": 4208
  },
  {
    "phonetic": "san",
    "means": ["hàng rào, rào chắn"],
    "summary": "",
    "name": "sách",
    "character": "柵",
    "index": 4209
  },
  {
    "summary": "",
    "character": "柽",
    "traditionalCharacter": "檉",
    "phonetic": "",
    "means": ["cây sanh (như cây liễu)"],
    "name": "sanh",
    "index": 4210
  },
  {
    "phonetic": "sĩ",
    "means": ["cây hồng, quả hồng", "cây thị"],
    "summary": "",
    "name": "thị",
    "character": "柿",
    "index": 4211
  },
  {
    "summary": "",
    "character": "栀",
    "traditionalCharacter": "梔",
    "phonetic": "",
    "means": ["cây dành dành"],
    "name": "chi",
    "index": 4212
  },
  {
    "summary": "",
    "character": "栅",
    "traditionalCharacter": "柵",
    "phonetic": "san",
    "means": ["hàng rào, rào chắn"],
    "name": "sách",
    "index": 4213
  },
  {
    "summary": "",
    "character": "标",
    "traditionalCharacter": "標",
    "phonetic": "phiêu",
    "means": ["ngọn nguồn", "cái nêu", "nêu lên", "viết"],
    "name": "tiêu",
    "index": 4214
  },
  {
    "summary": "",
    "character": "栈",
    "traditionalCharacter": "棧",
    "phonetic": "chăn, trăn, xiễn",
    "means": ["nhà kho", "quán trọ"],
    "name": "sạn",
    "index": 4215
  },
  {
    "summary": "",
    "character": "栉",
    "traditionalCharacter": "櫛",
    "phonetic": "",
    "means": ["cái lược", "chải tóc"],
    "name": "trất",
    "index": 4216
  },
  {
    "summary": "",
    "character": "栊",
    "traditionalCharacter": "櫳",
    "phonetic": "lung",
    "means": ["cửa sổ", "cái lồng, cái cũi"],
    "name": "long",
    "index": 4217
  },
  {
    "summary": "",
    "character": "栋",
    "traditionalCharacter": "棟",
    "phonetic": "",
    "means": ["cái cột"],
    "name": "đống",
    "index": 4218
  },
  {
    "summary": "",
    "character": "栌",
    "traditionalCharacter": "櫨",
    "phonetic": "",
    "means": ["(xem: hoàng lô 黃櫨,黄栌)", "(xem: bạc lô 欂櫨,欂栌)"],
    "name": "lô",
    "index": 4219
  },
  {
    "summary": "",
    "character": "栎",
    "traditionalCharacter": "櫟",
    "phonetic": "lao",
    "means": ["cây lịch, cây sồi", "nạo, cạo"],
    "name": "lịch",
    "index": 4220
  },
  {
    "summary": "",
    "character": "栏",
    "traditionalCharacter": "欄",
    "phonetic": "",
    "means": ["lan can"],
    "name": "lan",
    "index": 4221
  },
  {
    "summary": "",
    "character": "树",
    "traditionalCharacter": "樹",
    "phonetic": "thọ",
    "means": ["cái cây"],
    "name": "thụ",
    "index": 4222
  },
  {
    "phonetic": "thuyên",
    "means": ["cái then cài cửa"],
    "summary": "",
    "name": "xuyên",
    "character": "栓",
    "index": 4223
  },
  {
    "phonetic": "tây, tê",
    "means": ["nghỉ ngơi", "đậu (chim)", "cái giường"],
    "summary": "",
    "name": "thê",
    "character": "栖",
    "index": 4224
  },
  {
    "phonetic": "",
    "means": ["cây lật, cây dẻ", "bền chắc"],
    "summary": "",
    "name": "lật",
    "character": "栗",
    "index": 4225
  },
  {
    "phonetic": "thiến, thiệm",
    "means": ["cây quát, cây cối"],
    "summary": "",
    "name": "quát",
    "character": "栝",
    "index": 4226
  },
  {
    "phonetic": "giáo, hào",
    "means": ["sửa chữa, đính chính", "trường học", "họ Hiệu"],
    "summary": "",
    "name": "hiệu",
    "character": "校",
    "index": 4227
  },
  {
    "phonetic": "hú",
    "means": ["cây hủ, cây lịch"],
    "summary": "",
    "name": "hủ",
    "character": "栩",
    "index": 4228
  },
  {
    "phonetic": "chu",
    "means": ["gốc cây", "gốc (chữ dùng để đếm cây)"],
    "summary": "",
    "name": "châu",
    "character": "株",
    "index": 4229
  },
  {
    "phonetic": "",
    "means": ["cột trụ"],
    "summary": "",
    "name": "củng",
    "character": "栱",
    "index": 4230
  },
  {
    "phonetic": "",
    "means": ["cây khảo"],
    "summary": "",
    "name": "khảo",
    "character": "栲",
    "index": 4231
  },
  {
    "phonetic": "",
    "means": ["cái giỏ"],
    "summary": "",
    "name": "lão",
    "character": "栳",
    "index": 4232
  },
  {
    "phonetic": "",
    "means": ["(xem: chiên đàn 栴檀)"],
    "summary": "",
    "name": "chiên",
    "character": "栴",
    "index": 4233
  },
  {
    "summary": "",
    "character": "样",
    "traditionalCharacter": "樣",
    "phonetic": "",
    "means": ["hình dạng, dáng vẻ", "mẫu"],
    "name": "dạng",
    "index": 4234
  },
  {
    "phonetic": "hạt, hồ",
    "means": ["hạt, hột, nhân"],
    "summary": "",
    "name": "hạch",
    "character": "核",
    "index": 4235
  },
  {
    "phonetic": "",
    "means": ["rễ cây"],
    "summary": "",
    "name": "căn",
    "character": "根",
    "index": 4236
  },
  {
    "phonetic": "các",
    "means": ["cách thức"],
    "summary": "",
    "name": "cách",
    "character": "格",
    "index": 4237
  },
  {
    "phonetic": "tải",
    "means": ["trồng trọt", "cây"],
    "summary": "",
    "name": "tài",
    "character": "栽",
    "index": 4238
  },
  {
    "summary": "",
    "character": "栾",
    "traditionalCharacter": "欒",
    "phonetic": "",
    "means": ["cây loan", "tròn xoe", "hai góc miệng chuông"],
    "name": "loan",
    "index": 4239
  },
  {
    "phonetic": "kiết",
    "means": ["vua Kiệt (đời nhà Hạ)"],
    "summary": "",
    "name": "kiệt",
    "character": "桀",
    "index": 4240
  },
  {
    "phonetic": "hàng, hãng",
    "means": ["cái dầm gỗ", "cái cùm to"],
    "summary": "",
    "name": "hành",
    "character": "桁",
    "index": 4241
  },
  {
    "phonetic": "",
    "means": ["cây quế"],
    "summary": "",
    "name": "quế",
    "character": "桂",
    "index": 4242
  },
  {
    "phonetic": "",
    "means": ["cây hoa đào", "lễ cưới"],
    "summary": "",
    "name": "đào",
    "character": "桃",
    "index": 4243
  },
  {
    "phonetic": "quáng",
    "means": ["(xem: quang lang 桄榔)"],
    "summary": "",
    "name": "quang",
    "character": "桄",
    "index": 4244
  },
  {
    "phonetic": "ngôi",
    "means": ["cột buồm"],
    "summary": "",
    "name": "nguy",
    "character": "桅",
    "index": 4245
  },
  {
    "phonetic": "",
    "means": ["cái khung"],
    "summary": "",
    "name": "khuông",
    "character": "框",
    "index": 4246
  },
  {
    "phonetic": "",
    "means": ["cái bàn dài", "bản án"],
    "summary": "",
    "name": "án",
    "character": "案",
    "index": 4247
  },
  {
    "phonetic": "an",
    "means": ["cái bàn dài", "bản án"],
    "summary": "",
    "name": "án",
    "character": "桉",
    "index": 4248
  },
  {
    "phonetic": "",
    "means": ["cái đẳng, bàn ăn"],
    "summary": "",
    "name": "trác",
    "character": "桌",
    "index": 4250
  },
  {
    "phonetic": "chất",
    "means": ["cái cùm chân"],
    "summary": "",
    "name": "trất",
    "character": "桎",
    "index": 4251
  },
  {
    "phonetic": "thông",
    "means": ["(xem: ngô đồng 梧桐)"],
    "summary": "",
    "name": "đồng",
    "character": "桐",
    "index": 4252
  },
  {
    "phonetic": "",
    "means": ["cây dâu"],
    "summary": "",
    "name": "tang",
    "character": "桑",
    "index": 4253
  },
  {
    "phonetic": "",
    "means": ["cái nêu (cắm trên mồ mả)", "cây hoàn"],
    "summary": "",
    "name": "hoàn",
    "character": "桓",
    "index": 4254
  },
  {
    "phonetic": "cát, kiết, quất",
    "means": [
      "quả quít, quả cam",
      "(xem: kết cánh 桔梗)",
      "(xem: kết cao 桔槔)"
    ],
    "summary": "",
    "name": "kết",
    "character": "桔",
    "index": 4255
  },
  {
    "phonetic": "",
    "means": ["cây bồ hòn (tên khoa học: sapium sebiferum)"],
    "summary": "",
    "name": "cữu",
    "character": "桕",
    "index": 4256
  },
  {
    "summary": "",
    "character": "桠",
    "traditionalCharacter": "椏",
    "phonetic": "",
    "means": ["chạc cây"],
    "name": "nha",
    "index": 4257
  },
  {
    "phonetic": "nhiêu, nạo",
    "means": ["mái chèo"],
    "summary": "",
    "name": "kiêu",
    "character": "桡",
    "index": 4258
  },
  {
    "summary": "",
    "character": "桢",
    "traditionalCharacter": "楨",
    "phonetic": "",
    "means": ["cái cột góc tường", "cội, gốc"],
    "name": "trinh",
    "index": 4259
  },
  {
    "summary": "",
    "character": "档",
    "traditionalCharacter": "檔",
    "phonetic": "đương",
    "means": [
      "tấm phản",
      "bản bằng gỗ mỏng để viết văn tự vào",
      "tệp, file (tin học)"
    ],
    "name": "đáng",
    "index": 4260
  },
  {
    "summary": "",
    "character": "桥",
    "traditionalCharacter": "橋",
    "phonetic": "cao, khiêu",
    "means": ["cái cầu"],
    "name": "kiều",
    "index": 4262
  },
  {
    "summary": "",
    "character": "桦",
    "traditionalCharacter": "樺",
    "phonetic": "",
    "means": ["(một loại hoa)"],
    "name": "hoa",
    "index": 4263
  },
  {
    "summary": "",
    "character": "桧",
    "traditionalCharacter": "檜",
    "phonetic": "",
    "means": ["cây cối (một loài thông)", "nước cối"],
    "name": "cối",
    "index": 4264
  },
  {
    "phonetic": "tưởng",
    "means": ["mái chèo"],
    "summary": "",
    "name": "tương",
    "character": "桨",
    "index": 4265
  },
  {
    "summary": "",
    "character": "桩",
    "traditionalCharacter": "樁",
    "phonetic": "trang",
    "means": ["đánh đập", "cái cọc"],
    "name": "thung",
    "index": 4266
  },
  {
    "phonetic": "",
    "means": ["(xem: sa la 桫欏,桫椤)"],
    "summary": "",
    "name": "sa",
    "character": "桫",
    "index": 4267
  },
  {
    "phonetic": "",
    "means": ["(xem: ôn bột 榲桲,榅桲)"],
    "summary": "",
    "name": "bột",
    "character": "桲",
    "index": 4268
  },
  {
    "phonetic": "phù",
    "means": ["cái bè", "bầu hoa"],
    "summary": "",
    "name": "phu",
    "character": "桴",
    "index": 4269
  },
  {
    "phonetic": "dũng, thũng",
    "means": ["cái thùng"],
    "summary": "",
    "name": "dõng",
    "character": "桶",
    "index": 4270
  },
  {
    "phonetic": "",
    "means": ["rui nhà, xà nhà (hình vuông)", "cái vồ", "cột to"],
    "summary": "",
    "name": "giác",
    "character": "桷",
    "index": 4271
  },
  {
    "phonetic": "hãn",
    "means": ["cái gậy gỗ, cái côn, cái mộc", "chấn song cửa sổ"],
    "summary": "",
    "name": "can",
    "character": "桿",
    "index": 4273
  },
  {
    "phonetic": "",
    "means": ["nước Lương", "đời nhà Lương của Trung Quốc", "cầu", "xà nhà"],
    "summary": "",
    "name": "lương",
    "character": "梁",
    "index": 4274
  },
  {
    "phonetic": "",
    "means": ["cái gậy, cái côn"],
    "summary": "",
    "name": "đĩnh",
    "character": "梃",
    "index": 4275
  },
  {
    "phonetic": "",
    "means": ["cây hoa mai"],
    "summary": "",
    "name": "mai",
    "character": "梅",
    "index": 4276
  },
  {
    "phonetic": "",
    "means": ["cái mõ dài"],
    "summary": "",
    "name": "bang",
    "character": "梆",
    "index": 4277
  },
  {
    "phonetic": "",
    "means": ["cái gông bằng gỗ"],
    "summary": "",
    "name": "cốc",
    "character": "梏",
    "index": 4278
  },
  {
    "phonetic": "",
    "means": [
      "cây tử (dùng để đóng đàn; tượng trưng cho con)",
      "khắc chữ lên bản gỗ",
      "quê cha đất tổ"
    ],
    "summary": "",
    "name": "tử",
    "character": "梓",
    "index": 4279
  },
  {
    "phonetic": "",
    "means": ["cây dành dành"],
    "summary": "",
    "name": "chi",
    "character": "梔",
    "index": 4280
  },
  {
    "phonetic": "cánh, cạnh",
    "means": ["cành cây", "cánh bèo", "ngang ngạnh", "ngay thẳng"],
    "summary": "",
    "name": "ngạnh",
    "character": "梗",
    "index": 4281
  },
  {
    "phonetic": "thiêu, điêu",
    "means": ["điều khoản, khoản mục", "sọc, vằn, sợi", "cành cây"],
    "summary": "",
    "name": "điều",
    "character": "條",
    "index": 4282
  },
  {
    "phonetic": "",
    "means": ["chim kiêu", "hình kiêu (chém đầu rồi bêu lên cây)"],
    "summary": "",
    "name": "kiêu",
    "character": "梟",
    "index": 4283
  },
  {
    "phonetic": "tiêu",
    "means": ["ngọn cây", "mốc, dấu hiệu", "nhãn hiệu", "đánh dấu", "giá thầu"],
    "summary": "",
    "name": "sao",
    "character": "梢",
    "index": 4284
  },
  {
    "phonetic": "",
    "summary": "",
    "name": "sầm",
    "character": "梣",
    "index": 4285
  },
  {
    "summary": "",
    "character": "梦",
    "traditionalCharacter": "夢",
    "phonetic": "mông",
    "means": ["mơ, mộng, chiêm bao", "mơ tưởng, ao ước", "họ Mộng"],
    "name": "mộng",
    "index": 4286
  },
  {
    "phonetic": "ngộ",
    "means": ["cây vông"],
    "summary": "",
    "name": "ngô",
    "character": "梧",
    "index": 4287
  },
  {
    "phonetic": "",
    "means": ["cây lê, quả lê"],
    "summary": "",
    "name": "lê",
    "character": "梨",
    "index": 4288
  },
  {
    "phonetic": "toa",
    "means": ["cái thoi dệt cửi", "quan chức đi lại đốc suất binh phu"],
    "summary": "",
    "name": "thoa",
    "character": "梭",
    "index": 4289
  },
  {
    "phonetic": "",
    "means": ["cái thang"],
    "summary": "",
    "name": "thê",
    "character": "梯",
    "index": 4290
  },
  {
    "phonetic": "",
    "means": ["đồ khí giới"],
    "summary": "",
    "name": "giới",
    "character": "械",
    "index": 4291
  },
  {
    "phonetic": "",
    "means": ["cái lược", "chải (tóc)"],
    "summary": "",
    "name": "sơ",
    "character": "梳",
    "index": 4292
  },
  {
    "phonetic": "phạn",
    "means": ["nết làm cho thanh tịnh"],
    "summary": "",
    "name": "phạm",
    "character": "梵",
    "index": 4293
  },
  {
    "summary": "",
    "character": "梼",
    "traditionalCharacter": "檮",
    "phonetic": "",
    "means": ["ngu dốt, ngơ ngẩn"],
    "name": "đào",
    "index": 4294
  },
  {
    "phonetic": "",
    "summary": "",
    "name": "liên",
    "character": "梿",
    "index": 4296
  },
  {
    "summary": "",
    "character": "检",
    "traditionalCharacter": "檢",
    "phonetic": "",
    "means": ["kiểm tra"],
    "name": "kiểm",
    "index": 4297
  },
  {
    "summary": "",
    "character": "棂",
    "traditionalCharacter": "欞",
    "phonetic": "",
    "means": ["chấn song cửa sổ"],
    "name": "linh",
    "index": 4298
  },
  {
    "phonetic": "",
    "means": ["bỏ đi, vứt đi"],
    "summary": "",
    "name": "khí",
    "character": "棄",
    "index": 4299
  },
  {
    "phonetic": "",
    "means": ["cây bông"],
    "summary": "",
    "name": "miên",
    "character": "棉",
    "index": 4300
  },
  {
    "phonetic": "ky, kì, kí, ký",
    "means": ["cờ (chơi)"],
    "summary": "",
    "name": "kỳ",
    "character": "棋",
    "index": 4301
  },
  {
    "phonetic": "hỗn",
    "means": ["cái gậy", "kẻ côn đồ"],
    "summary": "",
    "name": "côn",
    "character": "棍",
    "index": 4302
  },
  {
    "phonetic": "",
    "means": ["cái gậy ngắn, côn", "cừ, giỏi"],
    "summary": "",
    "name": "bổng",
    "character": "棒",
    "index": 4303
  },
  {
    "phonetic": "",
    "means": ["cây cọ, cây gồi", "xơ cọ"],
    "summary": "",
    "name": "tông",
    "character": "棕",
    "index": 4304
  },
  {
    "phonetic": "táo",
    "means": ["quả táo, cây táo"],
    "summary": "",
    "name": "tảo",
    "character": "棗",
    "index": 4305
  },
  {
    "phonetic": "",
    "means": ["cây gai"],
    "summary": "",
    "name": "cức",
    "character": "棘",
    "index": 4306
  },
  {
    "phonetic": "bành",
    "means": ["gác, nhà rạp", "đơn vị quân gồm 14 lính"],
    "summary": "",
    "name": "bằng",
    "character": "棚",
    "index": 4307
  },
  {
    "phonetic": "",
    "means": ["cái cột"],
    "summary": "",
    "name": "đống",
    "character": "棟",
    "index": 4308
  },
  {
    "phonetic": "",
    "means": ["(xem: hải đường 海棠)"],
    "summary": "",
    "name": "đường",
    "character": "棠",
    "index": 4309
  },
  {
    "phonetic": "thế, đại, đệ",
    "means": ["(xem: đường lệ 常棣)"],
    "summary": "",
    "name": "lệ",
    "character": "棣",
    "index": 4310
  },
  {
    "phonetic": "chăn, trăn, trản, xiễn",
    "means": ["nhà kho", "quán trọ"],
    "summary": "",
    "name": "sạn",
    "character": "棧",
    "index": 4312
  },
  {
    "phonetic": "",
    "means": ["sum suê, rậm rạp"],
    "summary": "",
    "name": "sâm",
    "character": "森",
    "index": 4313
  },
  {
    "phonetic": "chuỷ",
    "means": ["gậy ngắn", "đánh bằng gậy"],
    "summary": "",
    "name": "truỳ",
    "character": "棰",
    "index": 4314
  },
  {
    "phonetic": "",
    "means": ["oai linh", "góc, cạnh"],
    "summary": "",
    "name": "lăng",
    "character": "棱",
    "index": 4315
  },
  {
    "phonetic": "tê",
    "means": ["nghỉ ngơi", "đậu (chim)", "cái giường"],
    "summary": "",
    "name": "thê",
    "character": "棲",
    "index": 4316
  },
  {
    "phonetic": "khoã",
    "means": ["một cây, một gốc (dùng để đếm cây)"],
    "summary": "",
    "name": "khoả",
    "character": "棵",
    "index": 4317
  },
  {
    "phonetic": "trác",
    "means": ["mái chèo"],
    "summary": "",
    "name": "trạo",
    "character": "棹",
    "index": 4319
  },
  {
    "phonetic": "quán",
    "means": ["áo quan (cho người chết)"],
    "summary": "",
    "name": "quan",
    "character": "棺",
    "index": 4320
  },
  {
    "phonetic": "",
    "means": ["mùi cỏ thơm", "nổi lên, ùn ùn"],
    "summary": "",
    "name": "phân",
    "character": "棻",
    "index": 4321
  },
  {
    "phonetic": "",
    "means": ["cái xà ngắn", "rối bung", "vải gai, vải bông", "rậm rạp"],
    "summary": "",
    "name": "phần",
    "character": "棼",
    "index": 4322
  },
  {
    "phonetic": "",
    "means": ["cái quách (để bọc ngoài áo quan)"],
    "summary": "",
    "name": "quách",
    "character": "椁",
    "index": 4323
  },
  {
    "phonetic": "y, ỷ",
    "means": ["cái ghế tựa"],
    "summary": "",
    "name": "kỷ",
    "character": "椅",
    "index": 4324
  },
  {
    "phonetic": "",
    "summary": "",
    "name": "chu",
    "character": "椆",
    "index": 4325
  },
  {
    "phonetic": "trĩ, trị",
    "means": ["thực vật"],
    "summary": "",
    "name": "thực",
    "character": "植",
    "index": 4327
  },
  {
    "phonetic": "chuy, chuỳ",
    "means": ["nện, đánh"],
    "summary": "",
    "name": "truỳ",
    "character": "椎",
    "index": 4328
  },
  {
    "phonetic": "cử",
    "means": ["cây cư, cây linh thọ"],
    "summary": "",
    "name": "cư",
    "character": "椐",
    "index": 4329
  },
  {
    "phonetic": "",
    "means": ["hạt tiêu, hồ tiêu"],
    "summary": "",
    "name": "tiêu",
    "character": "椒",
    "index": 4330
  },
  {
    "summary": "",
    "character": "椟",
    "traditionalCharacter": "櫝",
    "phonetic": "",
    "means": ["cái tủ"],
    "name": "độc",
    "index": 4331
  },
  {
    "summary": "",
    "character": "椠",
    "traditionalCharacter": "槧",
    "phonetic": "thiễm",
    "means": ["bản gỗ để viết", "bản in (hay bản dịch) sách", "thư từ"],
    "name": "tạm",
    "index": 4332
  },
  {
    "summary": "",
    "character": "椤",
    "traditionalCharacter": "欏",
    "phonetic": "",
    "means": ["(xem: sa la 桫欏,桫椤)"],
    "name": "la",
    "index": 4333
  },
  {
    "summary": "",
    "character": "椭",
    "traditionalCharacter": "橢",
    "phonetic": "",
    "means": ["dài nhọn, hình bầu dục, hình êlíp"],
    "name": "thoả",
    "index": 4336
  },
  {
    "phonetic": "gia",
    "means": ["cây dừa, quả dừa"],
    "summary": "",
    "name": "da",
    "character": "椰",
    "index": 4337
  },
  {
    "phonetic": "",
    "means": ["cây đoạn"],
    "summary": "",
    "name": "đoạn",
    "character": "椴",
    "index": 4338
  },
  {
    "phonetic": "châm, thẩm, thậm",
    "means": ["cái búa bổ củi", "quả dâu"],
    "summary": "",
    "name": "thầm",
    "character": "椹",
    "index": 4339
  },
  {
    "phonetic": "triện",
    "means": ["cái đòn tay"],
    "summary": "",
    "name": "chuyên",
    "character": "椽",
    "index": 4340
  },
  {
    "phonetic": "thung",
    "means": ["cây xuân"],
    "summary": "",
    "name": "xuân",
    "character": "椿",
    "index": 4341
  },
  {
    "phonetic": "sa",
    "means": ["cây tra"],
    "summary": "",
    "name": "tra",
    "character": "楂",
    "index": 4342
  },
  {
    "phonetic": "",
    "means": ["cây dương liễu"],
    "summary": "",
    "name": "dương",
    "character": "楊",
    "index": 4343
  },
  {
    "phonetic": "",
    "means": ["cây phong"],
    "summary": "",
    "name": "phong",
    "character": "楓",
    "index": 4344
  },
  {
    "phonetic": "kiết",
    "means": ["cái bạo cửa, cái ngạch cửa", "chống đỡ", "cái nêm"],
    "summary": "",
    "name": "tiết",
    "character": "楔",
    "index": 4345
  },
  {
    "phonetic": "kiện",
    "summary": "",
    "name": "kiển",
    "character": "楗",
    "index": 4346
  },
  {
    "phonetic": "",
    "means": ["tốt tươi", "cây mậu"],
    "summary": "",
    "name": "mậu",
    "character": "楙",
    "index": 4347
  },
  {
    "phonetic": "",
    "means": [
      "rõ ràng, minh bạch",
      "đau đớn, khổ sở",
      "đánh đập",
      "nước Sở, đất Sở"
    ],
    "summary": "",
    "name": "sở",
    "character": "楚",
    "index": 4348
  },
  {
    "phonetic": "khổ",
    "means": ["cây hộ (dùng làm tên bắn)"],
    "summary": "",
    "name": "hộ",
    "character": "楛",
    "index": 4349
  },
  {
    "phonetic": "",
    "means": ["cây xoan"],
    "summary": "",
    "name": "luyện",
    "character": "楝",
    "index": 4350
  },
  {
    "phonetic": "",
    "means": ["góc, cạnh"],
    "summary": "",
    "name": "lăng",
    "character": "楞",
    "index": 4351
  },
  {
    "phonetic": "",
    "means": ["cây nam, cây chò"],
    "summary": "",
    "name": "nam",
    "character": "楠",
    "index": 4352
  },
  {
    "phonetic": "mi",
    "means": ["cái xà nhì (xà bắc ngang trên cửa)"],
    "summary": "",
    "name": "my",
    "character": "楣",
    "index": 4353
  },
  {
    "phonetic": "huyên",
    "means": ["cái cốt giày"],
    "summary": "",
    "name": "tuyên",
    "character": "楦",
    "index": 4354
  },
  {
    "phonetic": "",
    "means": ["cái cột góc tường", "cội, gốc"],
    "summary": "",
    "name": "trinh",
    "character": "楨",
    "index": 4355
  },
  {
    "phonetic": "",
    "means": ["mái chèo phía trước"],
    "summary": "",
    "name": "tiếp",
    "character": "楫",
    "index": 4356
  },
  {
    "phonetic": "",
    "means": ["nghề nghiệp, sự nghiệp"],
    "summary": "",
    "name": "nghiệp",
    "character": "業",
    "index": 4357
  },
  {
    "phonetic": "",
    "means": ["cây dó (dùng làm giấy)", "tiền giấy"],
    "summary": "",
    "name": "chử",
    "character": "楮",
    "index": 4358
  },
  {
    "phonetic": "",
    "summary": "",
    "name": "thấu",
    "character": "楱",
    "index": 4359
  },
  {
    "phonetic": "",
    "means": ["cực, tột cùng"],
    "summary": "",
    "name": "cực",
    "character": "極",
    "index": 4360
  },
  {
    "phonetic": "khải",
    "means": ["cây giai", "khuôn phép", "chữ viết ngay ngắn"],
    "summary": "",
    "name": "giai",
    "character": "楷",
    "index": 4361
  },
  {
    "phonetic": "",
    "means": ["cây gỗ thu (thường dùng để đóng bàn cờ)"],
    "summary": "",
    "name": "thu",
    "character": "楸",
    "index": 4362
  },
  {
    "phonetic": "",
    "means": ["cột nhà"],
    "summary": "",
    "name": "doanh",
    "character": "楹",
    "index": 4363
  },
  {
    "summary": "",
    "character": "楼",
    "traditionalCharacter": "樓",
    "phonetic": "",
    "means": ["cái lầu"],
    "name": "lâu",
    "index": 4364
  },
  {
    "phonetic": "hị",
    "means": ["gạt phẳng, gạt bằng", "đo đạc", "bao quát, tóm tắt"],
    "summary": "",
    "name": "khái",
    "character": "概",
    "index": 4366
  },
  {
    "summary": "",
    "character": "榄",
    "traditionalCharacter": "欖",
    "phonetic": "",
    "means": ["(xem: cảm lãm 橄欖,橄榄)"],
    "name": "lãm",
    "index": 4367
  },
  {
    "phonetic": "uấn, ốt",
    "means": ["(xem: ôn bột 榲桲,榅桲)"],
    "summary": "",
    "name": "ôn",
    "character": "榅",
    "index": 4368
  },
  {
    "phonetic": "",
    "means": ["cây du"],
    "summary": "",
    "name": "du",
    "character": "榆",
    "index": 4369
  },
  {
    "summary": "",
    "character": "榇",
    "traditionalCharacter": "櫬",
    "phonetic": "thấn",
    "means": ["cái áo quan"],
    "name": "sấn",
    "index": 4370
  },
  {
    "summary": "",
    "character": "榈",
    "traditionalCharacter": "櫚",
    "phonetic": "",
    "means": ["cây lư, cây gỗ gụ"],
    "name": "lư",
    "index": 4371
  },
  {
    "summary": "",
    "character": "榉",
    "traditionalCharacter": "櫸",
    "phonetic": "",
    "means": ["cây cử, cây sồi"],
    "name": "cử",
    "index": 4372
  },
  {
    "phonetic": "",
    "means": ["(xem: tân lang 檳榔,槟榔)", "(xem: lang đầu 榔頭)"],
    "summary": "",
    "name": "lang",
    "character": "榔",
    "index": 4374
  },
  {
    "phonetic": "dong",
    "means": ["cây đa"],
    "summary": "",
    "name": "dung",
    "character": "榕",
    "index": 4375
  },
  {
    "phonetic": "",
    "means": ["cái khuôn", "khuôn phép"],
    "summary": "",
    "name": "củ",
    "character": "榘",
    "index": 4376
  },
  {
    "phonetic": "trân",
    "means": ["cây trăn", "bụi cây", "vướng vít"],
    "summary": "",
    "name": "trăn",
    "character": "榛",
    "index": 4377
  },
  {
    "phonetic": "báng",
    "means": ["chèo thuyền", "đánh đập", "bảng, danh sách", "công văn"],
    "summary": "",
    "name": "bảng",
    "character": "榜",
    "index": 4378
  },
  {
    "phonetic": "",
    "means": ["cây phỉ"],
    "summary": "",
    "name": "phỉ",
    "character": "榧",
    "index": 4379
  },
  {
    "phonetic": "",
    "means": ["cái bàn ép dầu"],
    "summary": "",
    "name": "trá",
    "character": "榨",
    "index": 4380
  },
  {
    "phonetic": "",
    "means": ["tra ngàm, tra mộng gỗ"],
    "summary": "",
    "name": "chuẩn",
    "character": "榫",
    "index": 4381
  },
  {
    "phonetic": "",
    "means": ["nhà xây trên đài"],
    "summary": "",
    "name": "tạ",
    "character": "榭",
    "index": 4382
  },
  {
    "phonetic": "",
    "means": ["vinh, vinh dự, vinh hoa"],
    "summary": "",
    "name": "vinh",
    "character": "榮",
    "index": 4383
  },
  {
    "phonetic": "",
    "means": ["gái rui (đóng trên mái ngói để móc ngói giắt lá vào)"],
    "summary": "",
    "name": "suy",
    "character": "榱",
    "index": 4384
  },
  {
    "phonetic": "uấn, ốt",
    "means": ["(xem: ôn bột 榲桲,榅桲)"],
    "summary": "",
    "name": "ôn",
    "character": "榲",
    "index": 4385
  },
  {
    "phonetic": "lựu",
    "means": ["cây lựu"],
    "summary": "",
    "name": "lưu",
    "character": "榴",
    "index": 4386
  },
  {
    "phonetic": "giác",
    "means": ["cầu độc mộc", "giữ độc quyền", "đánh thuế"],
    "summary": "",
    "name": "các",
    "character": "榷",
    "index": 4387
  },
  {
    "phonetic": "",
    "means": ["cái giường hẹp mà dài"],
    "summary": "",
    "name": "tháp",
    "character": "榻",
    "index": 4388
  },
  {
    "phonetic": "",
    "summary": "",
    "name": "khi",
    "character": "榿",
    "index": 4389
  },
  {
    "phonetic": "",
    "means": ["khô", "gỗ khô"],
    "summary": "",
    "name": "cảo",
    "character": "槀",
    "index": 4390
  },
  {
    "phonetic": "cao, khao, khảo",
    "means": ["khô", "gỗ khô"],
    "summary": "",
    "name": "cảo",
    "character": "槁",
    "index": 4391
  },
  {
    "phonetic": "",
    "means": ["cái mâm gỗ", "vui vầy"],
    "summary": "",
    "name": "bàn",
    "character": "槃",
    "index": 4392
  },
  {
    "phonetic": "sóc",
    "means": ["cái giáo dài", "một trò đánh cờ"],
    "summary": "",
    "name": "sáo",
    "character": "槊",
    "index": 4393
  },
  {
    "phonetic": "",
    "means": ["làm ra, tạo ra, xây dựng", "tác phẩm"],
    "summary": "",
    "name": "cấu",
    "character": "構",
    "index": 4394
  },
  {
    "phonetic": "truỳ, đôi",
    "means": ["cái vồ lớn", "đánh đập"],
    "summary": "",
    "name": "chuỳ",
    "character": "槌",
    "index": 4395
  },
  {
    "phonetic": "sanh, thương",
    "means": ["cái thương (binh khí)", "khẩu súng"],
    "summary": "",
    "name": "sang",
    "character": "槍",
    "index": 4396
  },
  {
    "phonetic": "",
    "means": ["chặt ngang cây, phát cây", "cài bè"],
    "summary": "",
    "name": "tra",
    "character": "槎",
    "index": 4397
  },
  {
    "phonetic": "",
    "means": ["cây hoè"],
    "summary": "",
    "name": "hoè",
    "character": "槐",
    "index": 4398
  },
  {
    "phonetic": "",
    "means": ["cái phông (để đo phương thẳng đứng)"],
    "summary": "",
    "name": "cống",
    "character": "槓",
    "index": 4399
  },
  {
    "phonetic": "",
    "means": ["(xem: kết cao 桔槔)"],
    "summary": "",
    "name": "cao",
    "character": "槔",
    "index": 4400
  },
  {
    "summary": "",
    "character": "槛",
    "traditionalCharacter": "檻",
    "phonetic": "",
    "means": ["hiên nhà"],
    "name": "hạm",
    "index": 4401
  },
  {
    "summary": "",
    "character": "槟",
    "traditionalCharacter": "檳",
    "phonetic": "",
    "means": ["cây cau"],
    "name": "tân",
    "index": 4403
  },
  {
    "phonetic": "",
    "summary": "",
    "name": "liên",
    "character": "槤",
    "index": 4405
  },
  {
    "phonetic": "",
    "means": ["cái quách (để bọc ngoài áo quan)"],
    "summary": "",
    "name": "quách",
    "character": "槨",
    "index": 4406
  },
  {
    "phonetic": "sắc",
    "means": ["cây túc"],
    "summary": "",
    "name": "túc",
    "character": "槭",
    "index": 4407
  },
  {
    "phonetic": "",
    "means": ["cây hộc"],
    "summary": "",
    "name": "hộc",
    "character": "槲",
    "index": 4408
  },
  {
    "phonetic": "tưởng",
    "means": ["mái chèo"],
    "summary": "",
    "name": "tương",
    "character": "槳",
    "index": 4409
  },
  {
    "phonetic": "",
    "means": ["trống rỗng"],
    "summary": "",
    "name": "khang",
    "character": "槺",
    "index": 4410
  },
  {
    "phonetic": "",
    "means": [
      "cái máng cho muông thú ăn",
      "cái gác dây đàn tỳ bà",
      "cao hai bên, trũng ở giữa"
    ],
    "summary": "",
    "name": "tào",
    "character": "槽",
    "index": 4411
  },
  {
    "phonetic": "cận",
    "means": ["cây cận, cây dâm bụt"],
    "summary": "",
    "name": "cẩn",
    "character": "槿",
    "index": 4412
  },
  {
    "phonetic": "chang, trang",
    "means": ["đánh đập", "cái cọc"],
    "summary": "",
    "name": "thung",
    "character": "樁",
    "index": 4413
  },
  {
    "phonetic": "nhạc, nhạo",
    "means": ["sung sướng"],
    "summary": "",
    "name": "lạc",
    "character": "樂",
    "index": 4414
  },
  {
    "phonetic": "",
    "means": ["cây tung, cây linh sam", "chót vót", "khua, đánh"],
    "summary": "",
    "name": "tung",
    "character": "樅",
    "index": 4415
  },
  {
    "phonetic": "",
    "summary": "",
    "name": "ly",
    "character": "樆",
    "index": 4416
  },
  {
    "phonetic": "phàn",
    "means": ["cái lồng chim", "cái phên quây vườn rau", "quây quanh"],
    "summary": "",
    "name": "phiền",
    "character": "樊",
    "index": 4417
  },
  {
    "phonetic": "",
    "means": ["nước Lương", "đời nhà Lương của Trung Quốc", "cầu", "xà nhà"],
    "summary": "",
    "name": "lương",
    "character": "樑",
    "index": 4418
  },
  {
    "phonetic": "",
    "means": ["cái lầu"],
    "summary": "",
    "name": "lâu",
    "character": "樓",
    "index": 4419
  },
  {
    "phonetic": "sư",
    "means": ["cây xư (cây gỗ không dùng được vào việc gì)"],
    "summary": "",
    "name": "xư",
    "character": "樗",
    "index": 4420
  },
  {
    "phonetic": "sanh",
    "means": ["khung cửa"],
    "summary": "",
    "name": "đường",
    "character": "樘",
    "index": 4421
  },
  {
    "phonetic": "phiêu",
    "means": ["ngọn nguồn", "cái nêu", "nêu lên", "viết"],
    "summary": "",
    "name": "tiêu",
    "character": "標",
    "index": 4422
  },
  {
    "phonetic": "",
    "means": ["cây cù, cây si", "treo rủ xuống"],
    "summary": "",
    "name": "cù",
    "character": "樛",
    "index": 4423
  },
  {
    "phonetic": "",
    "means": ["cái then cửa", "cây xu", "sao Xu"],
    "summary": "",
    "name": "xu",
    "character": "樞",
    "index": 4424
  },
  {
    "phonetic": "",
    "means": ["cây long não"],
    "summary": "",
    "name": "chương",
    "character": "樟",
    "index": 4425
  },
  {
    "phonetic": "",
    "means": ["cái khuôn bằng gỗ", "mô phỏng", "gương mẫu", "mơ hồ, mập mờ"],
    "summary": "",
    "name": "mô",
    "character": "模",
    "index": 4426
  },
  {
    "phonetic": "",
    "means": ["hình dạng, dáng vẻ", "mẫu"],
    "summary": "",
    "name": "dạng",
    "character": "樣",
    "index": 4427
  },
  {
    "phonetic": "",
    "means": ["cây quế"],
    "summary": "",
    "name": "tê",
    "character": "樨",
    "index": 4428
  },
  {
    "summary": "",
    "character": "横",
    "traditionalCharacter": "橫",
    "phonetic": "hoạnh, quáng",
    "means": ["ngang"],
    "name": "hoành",
    "index": 4429
  },
  {
    "summary": "",
    "character": "樯",
    "traditionalCharacter": "檣",
    "phonetic": "",
    "means": ["cái cột buồm"],
    "name": "tường",
    "index": 4430
  },
  {
    "summary": "",
    "character": "樱",
    "traditionalCharacter": "櫻",
    "phonetic": "",
    "means": ["(xem: anh đào 櫻桃,樱桃)"],
    "name": "anh",
    "index": 4431
  },
  {
    "phonetic": "",
    "means": ["người đốn củi"],
    "summary": "",
    "name": "tiều",
    "character": "樵",
    "index": 4432
  },
  {
    "phonetic": "bốc",
    "means": ["cây phác (vỏ dùng làm thuốc)", "chất phác"],
    "summary": "",
    "name": "phác",
    "character": "樸",
    "index": 4433
  },
  {
    "phonetic": "thọ",
    "means": ["cái cây"],
    "summary": "",
    "name": "thụ",
    "character": "樹",
    "index": 4434
  },
  {
    "phonetic": "",
    "means": ["(một loại hoa)"],
    "summary": "",
    "name": "hoa",
    "character": "樺",
    "index": 4435
  },
  {
    "phonetic": "",
    "means": ["cái chén"],
    "summary": "",
    "name": "tôn",
    "character": "樽",
    "index": 4436
  },
  {
    "phonetic": "",
    "means": ["chỗ bóng rợp của hai cây", "được người khác che chở"],
    "summary": "",
    "name": "việt",
    "character": "樾",
    "index": 4437
  },
  {
    "phonetic": "",
    "means": ["cây quả trám"],
    "summary": "",
    "name": "cảm",
    "character": "橄",
    "index": 4438
  },
  {
    "phonetic": "tuyệt",
    "means": [
      "một thứ đồ đi trên bùn, hình như cái sọt, hai đầu vểnh lên, một chân quỳ vào trong, một chân đẩy đi"
    ],
    "summary": "",
    "name": "khiêu",
    "character": "橇",
    "index": 4439
  },
  {
    "phonetic": "nhiêu, nạo",
    "means": ["mái chèo"],
    "summary": "",
    "name": "kiêu",
    "character": "橈",
    "index": 4440
  },
  {
    "phonetic": "cao, khiêu, kiếu, kiểu",
    "means": ["cái cầu"],
    "summary": "",
    "name": "kiều",
    "character": "橋",
    "index": 4441
  },
  {
    "phonetic": "",
    "means": ["cái túi không có đáy", "đồ rèn đúc"],
    "summary": "",
    "name": "thác",
    "character": "橐",
    "index": 4442
  },
  {
    "phonetic": "",
    "means": ["cây quít, cây quất"],
    "summary": "",
    "name": "quất",
    "character": "橘",
    "index": 4443
  },
  {
    "phonetic": "chanh, sập, đắng",
    "means": ["cây chanh", "cái ghế, cái sập"],
    "summary": "",
    "name": "tranh",
    "character": "橙",
    "index": 4444
  },
  {
    "phonetic": "",
    "means": ["cái cọc buộc giữ súc vật", "cái hàm thiết ngựa", "chặt cây"],
    "summary": "",
    "name": "quyết",
    "character": "橛",
    "index": 4445
  },
  {
    "phonetic": "ki, ky",
    "means": ["công việc", "máy móc"],
    "summary": "",
    "name": "cơ",
    "character": "機",
    "index": 4446
  },
  {
    "phonetic": "",
    "means": ["cây hạt dẻ", "cây cao su", "cây sồi"],
    "summary": "",
    "name": "tượng",
    "character": "橡",
    "index": 4447
  },
  {
    "phonetic": "đoạ",
    "means": ["dài nhọn, hình bầu dục, hình êlíp"],
    "summary": "",
    "name": "thoả",
    "character": "橢",
    "index": 4448
  },
  {
    "phonetic": "",
    "summary": "",
    "name": "trư",
    "character": "橥",
    "index": 4449
  },
  {
    "phonetic": "hoạnh, quáng",
    "means": ["ngang"],
    "summary": "",
    "name": "hoành",
    "character": "橫",
    "index": 4450
  },
  {
    "phonetic": "",
    "means": ["cái tủ, cái rương"],
    "summary": "",
    "name": "trù",
    "character": "橱",
    "index": 4451
  },
  {
    "summary": "",
    "character": "橹",
    "traditionalCharacter": "櫓",
    "phonetic": "",
    "means": ["cái mộc lớn", "cái mái chèo"],
    "name": "lỗ",
    "index": 4452
  },
  {
    "summary": "",
    "character": "橼",
    "traditionalCharacter": "櫞",
    "phonetic": "",
    "means": ["(xem: cẩu duyên 枸櫞,枸橼)"],
    "name": "duyên",
    "index": 4453
  },
  {
    "phonetic": "",
    "summary": "",
    "name": "táo",
    "character": "橾",
    "index": 4454
  },
  {
    "phonetic": "",
    "means": ["cây đàn"],
    "summary": "",
    "name": "đàn",
    "character": "檀",
    "index": 4455
  },
  {
    "phonetic": "",
    "summary": "",
    "name": "ổn",
    "character": "檃",
    "index": 4456
  },
  {
    "phonetic": "",
    "means": ["chiếu hịch, lời kêu gọi dân chúng"],
    "summary": "",
    "name": "hịch",
    "character": "檄",
    "index": 4457
  },
  {
    "phonetic": "",
    "means": ["cây làm cầm (một thứ cây ăn quả)"],
    "summary": "",
    "name": "cầm",
    "character": "檎",
    "index": 4458
  },
  {
    "phonetic": "thiềm",
    "means": ["mái hiên, mái nhà", "vành mũ, diềm mũ"],
    "summary": "",
    "name": "diêm",
    "character": "檐",
    "index": 4459
  },
  {
    "phonetic": "",
    "means": [
      "khúc gỗ lớn để thủ thành (cho lăn vào địch từ từ trên cao xuống)"
    ],
    "summary": "",
    "name": "lôi",
    "character": "檑",
    "index": 4460
  },
  {
    "phonetic": "đương",
    "means": [
      "tấm phản",
      "bản bằng gỗ mỏng để viết văn tự vào",
      "tệp, file (tin học)"
    ],
    "summary": "",
    "name": "đáng",
    "character": "檔",
    "index": 4461
  },
  {
    "phonetic": "bách, nghiệt",
    "means": [
      "cây hoàng phách (loài cây cao rụng lá, cành có thể làm thuốc nhuộm vàng, vỏ cây làm thuốc)"
    ],
    "summary": "",
    "name": "phách",
    "character": "檗",
    "index": 4462
  },
  {
    "phonetic": "",
    "means": ["cây cối (một loài thông)", "nước cối"],
    "summary": "",
    "name": "cối",
    "character": "檜",
    "index": 4463
  },
  {
    "phonetic": "kình, kính",
    "means": ["đồ nắn cung", "đế đèn, chân đèn"],
    "summary": "",
    "name": "kềnh",
    "character": "檠",
    "index": 4464
  },
  {
    "phonetic": "",
    "means": ["kiểm tra"],
    "summary": "",
    "name": "kiểm",
    "character": "檢",
    "index": 4465
  },
  {
    "phonetic": "",
    "means": ["đòn tay, xà ngang bắc trên đầu cột để gác rui"],
    "summary": "",
    "name": "lẫm",
    "character": "檩",
    "index": 4466
  },
  {
    "phonetic": "",
    "means": ["(xem: nịnh mông)"],
    "summary": "",
    "name": "mông",
    "character": "檬",
    "index": 4468
  },
  {
    "phonetic": "",
    "means": ["ngu dốt, ngơ ngẩn"],
    "summary": "",
    "name": "đào",
    "character": "檮",
    "index": 4469
  },
  {
    "phonetic": "di, thai",
    "means": ["cái bàn"],
    "summary": "",
    "name": "đài",
    "character": "檯",
    "index": 4470
  },
  {
    "phonetic": "",
    "means": ["cây cau"],
    "summary": "",
    "name": "tân",
    "character": "檳",
    "index": 4471
  },
  {
    "phonetic": "ninh",
    "means": ["(xem: nịnh mông 檸檬,柠檬)"],
    "summary": "",
    "name": "nịnh",
    "character": "檸",
    "index": 4473
  },
  {
    "phonetic": "",
    "means": ["hiên nhà"],
    "summary": "",
    "name": "hạm",
    "character": "檻",
    "index": 4474
  },
  {
    "phonetic": "cử",
    "means": ["cái hòm, cái rương"],
    "summary": "",
    "name": "quỹ",
    "character": "櫃",
    "index": 4475
  },
  {
    "phonetic": "",
    "summary": "",
    "name": "khôi",
    "character": "櫆",
    "index": 4476
  },
  {
    "phonetic": "",
    "means": ["cái mộc lớn", "cái mái chèo"],
    "summary": "",
    "name": "lỗ",
    "character": "櫓",
    "index": 4477
  },
  {
    "phonetic": "lữ",
    "means": ["cây lư, cây gỗ gụ"],
    "summary": "",
    "name": "lư",
    "character": "櫚",
    "index": 4478
  },
  {
    "phonetic": "",
    "means": ["cái lược", "chải tóc"],
    "summary": "",
    "name": "trất",
    "character": "櫛",
    "index": 4479
  },
  {
    "phonetic": "",
    "means": ["(xem: cẩu duyên 枸櫞,枸橼)"],
    "summary": "",
    "name": "duyên",
    "character": "櫞",
    "index": 4480
  },
  {
    "phonetic": "dược, lao",
    "means": ["cây lịch, cây sồi", "nạo, cạo"],
    "summary": "",
    "name": "lịch",
    "character": "櫟",
    "index": 4481
  },
  {
    "phonetic": "",
    "means": ["cái tủ, cái rương"],
    "summary": "",
    "name": "trù",
    "character": "櫥",
    "index": 4482
  },
  {
    "phonetic": "",
    "means": ["ổn định"],
    "summary": "",
    "name": "lịch",
    "character": "櫪",
    "index": 4483
  },
  {
    "phonetic": "",
    "means": ["cái cọc buộc giữ súc vật"],
    "summary": "",
    "name": "trư",
    "character": "櫫",
    "index": 4484
  },
  {
    "phonetic": "",
    "means": ["chồi cây đâm lên sau khi đã chặt cây mẹ"],
    "summary": "",
    "name": "nghiệt",
    "character": "櫱",
    "index": 4485
  },
  {
    "phonetic": "",
    "means": ["cây cử, cây sồi"],
    "summary": "",
    "name": "cử",
    "character": "櫸",
    "index": 4486
  },
  {
    "phonetic": "",
    "means": ["(xem: anh đào 櫻桃,樱桃)"],
    "summary": "",
    "name": "anh",
    "character": "櫻",
    "index": 4487
  },
  {
    "phonetic": "",
    "means": ["lan can"],
    "summary": "",
    "name": "lan",
    "character": "欄",
    "index": 4488
  },
  {
    "phonetic": "",
    "means": ["quả cân", "quyền lợi"],
    "summary": "",
    "name": "quyền",
    "character": "權",
    "index": 4489
  },
  {
    "phonetic": "",
    "means": ["cây loan", "tròn xoe", "hai góc miệng chuông"],
    "summary": "",
    "name": "loan",
    "character": "欒",
    "index": 4490
  },
  {
    "phonetic": "",
    "means": ["(xem: cảm lãm 橄欖,橄榄)"],
    "summary": "",
    "name": "lãm",
    "character": "欖",
    "index": 4491
  },
  {
    "phonetic": "",
    "means": ["chấn song cửa sổ"],
    "summary": "",
    "name": "linh",
    "character": "欞",
    "index": 4492
  },
  {
    "phonetic": "",
    "means": ["thiếu thốn, nợ", "ngáp"],
    "summary": "",
    "name": "khiếm",
    "character": "欠",
    "index": 4493
  },
  {
    "phonetic": "tư",
    "means": ["sau (không phải đầu tiên), tiếp theo", "thứ bậc, lần, lượt"],
    "summary": "",
    "name": "thứ",
    "character": "次",
    "index": 4494
  },
  {
    "summary": "",
    "character": "欢",
    "traditionalCharacter": "歡",
    "phonetic": "",
    "means": ["vui vẻ, mừng"],
    "name": "hoan",
    "index": 4495
  },
  {
    "phonetic": "",
    "means": ["sung sướng, mừng, vui vẻ"],
    "summary": "",
    "name": "hân",
    "character": "欣",
    "index": 4496
  },
  {
    "summary": "",
    "character": "欤",
    "traditionalCharacter": "歟",
    "phonetic": "",
    "means": ["vậy ư (câu hỏi)"],
    "name": "dư",
    "index": 4497
  },
  {
    "summary": "",
    "character": "欧",
    "traditionalCharacter": "歐",
    "phonetic": "ẩu",
    "means": ["châu Âu"],
    "name": "âu",
    "index": 4498
  },
  {
    "phonetic": "",
    "means": ["ham muốn"],
    "summary": "",
    "name": "dục",
    "character": "欲",
    "index": 4500
  },
  {
    "phonetic": "",
    "means": ["mút, hút"],
    "summary": "",
    "name": "sóc",
    "character": "欶",
    "index": 4501
  },
  {
    "phonetic": "hi",
    "means": ["khóc sụt sùi"],
    "summary": "",
    "name": "hy",
    "character": "欷",
    "index": 4502
  },
  {
    "phonetic": "ái, ải",
    "means": ["ôi, chao ôi"],
    "summary": "",
    "name": "ai",
    "character": "欸",
    "index": 4503
  },
  {
    "phonetic": "khi",
    "means": [
      "khen ngợi, ca ngợi",
      "xanh tốt",
      "dài",
      "vậy, thế",
      "nương, dựa vào"
    ],
    "summary": "",
    "name": "y",
    "character": "欹",
    "index": 4504
  },
  {
    "phonetic": "",
    "means": ["lừa dối", "bắt nạt, ức hiếp"],
    "summary": "",
    "name": "khi",
    "character": "欺",
    "index": 4505
  },
  {
    "phonetic": "huất",
    "means": ["bỗng nhiên, bất chợt"],
    "summary": "",
    "name": "hốt",
    "character": "欻",
    "index": 4506
  },
  {
    "phonetic": "khấm",
    "means": ["của vua, thuộc về vua"],
    "summary": "",
    "name": "khâm",
    "character": "欽",
    "index": 4507
  },
  {
    "phonetic": "",
    "means": ["thành thực", "thết đãi, đón tiếp", "khoản mục"],
    "summary": "",
    "name": "khoản",
    "character": "款",
    "index": 4508
  },
  {
    "phonetic": "",
    "means": ["cái hố"],
    "summary": "",
    "name": "khảm",
    "character": "欿",
    "index": 4509
  },
  {
    "phonetic": "",
    "means": ["uống, nuốt"],
    "summary": "",
    "name": "sáp",
    "character": "歃",
    "index": 4510
  },
  {
    "phonetic": "",
    "means": ["hâm mộ, rung động"],
    "summary": "",
    "name": "hâm",
    "character": "歆",
    "index": 4511
  },
  {
    "phonetic": "tiết, yết",
    "means": ["nghỉ, thôi, hết", "tiết ra, tháo tha, nhả ra"],
    "summary": "",
    "name": "hiết",
    "character": "歇",
    "index": 4512
  },
  {
    "phonetic": "",
    "means": ["đói, kém, thiếu"],
    "summary": "",
    "name": "khiểm",
    "character": "歉",
    "index": 4513
  },
  {
    "phonetic": "",
    "means": ["hát", "bài hát, khúc ca"],
    "summary": "",
    "name": "ca",
    "character": "歌",
    "index": 4514
  },
  {
    "phonetic": "",
    "means": ["kêu, than thở", "tấm tắc khen", "ngân dài giọng"],
    "summary": "",
    "name": "thán",
    "character": "歎",
    "index": 4515
  },
  {
    "phonetic": "ẩu",
    "means": ["châu Âu"],
    "summary": "",
    "name": "âu",
    "character": "歐",
    "index": 4516
  },
  {
    "phonetic": "",
    "means": ["sùi sụt, khụt khịt"],
    "summary": "",
    "name": "hư",
    "character": "歔",
    "index": 4517
  },
  {
    "phonetic": "thiệp",
    "means": ["hấp thụ", "hút vào"],
    "summary": "",
    "name": "hấp",
    "character": "歙",
    "index": 4518
  },
  {
    "phonetic": "",
    "means": ["thu góp lại", "vén lên"],
    "summary": "",
    "name": "liễm",
    "character": "歛",
    "index": 4519
  },
  {
    "phonetic": "",
    "means": ["vui vẻ, mừng"],
    "summary": "",
    "name": "hoan",
    "character": "歡",
    "index": 4520
  },
  {
    "phonetic": "chỉ",
    "means": ["dừng lại, thôi"],
    "summary": "",
    "name": "chi",
    "character": "止",
    "index": 4521
  },
  {
    "phonetic": "chinh, chính",
    "means": ["giữa", "chính, ngay thẳng"],
    "summary": "",
    "name": "chánh",
    "character": "正",
    "index": 4522
  },
  {
    "phonetic": "",
    "means": ["này, bên này"],
    "summary": "",
    "name": "thử",
    "character": "此",
    "index": 4523
  },
  {
    "phonetic": "",
    "means": ["đi chân", "bước"],
    "summary": "",
    "name": "bộ",
    "character": "步",
    "index": 4524
  },
  {
    "phonetic": "vũ",
    "means": ["võ thuật", "quân sự"],
    "summary": "",
    "name": "võ",
    "character": "武",
    "index": 4525
  },
  {
    "phonetic": "kì",
    "means": ["kỳ", "đường rẽ"],
    "summary": "",
    "name": "kỳ",
    "character": "歧",
    "index": 4526
  },
  {
    "phonetic": "oai",
    "means": ["méo, lệch"],
    "summary": "",
    "name": "oa",
    "character": "歪",
    "index": 4528
  },
  {
    "phonetic": "",
    "means": ["rít, ráp, sáp, không trơn tru", "chát sít"],
    "summary": "",
    "name": "sáp",
    "character": "歰",
    "index": 4529
  },
  {
    "phonetic": "",
    "means": ["năm", "tuổi"],
    "summary": "",
    "name": "tuế",
    "character": "歲",
    "index": 4530
  },
  {
    "phonetic": "",
    "means": ["trải qua, vượt qua", "lịch (như: lịch 曆)"],
    "summary": "",
    "name": "lịch",
    "character": "歷",
    "index": 4531
  },
  {
    "phonetic": "quý",
    "means": ["trở về"],
    "summary": "",
    "name": "quy",
    "character": "歸",
    "index": 4532
  },
  {
    "phonetic": "đãi",
    "means": ["xương tàn"],
    "summary": "",
    "name": "ngạt",
    "character": "歹",
    "index": 4533
  },
  {
    "phonetic": "",
    "summary": "",
    "name": "ngạt",
    "character": "歺",
    "index": 4534
  },
  {
    "phonetic": "",
    "means": ["chết"],
    "summary": "",
    "name": "tử",
    "character": "死",
    "index": 4535
  },
  {
    "summary": "",
    "character": "歼",
    "traditionalCharacter": "殲",
    "phonetic": "",
    "means": ["giết hết, tiêu diệt"],
    "name": "tiêm",
    "index": 4536
  },
  {
    "phonetic": "",
    "summary": "",
    "name": "một",
    "character": "殁",
    "index": 4537
  },
  {
    "phonetic": "",
    "means": ["phách, vía"],
    "summary": "",
    "name": "tồ",
    "character": "殂",
    "index": 4538
  },
  {
    "phonetic": "",
    "means": ["sự rủi ro, tai vạ"],
    "summary": "",
    "name": "ương",
    "character": "殃",
    "index": 4539
  },
  {
    "phonetic": "điển",
    "means": ["hết, đứt"],
    "summary": "",
    "name": "điễn",
    "character": "殄",
    "index": 4540
  },
  {
    "phonetic": "",
    "means": ["nguy khốn", "mỏi mệt"],
    "summary": "",
    "name": "đãi",
    "character": "殆",
    "index": 4541
  },
  {
    "summary": "",
    "character": "殇",
    "traditionalCharacter": "殤",
    "phonetic": "",
    "means": ["chết non"],
    "name": "thương",
    "index": 4542
  },
  {
    "phonetic": "tuận",
    "means": ["chết theo người khác"],
    "summary": "",
    "name": "tuẫn",
    "character": "殉",
    "index": 4543
  },
  {
    "phonetic": "",
    "means": ["chấm dứt, xong hết", "khác biệt", "rất, lắm"],
    "summary": "",
    "name": "thù",
    "character": "殊",
    "index": 4544
  },
  {
    "summary": "",
    "character": "残",
    "traditionalCharacter": "殘",
    "phonetic": "",
    "means": ["thiếu", "tàn, còn sót lại"],
    "name": "tàn",
    "index": 4545
  },
  {
    "phonetic": "biểu",
    "means": ["chết đói"],
    "summary": "",
    "name": "biễu",
    "character": "殍",
    "index": 4546
  },
  {
    "summary": "",
    "character": "殒",
    "traditionalCharacter": "殞",
    "phonetic": "",
    "means": ["mất", "rụng"],
    "name": "vẫn",
    "index": 4547
  },
  {
    "summary": "",
    "character": "殓",
    "traditionalCharacter": "殮",
    "phonetic": "liệm",
    "means": ["liệm xác"],
    "name": "liễm",
    "index": 4548
  },
  {
    "phonetic": "sự",
    "means": ["sinh sôi, nảy nở", "nhiều, đông"],
    "summary": "",
    "name": "thực",
    "character": "殖",
    "index": 4549
  },
  {
    "phonetic": "yếp, yểm",
    "summary": "",
    "name": "yêm",
    "character": "殗",
    "index": 4550
  },
  {
    "phonetic": "",
    "means": ["thiếu", "tàn, còn sót lại"],
    "summary": "",
    "name": "tàn",
    "character": "殘",
    "index": 4551
  },
  {
    "summary": "",
    "character": "殚",
    "traditionalCharacter": "殫",
    "phonetic": "đạn",
    "means": ["hết, làm hết, cạn kiệt"],
    "name": "đàn",
    "index": 4552
  },
  {
    "phonetic": "",
    "means": ["giết tróc", "án tử hình, xử tử"],
    "summary": "",
    "name": "cức",
    "character": "殛",
    "index": 4553
  },
  {
    "phonetic": "",
    "means": ["mất", "rụng"],
    "summary": "",
    "name": "vẫn",
    "character": "殞",
    "index": 4554
  },
  {
    "summary": "",
    "character": "殡",
    "traditionalCharacter": "殯",
    "phonetic": "thấn, tẫn",
    "means": ["yên cữu (xác chết nhập quan chưa chôn)", "vùi lấp"],
    "name": "tấn",
    "index": 4555
  },
  {
    "phonetic": "",
    "means": ["chết non"],
    "summary": "",
    "name": "thương",
    "character": "殤",
    "index": 4556
  },
  {
    "phonetic": "",
    "means": ["chết, giết"],
    "summary": "",
    "name": "ế",
    "character": "殪",
    "index": 4557
  },
  {
    "phonetic": "đạn",
    "means": ["hết, làm hết, cạn kiệt"],
    "summary": "",
    "name": "đàn",
    "character": "殫",
    "index": 4558
  },
  {
    "phonetic": "thương",
    "means": ["chết khô, chết cứng"],
    "summary": "",
    "name": "cương",
    "character": "殭",
    "index": 4559
  },
  {
    "phonetic": "liệm",
    "means": ["liệm xác"],
    "summary": "",
    "name": "liễm",
    "character": "殮",
    "index": 4560
  },
  {
    "phonetic": "thấn, tẫn",
    "means": ["yên cữu (xác chết nhập quan chưa chôn)", "vùi lấp"],
    "summary": "",
    "name": "tấn",
    "character": "殯",
    "index": 4561
  },
  {
    "phonetic": "",
    "means": ["giết hết, tiêu diệt"],
    "summary": "",
    "name": "tiêm",
    "character": "殲",
    "index": 4562
  },
  {
    "phonetic": "",
    "means": ["thù (binh khí)"],
    "summary": "",
    "name": "thù",
    "character": "殳",
    "index": 4563
  },
  {
    "summary": "",
    "character": "殴",
    "traditionalCharacter": "毆",
    "phonetic": "ấu",
    "means": ["đánh nhau bằng gậy"],
    "name": "ẩu",
    "index": 4564
  },
  {
    "phonetic": "đoán, đoạn",
    "means": ["đoạn, khúc", "quãng, khoảng", "họ Đoàn (âm Đoàn)"],
    "summary": "",
    "name": "đoàn",
    "character": "段",
    "index": 4565
  },
  {
    "phonetic": "an, yên, ẩn",
    "means": ["thịnh, đầy đủ", "đời nhà Ân (Trung Quốc)"],
    "summary": "",
    "name": "ân",
    "character": "殷",
    "index": 4566
  },
  {
    "phonetic": "",
    "summary": "",
    "name": "thanh",
    "character": "殸",
    "index": 4567
  },
  {
    "phonetic": "ế",
    "summary": "",
    "name": "ê",
    "character": "殹",
    "index": 4568
  },
  {
    "phonetic": "sái, tát, ái",
    "means": ["giết chết"],
    "summary": "",
    "name": "sát",
    "character": "殺",
    "index": 4569
  },
  {
    "phonetic": "",
    "means": ["vỏ cứng"],
    "summary": "",
    "name": "xác",
    "character": "殼",
    "index": 4570
  },
  {
    "phonetic": "hiệu, hạo",
    "means": ["lẫn lộn", "thịt thái lẫn cả xương"],
    "summary": "",
    "name": "hào",
    "character": "殽",
    "index": 4571
  },
  {
    "phonetic": "điến, đán",
    "means": ["cung điện"],
    "summary": "",
    "name": "điện",
    "character": "殿",
    "index": 4572
  },
  {
    "phonetic": "",
    "means": ["huỷ hoại, nát", "chê, diễu, mỉa mai"],
    "summary": "",
    "name": "huỷ",
    "character": "毀",
    "index": 4573
  },
  {
    "summary": "",
    "character": "毁",
    "traditionalCharacter": "毀",
    "phonetic": "",
    "means": ["dùng lửa để thiêu bỏ"],
    "name": "huỷ",
    "index": 4574
  },
  {
    "summary": "",
    "character": "毂",
    "traditionalCharacter": "轂",
    "phonetic": "",
    "means": ["bầu xe (chỗ tụ hợp các nan hoa)", "tụ họp đông"],
    "name": "cốc",
    "index": 4575
  },
  {
    "phonetic": "",
    "summary": "",
    "name": "kích",
    "character": "毄",
    "index": 4576
  },
  {
    "phonetic": "",
    "means": ["quả quyết, cứng cỏi"],
    "summary": "",
    "name": "nghị",
    "character": "毅",
    "index": 4577
  },
  {
    "phonetic": "khu, ấu",
    "means": ["đánh nhau bằng gậy"],
    "summary": "",
    "name": "ẩu",
    "character": "毆",
    "index": 4578
  },
  {
    "phonetic": "mưu",
    "means": ["chớ, đừng"],
    "summary": "",
    "name": "vô",
    "character": "毋",
    "index": 4579
  },
  {
    "phonetic": "",
    "means": ["xâu thành chuỗi"],
    "summary": "",
    "name": "quán",
    "character": "毌",
    "index": 4580
  },
  {
    "phonetic": "mô",
    "means": ["mẹ", "con cái, giống cái"],
    "summary": "",
    "name": "mẫu",
    "character": "母",
    "index": 4581
  },
  {
    "phonetic": "mai, môi",
    "means": ["mỗi một"],
    "summary": "",
    "name": "mỗi",
    "character": "每",
    "index": 4582
  },
  {
    "phonetic": "đại, đốc",
    "means": ["độc hại"],
    "summary": "",
    "name": "độc",
    "character": "毒",
    "index": 4583
  },
  {
    "phonetic": "",
    "means": ["nuôi nấng"],
    "summary": "",
    "name": "dục",
    "character": "毓",
    "index": 4584
  },
  {
    "phonetic": "bì, bí, tỉ, tỵ, tỷ",
    "means": [
      "so sánh, đọ, bì",
      "thi đua",
      "ngang bằng, như",
      "trội hơn",
      "tỉ số, tỷ lệ"
    ],
    "summary": "",
    "name": "bỉ",
    "character": "比",
    "index": 4585
  },
  {
    "summary": "",
    "character": "毕",
    "traditionalCharacter": "畢",
    "phonetic": "",
    "means": ["xong, hết"],
    "name": "tất",
    "index": 4586
  },
  {
    "phonetic": "",
    "means": ["cẩn thận", "nặng nhọc"],
    "summary": "",
    "name": "bí",
    "character": "毖",
    "index": 4587
  },
  {
    "phonetic": "tì, tỳ",
    "means": ["giúp đỡ"],
    "summary": "",
    "name": "bì",
    "character": "毗",
    "index": 4588
  },
  {
    "summary": "",
    "character": "毙",
    "traditionalCharacter": "斃",
    "phonetic": "tệ",
    "means": ["ngã sấp, chết giữa đường", "xử bắn, bắn chết"],
    "name": "tễ",
    "index": 4589
  },
  {
    "phonetic": "",
    "means": ["tinh khôn, giảo hoạt"],
    "summary": "",
    "name": "sàm",
    "character": "毚",
    "index": 4590
  },
  {
    "phonetic": "mô",
    "means": ["sợi lông"],
    "summary": "",
    "name": "mao",
    "character": "毛",
    "index": 4591
  },
  {
    "phonetic": "",
    "means": ["mền, chăn, giạ"],
    "summary": "",
    "name": "chiên",
    "character": "毡",
    "index": 4592
  },
  {
    "phonetic": "",
    "means": ["sợi lông", "một chút", "hào (1/10 đồng)"],
    "summary": "",
    "name": "hào",
    "character": "毫",
    "index": 4594
  },
  {
    "phonetic": "",
    "means": ["cái đệm lông"],
    "summary": "",
    "name": "thảm",
    "character": "毯",
    "index": 4595
  },
  {
    "phonetic": "thuý",
    "means": ["lông mao"],
    "summary": "",
    "name": "thuế",
    "character": "毳",
    "index": 4596
  },
  {
    "summary": "",
    "character": "毵",
    "traditionalCharacter": "毿",
    "phonetic": "",
    "means": ["lông dài"],
    "name": "tam",
    "index": 4597
  },
  {
    "phonetic": "su",
    "means": ["thảm trải sàn", "chăn, mền"],
    "summary": "",
    "name": "du",
    "character": "毹",
    "index": 4598
  },
  {
    "phonetic": "kiện",
    "means": ["quả cầu"],
    "summary": "",
    "name": "kiến",
    "character": "毽",
    "index": 4599
  },
  {
    "phonetic": "li, mao",
    "means": ["(xem: mao ngưu 犛牛,牦牛)", "đuôi ngựa", "lông dài"],
    "summary": "",
    "name": "ly",
    "character": "氂",
    "index": 4600
  },
  {
    "phonetic": "xưởng",
    "means": ["chắp lông cừu làm áo"],
    "summary": "",
    "name": "sưởng",
    "character": "氅",
    "index": 4601
  },
  {
    "phonetic": "bảng",
    "means": ["(xem: phổ lỗ 氆氌,氆氇)"],
    "summary": "",
    "name": "phổ",
    "character": "氆",
    "index": 4602
  },
  {
    "phonetic": "",
    "means": ["(xem: phổ lỗ 氆氌,氆氇)"],
    "summary": "",
    "name": "lỗ",
    "character": "氇",
    "index": 4603
  },
  {
    "phonetic": "",
    "means": ["mền, chăn, giạ"],
    "summary": "",
    "name": "chiên",
    "character": "氈",
    "index": 4604
  },
  {
    "phonetic": "",
    "means": ["đệm bằng lông"],
    "summary": "",
    "name": "cù",
    "character": "氍",
    "index": 4605
  },
  {
    "phonetic": "chi",
    "means": ["họ"],
    "summary": "",
    "name": "thị",
    "character": "氏",
    "index": 4606
  },
  {
    "phonetic": "chi, để",
    "means": ["nền, gốc", "sao Đê (một trong Nhị thập bát tú)"],
    "summary": "",
    "name": "đê",
    "character": "氐",
    "index": 4607
  },
  {
    "phonetic": "miên",
    "means": ["người dân, người, dân"],
    "summary": "",
    "name": "dân",
    "character": "民",
    "index": 4608
  },
  {
    "phonetic": "",
    "means": ["dân thường"],
    "summary": "",
    "name": "manh",
    "character": "氓",
    "index": 4609
  },
  {
    "summary": "",
    "character": "气",
    "traditionalCharacter": "氣",
    "phonetic": "khất",
    "means": ["khí, hơi"],
    "name": "khí",
    "index": 4610
  },
  {
    "phonetic": "",
    "means": ["Proti, Pr"],
    "summary": "",
    "name": "phân",
    "character": "氕",
    "index": 4611
  },
  {
    "phonetic": "",
    "means": ["nguyên tố neon, khí neon, Ne"],
    "summary": "",
    "name": "nãi",
    "character": "氖",
    "index": 4612
  },
  {
    "phonetic": "",
    "means": ["đồng vị đơtri (D) của hydro (H)"],
    "summary": "",
    "name": "đao",
    "character": "氘",
    "index": 4613
  },
  {
    "phonetic": "",
    "means": ["nguyên tố xenon, khí xenon, Xe"],
    "summary": "",
    "name": "tiên",
    "character": "氙",
    "index": 4614
  },
  {
    "phonetic": "",
    "means": ["đồng vị trity (T) của hydro (H)"],
    "summary": "",
    "name": "xuyên",
    "character": "氚",
    "index": 4615
  },
  {
    "phonetic": "",
    "means": ["khí, hơi"],
    "summary": "",
    "name": "phân",
    "character": "氛",
    "index": 4616
  },
  {
    "phonetic": "",
    "summary": "",
    "name": "dương",
    "character": "氜",
    "index": 4617
  },
  {
    "phonetic": "",
    "means": ["nguyên tố flo, khí flo, F"],
    "summary": "",
    "name": "phất",
    "character": "氟",
    "index": 4618
  },
  {
    "phonetic": "",
    "means": ["nguyên tố radon, Rn"],
    "summary": "",
    "name": "đông",
    "character": "氡",
    "index": 4619
  },
  {
    "phonetic": "",
    "means": ["khinh khí, khí hidro"],
    "summary": "",
    "name": "khinh",
    "character": "氢",
    "index": 4620
  },
  {
    "phonetic": "khất",
    "means": ["khí, hơi"],
    "summary": "",
    "name": "khí",
    "character": "氣",
    "index": 4621
  },
  {
    "phonetic": "",
    "means": ["ma lực"],
    "summary": "",
    "name": "nhân",
    "character": "氤",
    "index": 4622
  },
  {
    "phonetic": "",
    "means": ["nguyên tố hêli, khí hêli, He"],
    "summary": "",
    "name": "hợi",
    "character": "氦",
    "index": 4623
  },
  {
    "phonetic": "",
    "means": ["dưỡng khí, khí ôxy"],
    "summary": "",
    "name": "dưỡng",
    "character": "氧",
    "index": 4624
  },
  {
    "phonetic": "",
    "means": ["khí amôniac (công thức hoá học: NH3)"],
    "summary": "",
    "name": "an",
    "character": "氨",
    "index": 4625
  },
  {
    "phonetic": "",
    "means": ["nguyên tố Argon (hoá học)"],
    "summary": "",
    "name": "á",
    "character": "氩",
    "index": 4626
  },
  {
    "phonetic": "",
    "means": ["nguyên tố krypton, Kr"],
    "summary": "",
    "name": "khắc",
    "character": "氪",
    "index": 4627
  },
  {
    "phonetic": "",
    "means": ["khinh khí, khí hidro"],
    "summary": "",
    "name": "khinh",
    "character": "氫",
    "index": 4628
  },
  {
    "phonetic": "",
    "means": ["chất đạm, khí đạm, nitơ, nitrogen"],
    "summary": "",
    "name": "đạm",
    "character": "氮",
    "index": 4629
  },
  {
    "phonetic": "",
    "means": ["nguyên tố clo (ký hiệu: Cl)"],
    "summary": "",
    "name": "lục",
    "character": "氯",
    "index": 4630
  },
  {
    "phonetic": "",
    "means": ["chất xyanogen (công thức hoá học: CN2)"],
    "summary": "",
    "name": "tình",
    "character": "氰",
    "index": 4631
  },
  {
    "summary": "",
    "character": "氲",
    "traditionalCharacter": "氳",
    "phonetic": "",
    "means": ["khí nặng"],
    "name": "uân",
    "index": 4632
  },
  {
    "phonetic": "",
    "means": ["khí nặng"],
    "summary": "",
    "name": "uân",
    "character": "氳",
    "index": 4633
  },
  {
    "phonetic": "",
    "means": ["nước", "sao Thuỷ"],
    "summary": "",
    "name": "thuỷ",
    "character": "水",
    "index": 4634
  },
  {
    "phonetic": "",
    "means": ["bộ thuỷ"],
    "summary": "",
    "name": "thuỷ",
    "character": "氵",
    "index": 4635
  },
  {
    "phonetic": "vịnh",
    "means": ["lâu dài"],
    "summary": "",
    "name": "vĩnh",
    "character": "永",
    "index": 4637
  },
  {
    "phonetic": "",
    "summary": "",
    "name": "đãng",
    "character": "氹",
    "index": 4638
  },
  {
    "phonetic": "",
    "means": ["bộ thuỷ"],
    "summary": "",
    "name": "thuỷ",
    "character": "氺",
    "index": 4639
  },
  {
    "phonetic": "thận, thộn",
    "summary": "",
    "name": "thoản",
    "character": "氽",
    "index": 4640
  },
  {
    "phonetic": "",
    "means": ["giàn giụa, mênh mông"],
    "summary": "",
    "name": "phiếm",
    "character": "氾",
    "index": 4641
  },
  {
    "phonetic": "quỹ",
    "summary": "",
    "name": "cửu",
    "character": "氿",
    "index": 4642
  },
  {
    "phonetic": "",
    "means": ["bãi sông", "châu Đinh (Trung Quốc)"],
    "summary": "",
    "name": "đinh",
    "character": "汀",
    "index": 4643
  },
  {
    "phonetic": "chấp, trấp",
    "means": ["hoà hợp", "giúp đỡ"],
    "summary": "",
    "name": "hiệp",
    "character": "汁",
    "index": 4644
  },
  {
    "phonetic": "",
    "means": ["cầu xin"],
    "summary": "",
    "name": "cầu",
    "character": "求",
    "index": 4645
  },
  {
    "phonetic": "thoản, tù",
    "means": ["xốii đi, nước cuốn đi"],
    "summary": "",
    "name": "thộn",
    "character": "汆",
    "index": 4646
  },
  {
    "summary": "",
    "character": "汇",
    "traditionalCharacter": "彙",
    "phonetic": "hối, hội, vựng",
    "means": ["loài, loại", "phân loại", "tập hợp, thu thập"],
    "name": "vị",
    "index": 4647
  },
  {
    "summary": "",
    "character": "汉",
    "traditionalCharacter": "漢",
    "phonetic": "",
    "means": [
      "đời nhà Hán",
      "sông Hán",
      "sông Ngân Hà",
      "người Trung Quốc nói chung"
    ],
    "name": "hán",
    "index": 4648
  },
  {
    "phonetic": "sá",
    "means": ["dòng nhánh, dòng nước chảy rẽ"],
    "summary": "",
    "name": "xá",
    "character": "汊",
    "index": 4649
  },
  {
    "phonetic": "",
    "means": ["nước thuỷ triều buổi tối"],
    "summary": "",
    "name": "tịch",
    "character": "汐",
    "index": 4650
  },
  {
    "phonetic": "",
    "means": ["mênh mang, xa vời", "không biết gì"],
    "summary": "",
    "name": "mang",
    "character": "汒",
    "index": 4651
  },
  {
    "phonetic": "khất",
    "means": [
      "gần, gần như, hầu như",
      "nước cạn",
      "tận, hết",
      "đến, cuối cùng, sau cùng"
    ],
    "summary": "",
    "name": "ngật",
    "character": "汔",
    "index": 4652
  },
  {
    "phonetic": "san",
    "means": ["cái sán"],
    "summary": "",
    "name": "sán",
    "character": "汕",
    "index": 4653
  },
  {
    "phonetic": "hàn, hạn",
    "means": ["mồ hôi"],
    "summary": "",
    "name": "hãn",
    "character": "汗",
    "index": 4654
  },
  {
    "phonetic": "",
    "means": ["nước tràn", "vẩy nước, té nước"],
    "summary": "",
    "name": "tấn",
    "character": "汛",
    "index": 4655
  },
  {
    "phonetic": "tỉ, tỷ",
    "means": ["dòng nước đã rẽ ngang lại chảy về chỗ cũ", "sông Tỷ"],
    "summary": "",
    "name": "dĩ",
    "character": "汜",
    "index": 4656
  },
  {
    "phonetic": "",
    "means": ["mày (đại từ nhân xưng ngôi thứ hai)", "sông Nhữ"],
    "summary": "",
    "name": "nhữ",
    "character": "汝",
    "index": 4657
  },
  {
    "phonetic": "hống",
    "means": ["thuỷ ngân"],
    "summary": "",
    "name": "cống",
    "character": "汞",
    "index": 4658
  },
  {
    "phonetic": "",
    "means": ["sông lớn"],
    "summary": "",
    "name": "giang",
    "character": "江",
    "index": 4659
  },
  {
    "phonetic": "",
    "means": ["cái ao"],
    "summary": "",
    "name": "trì",
    "character": "池",
    "index": 4660
  },
  {
    "phonetic": "ố",
    "means": ["bẩn thỉu"],
    "summary": "",
    "name": "ô",
    "character": "污",
    "index": 4661
  },
  {
    "summary": "",
    "character": "汤",
    "traditionalCharacter": "湯",
    "phonetic": "sương, thãng",
    "means": ["nước nóng", "vua Thang"],
    "name": "thang",
    "index": 4662
  },
  {
    "phonetic": "",
    "means": ["nước tràn vào đất làm thành ao hồ", "nước đọng", "tên sông"],
    "summary": "",
    "name": "khiên",
    "character": "汧",
    "index": 4663
  },
  {
    "phonetic": "duật, mịch",
    "means": ["chìm xuống nước"],
    "summary": "",
    "name": "cốt",
    "character": "汨",
    "index": 4664
  },
  {
    "phonetic": "cốt, duật, dật, hốt",
    "means": ["sông Mịch"],
    "summary": "",
    "name": "mịch",
    "character": "汩",
    "index": 4665
  },
  {
    "phonetic": "",
    "means": ["sâu và rộng"],
    "summary": "",
    "name": "uông",
    "character": "汪",
    "index": 4666
  },
  {
    "phonetic": "thải",
    "means": ["quá mức", "thải đi, bỏ đi"],
    "summary": "",
    "name": "thái",
    "character": "汰",
    "index": 4667
  },
  {
    "phonetic": "",
    "means": ["múc nước"],
    "summary": "",
    "name": "cấp",
    "character": "汲",
    "index": 4668
  },
  {
    "phonetic": "",
    "means": ["sông Biện"],
    "summary": "",
    "name": "biện",
    "character": "汴",
    "index": 4669
  },
  {
    "phonetic": "mân, môn",
    "means": ["sông Vấn"],
    "summary": "",
    "name": "vấn",
    "character": "汶",
    "index": 4670
  },
  {
    "summary": "",
    "character": "汹",
    "traditionalCharacter": "洶",
    "phonetic": "",
    "means": ["(xem: hung dũng 洶湧,汹涌)"],
    "name": "hung",
    "index": 4671
  },
  {
    "phonetic": "huyết, khuyết",
    "means": ["khơi, tháo", "vỡ đê", "quyết tâm, nhất định"],
    "summary": "",
    "name": "quyết",
    "character": "決",
    "index": 4672
  },
  {
    "phonetic": "hất, ất",
    "means": ["hơi nước"],
    "summary": "",
    "name": "khí",
    "character": "汽",
    "index": 4673
  },
  {
    "phonetic": "",
    "means": ["sông Phần"],
    "summary": "",
    "name": "phần",
    "character": "汾",
    "index": 4674
  },
  {
    "phonetic": "sấm",
    "means": ["thấm nước", "sông Thấm"],
    "summary": "",
    "name": "thấm",
    "character": "沁",
    "index": 4675
  },
  {
    "phonetic": "ngân",
    "means": ["(tên sông)"],
    "summary": "",
    "name": "nghi",
    "character": "沂",
    "index": 4676
  },
  {
    "phonetic": "",
    "means": ["bón, tưới", "tốt, màu mỡ"],
    "summary": "",
    "name": "ốc",
    "character": "沃",
    "index": 4677
  },
  {
    "phonetic": "",
    "means": ["sông Nguyên"],
    "summary": "",
    "name": "nguyên",
    "character": "沅",
    "index": 4678
  },
  {
    "phonetic": "hãng",
    "means": ["nước lũ", "chở qua"],
    "summary": "",
    "name": "hàng",
    "character": "沆",
    "index": 4679
  },
  {
    "phonetic": "duyễn",
    "means": ["sông Duyện"],
    "summary": "",
    "name": "duyện",
    "character": "沇",
    "index": 4680
  },
  {
    "phonetic": "trấm, trầm",
    "means": ["chìm", "lặn"],
    "summary": "",
    "name": "thẩm",
    "character": "沈",
    "index": 4681
  },
  {
    "phonetic": "trấm, trầm",
    "means": ["chìm", "lặn"],
    "summary": "",
    "name": "thẩm",
    "character": "沉",
    "index": 4682
  },
  {
    "phonetic": "",
    "means": ["(xem: hỗn độn 渾敦)"],
    "summary": "",
    "name": "độn",
    "character": "沌",
    "index": 4683
  },
  {
    "phonetic": "thiết",
    "means": ["pha (trà) bằng nước sôi"],
    "summary": "",
    "name": "thế",
    "character": "沏",
    "index": 4684
  },
  {
    "phonetic": "",
    "means": ["gội đầu"],
    "summary": "",
    "name": "mộc",
    "character": "沐",
    "index": 4685
  },
  {
    "phonetic": "",
    "means": ["chìm mất", "lặn (mặt trời)", "không"],
    "summary": "",
    "name": "một",
    "character": "沒",
    "index": 4686
  },
  {
    "phonetic": "",
    "means": ["chồng chất", "nhiều"],
    "summary": "",
    "name": "đạp",
    "character": "沓",
    "index": 4687
  },
  {
    "phonetic": "miễn",
    "means": ["sông Miện"],
    "summary": "",
    "name": "miện",
    "character": "沔",
    "index": 4688
  },
  {
    "phonetic": "xung",
    "means": ["khoẻ, mạnh"],
    "summary": "",
    "name": "trùng",
    "character": "沖",
    "index": 4689
  },
  {
    "phonetic": "sá",
    "means": ["cát, bãi cát", "khàn, đục"],
    "summary": "",
    "name": "sa",
    "character": "沙",
    "index": 4690
  },
  {
    "phonetic": "phái",
    "means": ["lụn, đổ nát", "bãi cỏ, bãi đất hoang"],
    "summary": "",
    "name": "bái",
    "character": "沛",
    "index": 4691
  },
  {
    "summary": "",
    "character": "沟",
    "traditionalCharacter": "溝",
    "phonetic": "",
    "means": [
      "trong (nước)",
      "rãnh, cống, ngòi, lạch, khe",
      "cái hào",
      "chỗ lõm, ổ gà"
    ],
    "name": "câu",
    "index": 4692
  },
  {
    "summary": "",
    "character": "没",
    "traditionalCharacter": "沒",
    "phonetic": "",
    "means": ["chìm mất", "lặn (mặt trời)", "không"],
    "name": "một",
    "index": 4693
  },
  {
    "phonetic": "",
    "means": ["(như: phong thuỷ 灃水,沣水)"],
    "summary": "",
    "name": "phong",
    "character": "沣",
    "index": 4694
  },
  {
    "summary": "",
    "character": "沤",
    "traditionalCharacter": "漚",
    "phonetic": "ẩu",
    "means": ["bọt nước"],
    "name": "âu",
    "index": 4695
  },
  {
    "summary": "",
    "character": "沥",
    "traditionalCharacter": "瀝",
    "phonetic": "",
    "means": ["nhỏ giọt, giỏ giọt", "giọt nước", "lọc"],
    "name": "lịch",
    "index": 4696
  },
  {
    "summary": "",
    "character": "沦",
    "traditionalCharacter": "淪",
    "phonetic": "",
    "means": ["chìm, đắm"],
    "name": "luân",
    "index": 4697
  },
  {
    "summary": "",
    "character": "沧",
    "traditionalCharacter": "滄",
    "phonetic": "",
    "means": ["rét lạnh", "biển khơi, mênh mông", "chất lượng"],
    "name": "thương",
    "index": 4698
  },
  {
    "phonetic": "duy",
    "means": ["sông Vi (ở tỉnh Hồ Nam của Trung Quốc)"],
    "summary": "",
    "name": "vy",
    "character": "沩",
    "index": 4699
  },
  {
    "phonetic": "",
    "summary": "",
    "traditionalCharacter": "滬",
    "name": "hỗ",
    "character": "沪",
    "index": 4700
  },
  {
    "phonetic": "",
    "means": ["bọt nổi lên mặt nước", "nước bọt"],
    "summary": "",
    "name": "mạt",
    "character": "沫",
    "index": 4701
  },
  {
    "phonetic": "",
    "means": ["sông Thuật"],
    "summary": "",
    "name": "thuật",
    "character": "沭",
    "index": 4702
  },
  {
    "phonetic": "trở, tư, tự",
    "means": ["sông Thư", "cản trở", "buồn chán"],
    "summary": "",
    "name": "thư",
    "character": "沮",
    "index": 4703
  },
  {
    "phonetic": "",
    "means": ["sông nhánh"],
    "summary": "",
    "name": "đà",
    "character": "沱",
    "index": 4704
  },
  {
    "phonetic": "",
    "means": ["sông nhánh"],
    "summary": "",
    "name": "đà",
    "character": "沲",
    "index": 4705
  },
  {
    "phonetic": "",
    "means": ["sông"],
    "summary": "",
    "name": "hà",
    "character": "河",
    "index": 4706
  },
  {
    "phonetic": "phất",
    "means": ["sôi (nước)"],
    "summary": "",
    "name": "phí",
    "character": "沸",
    "index": 4707
  },
  {
    "phonetic": "",
    "means": ["tinh dầu"],
    "summary": "",
    "name": "du",
    "character": "油",
    "index": 4708
  },
  {
    "phonetic": "trì",
    "means": ["cai trị"],
    "summary": "",
    "name": "trị",
    "character": "治",
    "index": 4709
  },
  {
    "phonetic": "",
    "means": ["cái ao hình cong"],
    "summary": "",
    "name": "chiểu",
    "character": "沼",
    "index": 4710
  },
  {
    "phonetic": "cổ",
    "means": ["sông Cô", "bán", "mua"],
    "summary": "",
    "name": "cô",
    "character": "沽",
    "index": 4711
  },
  {
    "phonetic": "tiêm, triêm, điếp",
    "means": ["thấm ướt, ngấm vào", "tiêm nhiễm", "đụng chạm", "được, có thể"],
    "summary": "",
    "name": "thiêm",
    "character": "沾",
    "index": 4712
  },
  {
    "phonetic": "duyên",
    "means": ["ven, mép", "đi men theo", "noi theo"],
    "summary": "",
    "name": "diên",
    "character": "沿",
    "index": 4713
  },
  {
    "phonetic": "",
    "means": ["huống chi, huống hồ"],
    "summary": "",
    "name": "huống",
    "character": "況",
    "index": 4714
  },
  {
    "phonetic": "duệ",
    "means": ["phát tiết ra, lộ ra ngoài"],
    "summary": "",
    "name": "tiết",
    "character": "泄",
    "index": 4715
  },
  {
    "phonetic": "",
    "means": ["bơi lội"],
    "summary": "",
    "name": "tù",
    "character": "泅",
    "index": 4716
  },
  {
    "phonetic": "",
    "means": ["đầy tràn", "phóng túng"],
    "summary": "",
    "name": "dật",
    "character": "泆",
    "index": 4717
  }
]
