[
  {
    "phonetic": "",
    "means": ["dẹp đường cho kiệu quan đi"],
    "summary": "",
    "name": "sô",
    "character": "騶",
    "index": 9923
  },
  {
    "phonetic": "",
    "means": ["quấy nhiễu", "phong nhã, thanh cao"],
    "summary": "",
    "name": "tao",
    "character": "騷",
    "index": 9924
  },
  {
    "phonetic": "loa",
    "means": ["con la"],
    "summary": "",
    "name": "la",
    "character": "騾",
    "index": 9925
  },
  {
    "phonetic": "",
    "means": ["bỗng nhiên", "lên ngựa", "siêu việt"],
    "summary": "",
    "name": "mạch",
    "character": "驀",
    "index": 9926
  },
  {
    "phonetic": "",
    "means": ["khua, lùa, đuổi", "ruổi ngựa", "chạy, bôn tẩu"],
    "summary": "",
    "name": "khu",
    "character": "驅",
    "index": 9927
  },
  {
    "phonetic": "",
    "means": ["(xem: hoa lưu 驊驑,驊騮)"],
    "summary": "",
    "name": "hoa",
    "character": "驊",
    "index": 9928
  },
  {
    "phonetic": "",
    "means": ["(xem: túc sương 驌驦)"],
    "summary": "",
    "name": "túc",
    "character": "驌",
    "index": 9929
  },
  {
    "phonetic": "",
    "means": ["vằn giống như vảy cá trên mình ngựa"],
    "summary": "",
    "name": "lân",
    "character": "驎",
    "index": 9930
  },
  {
    "phonetic": "",
    "means": ["kiêu căng"],
    "summary": "",
    "name": "kiêu",
    "character": "驕",
    "index": 9931
  },
  {
    "phonetic": "",
    "means": ["chứng nghiệm, kiểm nghiệm", "hiệu nghiệm"],
    "summary": "",
    "name": "nghiệm",
    "character": "驗",
    "index": 9932
  },
  {
    "phonetic": "",
    "means": ["kinh động", "kinh sợ"],
    "summary": "",
    "name": "kinh",
    "character": "驚",
    "index": 9933
  },
  {
    "phonetic": "",
    "means": ["ngựa trạm (đưa thư, truyền chỉ dụ)", "việc quân đội"],
    "summary": "",
    "name": "dịch",
    "character": "驛",
    "index": 9934
  },
  {
    "phonetic": "",
    "means": ["chợt, bỗng nhiên, bất ngờ"],
    "summary": "",
    "name": "sậu",
    "character": "驟",
    "index": 9935
  },
  {
    "phonetic": "",
    "means": ["con lừa"],
    "summary": "",
    "name": "lư",
    "character": "驢",
    "index": 9936
  },
  {
    "phonetic": "",
    "means": ["ngựa chạy nhanh mà cất cao đầu"],
    "summary": "",
    "name": "tương",
    "character": "驤",
    "index": 9937
  },
  {
    "phonetic": "kí",
    "means": ["ngựa ký"],
    "summary": "",
    "name": "ký",
    "character": "驥",
    "index": 9938
  },
  {
    "phonetic": "",
    "means": ["(xem: túc sương 驌驦)"],
    "summary": "",
    "name": "sương",
    "character": "驦",
    "index": 9939
  },
  {
    "phonetic": "li",
    "means": ["con ngựa ô"],
    "summary": "",
    "name": "ly",
    "character": "驪",
    "index": 9940
  },
  {
    "summary": "",
    "character": "马",
    "traditionalCharacter": "馬",
    "phonetic": "",
    "means": ["con ngựa"],
    "name": "mã",
    "index": 9941
  },
  {
    "summary": "",
    "character": "驭",
    "traditionalCharacter": "馭",
    "phonetic": "",
    "means": ["kẻ cầm cương ngựa", "khống chế, tiết chế kẻ dưới"],
    "name": "ngự",
    "index": 9942
  },
  {
    "summary": "",
    "character": "驮",
    "traditionalCharacter": "馱",
    "phonetic": "đạ",
    "means": ["ngựa cõng, thồ"],
    "name": "đà",
    "index": 9943
  },
  {
    "summary": "",
    "character": "驯",
    "traditionalCharacter": "馴",
    "phonetic": "",
    "means": ["thuần, lành (thú)"],
    "name": "tuần",
    "index": 9944
  },
  {
    "summary": "",
    "character": "驰",
    "traditionalCharacter": "馳",
    "phonetic": "",
    "means": [
      "chạy mau, phóng nhanh",
      "đuổi",
      "truyền đi, vang khắp (tên tuổi)"
    ],
    "name": "trì",
    "index": 9945
  },
  {
    "summary": "",
    "character": "驱",
    "traditionalCharacter": "驅",
    "phonetic": "",
    "means": ["khua, lùa, đuổi", "ruổi ngựa", "chạy, bôn tẩu"],
    "name": "khu",
    "index": 9946
  },
  {
    "summary": "",
    "character": "驳",
    "traditionalCharacter": "駁",
    "phonetic": "",
    "means": ["loang lổ", "lẫn lộn", "phản bác, chống lại"],
    "name": "bác",
    "index": 9947
  },
  {
    "summary": "",
    "character": "驴",
    "traditionalCharacter": "驢",
    "phonetic": "",
    "means": ["con lừa"],
    "name": "lư",
    "index": 9948
  },
  {
    "summary": "",
    "character": "驵",
    "traditionalCharacter": "駔",
    "phonetic": "tổ",
    "means": ["ngựa khoẻ"],
    "name": "tảng",
    "index": 9949
  },
  {
    "summary": "",
    "character": "驶",
    "traditionalCharacter": "駛",
    "phonetic": "",
    "means": ["ngựa chạy nhanh"],
    "name": "sử",
    "index": 9950
  },
  {
    "summary": "",
    "character": "驷",
    "traditionalCharacter": "駟",
    "phonetic": "",
    "means": ["cỗ xe 4 ngựa"],
    "name": "tứ",
    "index": 9951
  },
  {
    "summary": "",
    "character": "驸",
    "traditionalCharacter": "駙",
    "phonetic": "phụ",
    "means": ["con ngựa đóng kèm bên xe"],
    "name": "phò",
    "index": 9952
  },
  {
    "summary": "",
    "character": "驹",
    "traditionalCharacter": "駒",
    "phonetic": "",
    "means": ["ngựa non", "khoẻ"],
    "name": "câu",
    "index": 9953
  },
  {
    "summary": "",
    "character": "驺",
    "traditionalCharacter": "騶",
    "phonetic": "",
    "means": ["dẹp đường cho kiệu quan đi"],
    "name": "sô",
    "index": 9954
  },
  {
    "summary": "",
    "character": "驻",
    "traditionalCharacter": "駐",
    "phonetic": "",
    "means": ["nghỉ lại, lưu lại"],
    "name": "trú",
    "index": 9955
  },
  {
    "summary": "",
    "character": "驼",
    "traditionalCharacter": "駝",
    "phonetic": "",
    "means": ["(xem: lạc đà 駱駝,骆驼)"],
    "name": "đà",
    "index": 9956
  },
  {
    "summary": "",
    "character": "驽",
    "traditionalCharacter": "駑",
    "phonetic": "",
    "means": ["ngựa nhát", "(từ xưng hô nhún nhường)"],
    "name": "nô",
    "index": 9957
  },
  {
    "summary": "",
    "character": "驾",
    "traditionalCharacter": "駕",
    "phonetic": "",
    "means": ["đóng ngựa vào xe", "xe cộ", "chuyến đi của vua"],
    "name": "giá",
    "index": 9958
  },
  {
    "summary": "",
    "character": "驿",
    "traditionalCharacter": "驛",
    "phonetic": "",
    "means": ["ngựa trạm (đưa thư, truyền chỉ dụ)", "việc quân đội"],
    "name": "dịch",
    "index": 9959
  },
  {
    "summary": "",
    "character": "骀",
    "traditionalCharacter": "駘",
    "phonetic": "đãi",
    "means": ["ngựa hèn, ngựa xấu"],
    "name": "đài",
    "index": 9960
  },
  {
    "summary": "",
    "character": "骁",
    "traditionalCharacter": "驍",
    "phonetic": "",
    "means": ["khoẻ mạnh nhanh nhẹn"],
    "name": "kiêu",
    "index": 9961
  },
  {
    "summary": "",
    "character": "骂",
    "traditionalCharacter": "罵",
    "phonetic": "",
    "means": ["mắng mỏ, chửi bới"],
    "name": "mạ",
    "index": 9962
  },
  {
    "summary": "",
    "character": "骄",
    "traditionalCharacter": "驕",
    "phonetic": "",
    "means": ["kiêu căng"],
    "name": "kiêu",
    "index": 9963
  },
  {
    "summary": "",
    "character": "骅",
    "traditionalCharacter": "驊",
    "phonetic": "",
    "means": ["(xem: hoa lưu 驊驑,驊騮)"],
    "name": "hoa",
    "index": 9964
  },
  {
    "summary": "",
    "character": "骆",
    "traditionalCharacter": "駱",
    "phonetic": "",
    "means": ["ngựa trắng bờm đen"],
    "name": "lạc",
    "index": 9965
  },
  {
    "summary": "",
    "character": "骇",
    "traditionalCharacter": "駭",
    "phonetic": "",
    "means": ["giật mình"],
    "name": "hãi",
    "index": 9966
  },
  {
    "summary": "",
    "character": "骈",
    "traditionalCharacter": "駢",
    "phonetic": "",
    "means": [
      "hai ngựa đóng kèm nhau (chạy song song)",
      "song song, đối nhau, sát nhau, liền nhau",
      " "
    ],
    "name": "biền",
    "index": 9967
  },
  {
    "phonetic": "li",
    "means": ["con ngựa ô"],
    "summary": "",
    "name": "ly",
    "character": "骊",
    "index": 9968
  },
  {
    "summary": "",
    "character": "骋",
    "traditionalCharacter": "騁",
    "phonetic": "",
    "means": ["phi, phóng miết"],
    "name": "sính",
    "index": 9969
  },
  {
    "summary": "",
    "character": "验",
    "traditionalCharacter": "驗",
    "phonetic": "",
    "means": ["chứng nghiệm, kiểm nghiệm", "hiệu nghiệm"],
    "name": "nghiệm",
    "index": 9970
  },
  {
    "summary": "",
    "character": "骏",
    "traditionalCharacter": "駿",
    "phonetic": "",
    "means": ["ngựa hay"],
    "name": "tuấn",
    "index": 9971
  },
  {
    "phonetic": "kì",
    "means": ["ngựa xám"],
    "summary": "",
    "name": "kỳ",
    "character": "骐",
    "index": 9972
  },
  {
    "phonetic": "kị",
    "means": ["ngựa đã đóng cương", "cưỡi ngựa"],
    "summary": "",
    "name": "kỵ",
    "character": "骑",
    "index": 9973
  },
  {
    "phonetic": "",
    "means": ["ngựa cái"],
    "summary": "",
    "name": "khoả",
    "character": "骒",
    "index": 9974
  },
  {
    "summary": "",
    "character": "骓",
    "traditionalCharacter": "騅",
    "phonetic": "",
    "means": ["ngựa có lông xanh trắng đen lẫn lộn"],
    "name": "chuy",
    "index": 9975
  },
  {
    "phonetic": "",
    "summary": "",
    "name": "túc",
    "character": "骕",
    "index": 9976
  },
  {
    "summary": "",
    "character": "骖",
    "traditionalCharacter": "驂",
    "phonetic": "",
    "means": ["xe 3 ngựa"],
    "name": "tham",
    "index": 9977
  },
  {
    "summary": "",
    "character": "骗",
    "traditionalCharacter": "騙",
    "phonetic": "biển",
    "means": ["lừa đảo", "nhảy tót lên lưng ngựa"],
    "name": "phiến",
    "index": 9978
  },
  {
    "summary": "",
    "character": "骘",
    "traditionalCharacter": "騭",
    "phonetic": "",
    "means": ["định sẵn", "phân biệt", "ngựa cái"],
    "name": "chất",
    "index": 9979
  },
  {
    "summary": "",
    "character": "骚",
    "traditionalCharacter": "騷",
    "phonetic": "",
    "means": ["quấy nhiễu", "phong nhã, thanh cao"],
    "name": "tao",
    "index": 9980
  },
  {
    "summary": "",
    "character": "骛",
    "traditionalCharacter": "騖",
    "phonetic": "",
    "means": ["chạy lồng", "phóng túng"],
    "name": "vụ",
    "index": 9981
  },
  {
    "summary": "",
    "character": "骜",
    "traditionalCharacter": "驁",
    "phonetic": "ngạo",
    "means": ["con ngựa bất kham"],
    "name": "ngao",
    "index": 9982
  },
  {
    "summary": "",
    "character": "骝",
    "traditionalCharacter": "騮",
    "phonetic": "",
    "means": ["con ngựa"],
    "name": "lưu",
    "index": 9983
  },
  {
    "summary": "",
    "character": "骞",
    "traditionalCharacter": "騫",
    "phonetic": "kiển",
    "means": [
      "thiếu, sứt mẻ",
      "hất lên, ngẩng lên",
      "giật lấy",
      "tội lỗi",
      "ngựa hèn"
    ],
    "name": "khiên",
    "index": 9984
  },
  {
    "phonetic": "phiến",
    "means": ["ngựa đã thiến", "thiến (trâu, ngựa)"],
    "summary": "",
    "name": "phiếu",
    "character": "骟",
    "index": 9985
  },
  {
    "phonetic": "phiếu",
    "means": ["ngựa vàng lang trắng", "khoẻ mạnh"],
    "summary": "",
    "name": "phiêu",
    "character": "骠",
    "index": 9986
  },
  {
    "phonetic": "loa",
    "means": ["con la"],
    "summary": "",
    "name": "la",
    "character": "骡",
    "index": 9987
  },
  {
    "summary": "",
    "character": "骢",
    "traditionalCharacter": "驄",
    "phonetic": "",
    "means": ["ngựa trắng xám"],
    "name": "thông",
    "index": 9988
  },
  {
    "phonetic": "",
    "means": ["ngựa cưỡi không có yên"],
    "summary": "",
    "name": "sạn",
    "character": "骣",
    "index": 9989
  },
  {
    "summary": "",
    "character": "骤",
    "traditionalCharacter": "驟",
    "phonetic": "",
    "means": ["chợt, bỗng nhiên, bất ngờ"],
    "name": "sậu",
    "index": 9990
  },
  {
    "phonetic": "kí",
    "means": ["ngựa ký"],
    "summary": "",
    "name": "ký",
    "character": "骥",
    "index": 9991
  },
  {
    "phonetic": "",
    "means": ["(xem: túc sương 驌驦)"],
    "summary": "",
    "name": "sương",
    "character": "骦",
    "index": 9992
  },
  {
    "summary": "",
    "character": "骧",
    "traditionalCharacter": "驤",
    "phonetic": "",
    "means": ["ngựa chạy nhanh mà cất cao đầu"],
    "name": "tương",
    "index": 9993
  },
  {
    "phonetic": "",
    "means": ["xương cốt"],
    "summary": "",
    "name": "cốt",
    "character": "骨",
    "index": 9994
  },
  {
    "phonetic": "",
    "means": ["dơ bẩn"],
    "summary": "",
    "name": "khảng",
    "character": "骯",
    "index": 9995
  },
  {
    "phonetic": "",
    "means": ["con xúc xắc"],
    "summary": "",
    "name": "đầu",
    "character": "骰",
    "index": 9996
  },
  {
    "phonetic": "",
    "means": ["khớp xương"],
    "summary": "",
    "name": "giới",
    "character": "骱",
    "index": 9997
  },
  {
    "phonetic": "",
    "means": ["húc nhau"],
    "summary": "",
    "name": "để",
    "character": "骶",
    "index": 9998
  },
  {
    "phonetic": "",
    "means": ["(xem: khô lâu 骷髏,骷髅)"],
    "summary": "",
    "name": "khô",
    "character": "骷",
    "index": 9999
  },
  {
    "phonetic": "",
    "means": ["xương đùi", "hình hài"],
    "summary": "",
    "name": "hài",
    "character": "骸",
    "index": 10000
  },
  {
    "phonetic": "",
    "means": ["mấu trên não, đầu xương"],
    "summary": "",
    "name": "hầu",
    "character": "骺",
    "index": 10001
  },
  {
    "phonetic": "",
    "means": ["xương khô", "bộ xương"],
    "summary": "",
    "name": "cách",
    "character": "骼",
    "index": 10002
  },
  {
    "phonetic": "",
    "means": ["đùi vế", "cây nêu"],
    "summary": "",
    "name": "bễ",
    "character": "髀",
    "index": 10003
  },
  {
    "phonetic": "khoã",
    "means": ["xương đùi"],
    "summary": "",
    "name": "khoả",
    "character": "髁",
    "index": 10004
  },
  {
    "phonetic": "",
    "means": ["xương chậu"],
    "summary": "",
    "name": "khách",
    "character": "髂",
    "index": 10005
  },
  {
    "summary": "",
    "character": "髅",
    "traditionalCharacter": "髏",
    "phonetic": "",
    "means": ["đầu lâu người chết"],
    "name": "lâu",
    "index": 10006
  },
  {
    "phonetic": "",
    "means": ["xương chậu, xương hông"],
    "summary": "",
    "name": "khoan",
    "character": "髋",
    "index": 10007
  },
  {
    "summary": "",
    "character": "髌",
    "traditionalCharacter": "髕",
    "phonetic": "tẫn",
    "means": ["xương bánh chè, xương đầu gối", "hình phạt chặt xương bánh chè"],
    "name": "bận",
    "index": 10008
  },
  {
    "phonetic": "",
    "means": ["(xem: độc lâu 髑髏,髑髅)"],
    "summary": "",
    "name": "độc",
    "character": "髑",
    "index": 10009
  },
  {
    "phonetic": "tang, táng",
    "means": ["(xem: khảng tảng 骯髒)", "bẩn thỉu"],
    "summary": "",
    "name": "tảng",
    "character": "髒",
    "index": 10010
  },
  {
    "phonetic": "",
    "means": ["tuỷ trong xương"],
    "summary": "",
    "name": "tuỷ",
    "character": "髓",
    "index": 10011
  },
  {
    "phonetic": "",
    "means": ["thân, mình", "hình thể", "dạng"],
    "summary": "",
    "name": "thể",
    "character": "體",
    "index": 10012
  },
  {
    "phonetic": "tẫn",
    "means": ["xương bánh chè, xương đầu gối", "hình phạt chặt xương bánh chè"],
    "summary": "",
    "name": "bận",
    "character": "髕",
    "index": 10013
  },
  {
    "phonetic": "",
    "means": ["xương chậu, xương hông"],
    "summary": "",
    "name": "khoan",
    "character": "髖",
    "index": 10014
  },
  {
    "phonetic": "",
    "means": ["cao", "kiêu, đắt", "cao thượng, thanh cao", "nhiều, hơn"],
    "summary": "",
    "name": "cao",
    "character": "高",
    "index": 10015
  },
  {
    "phonetic": "sam, tiêu",
    "means": ["tóc dài lượt thượt"],
    "summary": "",
    "name": "bưu",
    "character": "髟",
    "index": 10016
  },
  {
    "phonetic": "",
    "means": ["cắt tóc", "cây trụi lá"],
    "summary": "",
    "name": "khôn",
    "character": "髡",
    "index": 10017
  },
  {
    "phonetic": "",
    "means": ["bờm ngựa", "kén chọn"],
    "summary": "",
    "name": "mao",
    "character": "髦",
    "index": 10018
  },
  {
    "phonetic": "điều",
    "means": ["tóc trái đào"],
    "summary": "",
    "name": "thiều",
    "character": "髫",
    "index": 10019
  },
  {
    "phonetic": "tì, tư",
    "means": ["ria mép"],
    "summary": "",
    "name": "tỳ",
    "character": "髭",
    "index": 10020
  },
  {
    "phonetic": "bị",
    "means": ["tóc", "một phần nghìn của một tấc"],
    "summary": "",
    "name": "phát",
    "character": "髮",
    "index": 10021
  },
  {
    "phonetic": "",
    "means": ["ria mép"],
    "summary": "",
    "name": "nhiêm",
    "character": "髯",
    "index": 10022
  },
  {
    "phonetic": "",
    "means": ["sơn", "quét sơn"],
    "summary": "",
    "name": "hưu",
    "character": "髹",
    "index": 10023
  },
  {
    "phonetic": "kế, kết",
    "means": ["thần bếp, ông táo"],
    "summary": "",
    "name": "cát",
    "character": "髻",
    "index": 10024
  },
  {
    "phonetic": "tông",
    "means": ["tóc rối bù", "bờm cổ"],
    "summary": "",
    "name": "tùng",
    "character": "鬃",
    "index": 10025
  },
  {
    "phonetic": "thích",
    "means": ["cắt tóc"],
    "summary": "",
    "name": "thế",
    "character": "鬄",
    "index": 10026
  },
  {
    "phonetic": "tung, tông",
    "means": ["tóc rối bù", "bờm cổ"],
    "summary": "",
    "name": "tùng",
    "character": "鬆",
    "index": 10027
  },
  {
    "phonetic": "",
    "means": ["tóc tốt, tóc đẹp"],
    "summary": "",
    "name": "quyền",
    "character": "鬈",
    "index": 10028
  },
  {
    "phonetic": "",
    "means": ["chòm râu, chỏm râu"],
    "summary": "",
    "name": "hồ",
    "character": "鬍",
    "index": 10029
  },
  {
    "phonetic": "",
    "means": ["búi tóc"],
    "summary": "",
    "name": "thu",
    "character": "鬏",
    "index": 10030
  },
  {
    "phonetic": "",
    "means": ["tóc mượt"],
    "summary": "",
    "name": "chẩn",
    "character": "鬒",
    "index": 10031
  },
  {
    "summary": "",
    "character": "鬓",
    "traditionalCharacter": "鬢",
    "phonetic": "tấn",
    "means": ["tóc mai"],
    "name": "mấn",
    "index": 10032
  },
  {
    "phonetic": "",
    "means": ["râu cằm"],
    "summary": "",
    "name": "tu",
    "character": "鬚",
    "index": 10033
  },
  {
    "phonetic": "",
    "means": ["uốn tóc, quấn tóc"],
    "summary": "",
    "name": "hoàn",
    "character": "鬟",
    "index": 10034
  },
  {
    "phonetic": "tấn",
    "means": ["tóc mai"],
    "summary": "",
    "name": "mấn",
    "character": "鬢",
    "index": 10035
  },
  {
    "phonetic": "",
    "means": ["râu", "bờm cổ thú"],
    "summary": "",
    "name": "liệp",
    "character": "鬣",
    "index": 10036
  },
  {
    "phonetic": "",
    "means": ["tranh đấu"],
    "summary": "",
    "name": "đấu",
    "character": "鬥",
    "index": 10037
  },
  {
    "phonetic": "náo",
    "means": ["ầm ĩ"],
    "summary": "",
    "name": "nháo",
    "character": "鬧",
    "index": 10038
  },
  {
    "phonetic": "hạng",
    "means": ["đánh nhau ầm ĩ"],
    "summary": "",
    "name": "hống",
    "character": "鬨",
    "index": 10039
  },
  {
    "phonetic": "",
    "means": ["cãi nhau, đánh nhau"],
    "summary": "",
    "name": "huých",
    "character": "鬩",
    "index": 10040
  },
  {
    "phonetic": "",
    "means": ["tranh đấu"],
    "summary": "",
    "name": "đấu",
    "character": "鬭",
    "index": 10041
  },
  {
    "phonetic": "",
    "means": ["rút lấy, gắp lấy"],
    "summary": "",
    "name": "cưu",
    "character": "鬮",
    "index": 10042
  },
  {
    "phonetic": "",
    "means": ["rượu nếp"],
    "summary": "",
    "name": "sưởng",
    "character": "鬯",
    "index": 10043
  },
  {
    "phonetic": "úc",
    "means": ["buồn bã, uất ức", "hơi thối"],
    "summary": "",
    "name": "uất",
    "character": "鬱",
    "index": 10044
  },
  {
    "phonetic": "lịch",
    "means": ["nước Cách"],
    "summary": "",
    "name": "cách",
    "character": "鬲",
    "index": 10045
  },
  {
    "phonetic": "",
    "means": ["một loại đồ đựng"],
    "summary": "",
    "name": "quyện",
    "character": "鬳",
    "index": 10046
  },
  {
    "phonetic": "dục",
    "means": ["cháo loãng"],
    "summary": "",
    "name": "chúc",
    "character": "鬻",
    "index": 10047
  },
  {
    "phonetic": "",
    "means": ["ma quỷ", "sao Quỷ (một trong Nhị thập bát tú)"],
    "summary": "",
    "name": "quỷ",
    "character": "鬼",
    "index": 10048
  },
  {
    "phonetic": "",
    "means": ["đứng đầu, đầu sỏ", "cái muôi múc canh", "sao Khôi"],
    "summary": "",
    "name": "khôi",
    "character": "魁",
    "index": 10049
  },
  {
    "phonetic": "",
    "means": ["linh hồn"],
    "summary": "",
    "name": "hồn",
    "character": "魂",
    "index": 10050
  },
  {
    "phonetic": "",
    "means": ["thần nắng"],
    "summary": "",
    "name": "bạt",
    "character": "魃",
    "index": 10051
  },
  {
    "phonetic": "bạc, thác",
    "means": ["vùng tối trên mặt trăng", "vía (hồn vía)"],
    "summary": "",
    "name": "phách",
    "character": "魄",
    "index": 10052
  },
  {
    "phonetic": "",
    "means": ["ma quỷ"],
    "summary": "",
    "name": "mị",
    "character": "魅",
    "index": 10053
  },
  {
    "phonetic": "huất",
    "means": ["tối om"],
    "summary": "",
    "name": "tuất",
    "character": "魆",
    "index": 10054
  },
  {
    "summary": "",
    "character": "魇",
    "traditionalCharacter": "魘",
    "phonetic": "",
    "means": ["mơ bị bóng đè"],
    "name": "yểm",
    "index": 10055
  },
  {
    "phonetic": "",
    "means": ["yêu quái"],
    "summary": "",
    "name": "tiêu",
    "character": "魈",
    "index": 10056
  },
  {
    "summary": "",
    "character": "魉",
    "traditionalCharacter": "魎",
    "phonetic": "lưỡng",
    "means": ["(xem: võng lượng 魍魎,魍魉,蝄蜽)"],
    "name": "lượng",
    "index": 10057
  },
  {
    "phonetic": "",
    "means": ["(xem: võng lượng 魍魎,魍魉,蝄蜽)"],
    "summary": "",
    "name": "võng",
    "character": "魍",
    "index": 10058
  },
  {
    "phonetic": "lưỡng",
    "means": ["(xem: võng lượng 魍魎,魍魉,蝄蜽)"],
    "summary": "",
    "name": "lượng",
    "character": "魎",
    "index": 10059
  },
  {
    "phonetic": "nguy",
    "means": ["nước Nguỵ", "đời nhà Nguỵ"],
    "summary": "",
    "name": "nguỵ",
    "character": "魏",
    "index": 10060
  },
  {
    "phonetic": "si",
    "means": ["ma quỷ"],
    "summary": "",
    "name": "ly",
    "character": "魑",
    "index": 10061
  },
  {
    "phonetic": "",
    "means": ["ma quỷ"],
    "summary": "",
    "name": "ma",
    "character": "魔",
    "index": 10062
  },
  {
    "phonetic": "",
    "means": ["mơ bị bóng đè"],
    "summary": "",
    "name": "yểm",
    "character": "魘",
    "index": 10064
  },
  {
    "phonetic": "",
    "means": ["con cá"],
    "summary": "",
    "name": "ngư",
    "character": "魚",
    "index": 10065
  },
  {
    "phonetic": "lữ",
    "means": ["chậm chạp", "thô lỗ", "đần độn", "nước Lỗ"],
    "summary": "",
    "name": "lỗ",
    "character": "魯",
    "index": 10068
  },
  {
    "phonetic": "",
    "means": ["cá mực"],
    "summary": "",
    "name": "vưu",
    "character": "魷",
    "index": 10069
  },
  {
    "phonetic": "",
    "means": ["cá bơn vỉ ôliu"],
    "summary": "",
    "name": "bình",
    "character": "鮃",
    "index": 10070
  },
  {
    "phonetic": "bào, bão",
    "means": ["cá đã ướp"],
    "summary": "",
    "name": "bảo",
    "character": "鮑",
    "index": 10071
  },
  {
    "phonetic": "quỳ",
    "summary": "",
    "name": "nghễ",
    "character": "鮨",
    "index": 10072
  },
  {
    "phonetic": "vĩ",
    "means": ["cá vị, cá tầm"],
    "summary": "",
    "name": "vị",
    "character": "鮪",
    "index": 10073
  },
  {
    "phonetic": "",
    "means": ["cá giao"],
    "summary": "",
    "name": "giao",
    "character": "鮫",
    "index": 10074
  },
  {
    "phonetic": "hài",
    "means": ["con cá hồi"],
    "summary": "",
    "name": "khuê",
    "character": "鮭",
    "index": 10075
  },
  {
    "phonetic": "tiển",
    "means": ["cá tươi", "sáng sủa", "ngon lành"],
    "summary": "",
    "name": "tiên",
    "character": "鮮",
    "index": 10076
  },
  {
    "phonetic": "",
    "means": ["cá trắm trắng, cá trắm cỏ"],
    "summary": "",
    "name": "cán",
    "character": "鯇",
    "index": 10077
  },
  {
    "phonetic": "lí",
    "means": ["con cá chép"],
    "summary": "",
    "name": "lý",
    "character": "鯉",
    "index": 10078
  },
  {
    "phonetic": "",
    "means": ["cá nhám, cá mập"],
    "summary": "",
    "name": "sa",
    "character": "鯊",
    "index": 10079
  },
  {
    "phonetic": "thinh",
    "means": ["cá nấu lẫn với thịt", "cá đối"],
    "summary": "",
    "name": "chinh",
    "character": "鯖",
    "index": 10082
  },
  {
    "phonetic": "",
    "means": ["cá phơi khô"],
    "summary": "",
    "name": "tưởng",
    "character": "鯗",
    "index": 10083
  },
  {
    "phonetic": "",
    "means": ["con cá điêu"],
    "summary": "",
    "name": "điêu",
    "character": "鯛",
    "index": 10084
  },
  {
    "phonetic": "",
    "means": ["cá lầm"],
    "summary": "",
    "name": "phi",
    "character": "鯡",
    "index": 10085
  },
  {
    "phonetic": "",
    "means": ["cá kình, cá voi"],
    "summary": "",
    "name": "nghê",
    "character": "鯢",
    "index": 10086
  },
  {
    "phonetic": "",
    "means": ["con cá côn"],
    "summary": "",
    "name": "côn",
    "character": "鯤",
    "index": 10087
  },
  {
    "phonetic": "",
    "means": ["con cá xương"],
    "summary": "",
    "name": "xương",
    "character": "鯧",
    "index": 10088
  },
  {
    "phonetic": "canh",
    "means": ["cá kình, cá voi"],
    "summary": "",
    "name": "kình",
    "character": "鯨",
    "index": 10089
  },
  {
    "phonetic": "",
    "means": ["cá lăng, cá đác"],
    "summary": "",
    "name": "lăng",
    "character": "鯪",
    "index": 10090
  },
  {
    "phonetic": "tẩu, xu",
    "means": ["con cá tép"],
    "summary": "",
    "name": "tưu",
    "character": "鯫",
    "index": 10091
  },
  {
    "phonetic": "niềm",
    "means": ["cá măng, cá ngát, cá nheo, cá niêm"],
    "summary": "",
    "name": "niêm",
    "character": "鯰",
    "index": 10092
  },
  {
    "phonetic": "",
    "means": ["con cá diếc"],
    "summary": "",
    "name": "tức",
    "character": "鯽",
    "index": 10094
  },
  {
    "phonetic": "",
    "means": ["(xem: ô tặc 烏鰂,乌鲗)"],
    "summary": "",
    "name": "tặc",
    "character": "鰂",
    "index": 10095
  },
  {
    "phonetic": "",
    "means": ["cá thu âu"],
    "summary": "",
    "name": "xuân",
    "character": "鰆",
    "index": 10096
  },
  {
    "phonetic": "",
    "means": ["cá điệp, cá bơn"],
    "summary": "",
    "name": "điệp",
    "character": "鰈",
    "index": 10097
  },
  {
    "phonetic": "",
    "means": ["mang cá"],
    "summary": "",
    "name": "tai",
    "character": "鰓",
    "index": 10098
  },
  {
    "phonetic": "",
    "means": ["(xem: báng bì 鰟鮍,鳑鲏)"],
    "summary": "",
    "name": "bàng",
    "character": "鰟",
    "index": 10099
  },
  {
    "phonetic": "",
    "means": ["cá cháy"],
    "summary": "",
    "name": "thì",
    "character": "鰣",
    "index": 10100
  },
  {
    "phonetic": "côn",
    "means": ["cá lớn", "người goá vợ"],
    "summary": "",
    "name": "quan",
    "character": "鰥",
    "index": 10101
  },
  {
    "phonetic": "kì",
    "means": ["vây cá"],
    "summary": "",
    "name": "kỳ",
    "character": "鰭",
    "index": 10102
  },
  {
    "phonetic": "",
    "means": ["cá liên, cá mè"],
    "summary": "",
    "name": "liên",
    "character": "鰱",
    "index": 10103
  },
  {
    "phonetic": "",
    "means": ["con ngao, con trạch"],
    "summary": "",
    "name": "ngao",
    "character": "鰲",
    "index": 10104
  },
  {
    "phonetic": "",
    "summary": "",
    "name": "kiên",
    "character": "鰹",
    "index": 10105
  },
  {
    "phonetic": "",
    "means": ["(xem: man ly 鰻鱺,鳗鲡)"],
    "summary": "",
    "name": "man",
    "character": "鰻",
    "index": 10106
  },
  {
    "phonetic": "",
    "means": ["cái bong bóng cá"],
    "summary": "",
    "name": "phiêu",
    "character": "鰾",
    "index": 10107
  },
  {
    "phonetic": "",
    "summary": "",
    "name": "ký",
    "character": "鱀",
    "index": 10108
  },
  {
    "phonetic": "đoàn",
    "summary": "",
    "name": "chuyên",
    "character": "鱄",
    "index": 10109
  },
  {
    "phonetic": "dong",
    "means": ["cá mè hoa"],
    "summary": "",
    "name": "dung",
    "character": "鱅",
    "index": 10110
  },
  {
    "phonetic": "",
    "means": ["cá tuyết, cá moruy"],
    "summary": "",
    "name": "tuyết",
    "character": "鱈",
    "index": 10112
  },
  {
    "phonetic": "miết",
    "means": ["con ba ba"],
    "summary": "",
    "name": "biết",
    "character": "鱉",
    "index": 10113
  },
  {
    "phonetic": "tỗn",
    "means": ["cá chầy, cá rói"],
    "summary": "",
    "name": "tôn",
    "character": "鱒",
    "index": 10114
  },
  {
    "phonetic": "",
    "means": ["con lươn"],
    "summary": "",
    "name": "thiện",
    "character": "鱔",
    "index": 10115
  },
  {
    "phonetic": "",
    "means": ["con cá rô"],
    "summary": "",
    "name": "quyết",
    "character": "鱖",
    "index": 10116
  },
  {
    "phonetic": "",
    "means": ["vẩy cá, vảy cá", "xếp hàng lần lượt"],
    "summary": "",
    "name": "lân",
    "character": "鱗",
    "index": 10117
  },
  {
    "phonetic": "",
    "means": ["cá tầm (dài hơn một trượng)"],
    "summary": "",
    "name": "tầm",
    "character": "鱘",
    "index": 10118
  },
  {
    "phonetic": "quái",
    "means": ["thái thịt cá nhỏ ra", "cá bẹ"],
    "summary": "",
    "name": "khoái",
    "character": "鱠",
    "index": 10119
  },
  {
    "phonetic": "thiện, triên",
    "means": [
      "con lươn",
      "cá chiên (một loại cá tầm, tên khoa học: acipenser mikadoi)"
    ],
    "summary": "",
    "name": "chiên",
    "character": "鱣",
    "index": 10120
  },
  {
    "phonetic": "",
    "means": ["cá chuối, cá quả, cá lóc"],
    "summary": "",
    "name": "lễ",
    "character": "鱧",
    "index": 10122
  },
  {
    "phonetic": "",
    "means": ["con cá sấu"],
    "summary": "",
    "name": "ngạc",
    "character": "鱷",
    "index": 10123
  },
  {
    "phonetic": "lư",
    "means": ["cá vược"],
    "summary": "",
    "name": "lô",
    "character": "鱸",
    "index": 10124
  },
  {
    "phonetic": "li, lễ",
    "means": ["(xem: man ly 鰻鱺,鳗鲡)"],
    "summary": "",
    "name": "ly",
    "character": "鱺",
    "index": 10125
  },
  {
    "phonetic": "",
    "means": ["cá tươi", "sáng sủa", "ngon lành"],
    "summary": "",
    "name": "tiên",
    "character": "鱻",
    "index": 10126
  },
  {
    "summary": "",
    "character": "鱼",
    "traditionalCharacter": "魚",
    "phonetic": "",
    "means": ["con cá"],
    "name": "ngư",
    "index": 10127
  },
  {
    "summary": "",
    "character": "鱿",
    "traditionalCharacter": "魷",
    "phonetic": "",
    "means": ["cá mực"],
    "name": "vưu",
    "index": 10128
  },
  {
    "summary": "",
    "character": "鲁",
    "traditionalCharacter": "魯",
    "phonetic": "",
    "means": ["chậm chạp", "thô lỗ", "đần độn", "nước Lỗ"],
    "name": "lỗ",
    "index": 10129
  },
  {
    "summary": "",
    "character": "鲂",
    "traditionalCharacter": "魴",
    "phonetic": "",
    "means": ["cá mè"],
    "name": "phường",
    "index": 10130
  },
  {
    "phonetic": "phệ",
    "summary": "",
    "traditionalCharacter": "鮁",
    "name": "bát",
    "character": "鲅",
    "index": 10132
  },
  {
    "phonetic": "",
    "means": ["cá bơn vỉ ôliu"],
    "summary": "",
    "name": "bình",
    "character": "鲆",
    "index": 10133
  },
  {
    "summary": "",
    "character": "鲇",
    "traditionalCharacter": "鮎",
    "phonetic": "niềm",
    "means": ["cá măng, cá ngát, cá nheo, cá niêm"],
    "name": "niêm",
    "index": 10134
  },
  {
    "phonetic": "lư",
    "means": ["cá vược"],
    "summary": "",
    "name": "lô",
    "character": "鲈",
    "index": 10135
  },
  {
    "summary": "",
    "character": "鲋",
    "traditionalCharacter": "鮒",
    "phonetic": "",
    "means": ["con cá diếc"],
    "name": "phụ",
    "index": 10136
  },
  {
    "phonetic": "bào, bão",
    "means": ["cá đã ướp"],
    "summary": "",
    "name": "bảo",
    "character": "鲍",
    "index": 10137
  },
  {
    "summary": "",
    "character": "鲎",
    "traditionalCharacter": "鱟",
    "phonetic": "",
    "means": ["con sam biển"],
    "name": "hấu",
    "index": 10138
  },
  {
    "phonetic": "di",
    "means": ["cá thu"],
    "summary": "",
    "name": "thai",
    "character": "鲐",
    "index": 10139
  },
  {
    "summary": "",
    "character": "鲑",
    "traditionalCharacter": "鮭",
    "phonetic": "hài",
    "means": ["con cá hồi"],
    "name": "khuê",
    "index": 10140
  },
  {
    "phonetic": "",
    "means": ["ốc mượn hồn"],
    "summary": "",
    "name": "cát",
    "character": "鲒",
    "index": 10141
  },
  {
    "phonetic": "vĩ",
    "means": ["cá vị, cá tầm"],
    "summary": "",
    "name": "vị",
    "character": "鲔",
    "index": 10142
  },
  {
    "phonetic": "",
    "means": ["cá giống", "một loại cá có thịt ngon"],
    "summary": "",
    "name": "nhi",
    "character": "鲕",
    "index": 10143
  },
  {
    "summary": "",
    "character": "鲗",
    "traditionalCharacter": "鰂",
    "phonetic": "",
    "means": ["(xem: ô tặc 烏鰂,乌鲗)"],
    "name": "tặc",
    "index": 10144
  },
  {
    "summary": "",
    "character": "鲙",
    "traditionalCharacter": "鱠",
    "phonetic": "quái",
    "means": ["thái thịt cá nhỏ ra", "cá bẹ"],
    "name": "khoái",
    "index": 10145
  },
  {
    "summary": "",
    "character": "鲚",
    "traditionalCharacter": "鱭",
    "phonetic": "",
    "means": ["con cá đao"],
    "name": "tễ",
    "index": 10146
  },
  {
    "summary": "",
    "character": "鲛",
    "traditionalCharacter": "鮫",
    "phonetic": "",
    "means": ["cá giao"],
    "name": "giao",
    "index": 10147
  },
  {
    "summary": "",
    "character": "鲜",
    "traditionalCharacter": "鮮",
    "phonetic": "tiển",
    "means": ["cá tươi", "sáng sủa", "ngon lành"],
    "name": "tiên",
    "index": 10148
  },
  {
    "summary": "",
    "character": "鲞",
    "traditionalCharacter": "鯗",
    "phonetic": "",
    "means": ["cá phơi khô"],
    "name": "tưởng",
    "index": 10149
  },
  {
    "summary": "",
    "character": "鲟",
    "traditionalCharacter": "鱘",
    "phonetic": "",
    "means": ["cá tầm (dài hơn một trượng)"],
    "name": "tầm",
    "index": 10150
  },
  {
    "summary": "",
    "character": "鲠",
    "traditionalCharacter": "鯁",
    "phonetic": "",
    "means": ["xương cá", "hóc xương", "người ngay thẳng không nịnh nọt"],
    "name": "ngạnh",
    "index": 10151
  },
  {
    "phonetic": "li",
    "means": ["(xem: man ly 鰻鱺,鳗鲡)"],
    "summary": "",
    "name": "ly",
    "character": "鲡",
    "index": 10152
  },
  {
    "summary": "",
    "character": "鲢",
    "traditionalCharacter": "鰱",
    "phonetic": "",
    "means": ["cá liên, cá mè"],
    "name": "liên",
    "index": 10153
  },
  {
    "phonetic": "",
    "summary": "",
    "traditionalCharacter": "鰹",
    "name": "kiên",
    "character": "鲣",
    "index": 10154
  },
  {
    "phonetic": "lí",
    "means": ["con cá chép"],
    "summary": "",
    "name": "lý",
    "character": "鲤",
    "index": 10155
  },
  {
    "summary": "",
    "character": "鲥",
    "traditionalCharacter": "鰣",
    "phonetic": "",
    "means": ["cá cháy"],
    "name": "thì",
    "index": 10156
  },
  {
    "summary": "",
    "character": "鲦",
    "traditionalCharacter": "鰷",
    "phonetic": "",
    "means": ["cá vền (mình trắng, dẹt)"],
    "name": "điều",
    "index": 10157
  },
  {
    "summary": "",
    "character": "鲧",
    "traditionalCharacter": "鯀",
    "phonetic": "",
    "means": ["cá lớn, cá to", "(tên riêng)"],
    "name": "cổn",
    "index": 10158
  },
  {
    "summary": "",
    "character": "鲨",
    "traditionalCharacter": "鯊",
    "phonetic": "",
    "means": ["cá nhám, cá mập"],
    "name": "sa",
    "index": 10159
  },
  {
    "phonetic": "",
    "means": ["cá trắm trắng, cá trắm cỏ"],
    "summary": "",
    "name": "cán",
    "character": "鲩",
    "index": 10160
  },
  {
    "summary": "",
    "character": "鲫",
    "traditionalCharacter": "鯽",
    "phonetic": "",
    "means": ["con cá diếc"],
    "name": "tức",
    "index": 10161
  },
  {
    "summary": "",
    "character": "鲭",
    "traditionalCharacter": "鯖",
    "phonetic": "thinh",
    "means": ["cá nấu lẫn với thịt", "cá đối"],
    "name": "chinh",
    "index": 10162
  },
  {
    "summary": "",
    "character": "鲮",
    "traditionalCharacter": "鯪",
    "phonetic": "",
    "means": ["cá lăng, cá đác"],
    "name": "lăng",
    "index": 10163
  },
  {
    "summary": "",
    "character": "鲰",
    "traditionalCharacter": "鯫",
    "phonetic": "",
    "means": ["con cá tép"],
    "name": "tưu",
    "index": 10165
  },
  {
    "phonetic": "",
    "means": ["cá lầm"],
    "summary": "",
    "name": "phi",
    "character": "鲱",
    "index": 10166
  },
  {
    "summary": "",
    "character": "鲲",
    "traditionalCharacter": "鯤",
    "phonetic": "",
    "means": ["con cá côn"],
    "name": "côn",
    "index": 10167
  },
  {
    "summary": "",
    "character": "鲳",
    "traditionalCharacter": "鯧",
    "phonetic": "",
    "means": ["con cá xương"],
    "name": "xương",
    "index": 10168
  },
  {
    "summary": "",
    "character": "鲵",
    "traditionalCharacter": "鯢",
    "phonetic": "",
    "means": ["cá kình, cá voi"],
    "name": "nghê",
    "index": 10170
  },
  {
    "summary": "",
    "character": "鲶",
    "traditionalCharacter": "鯰",
    "phonetic": "niềm",
    "means": ["cá măng, cá ngát, cá nheo, cá niêm"],
    "name": "niêm",
    "index": 10171
  },
  {
    "summary": "",
    "character": "鲷",
    "traditionalCharacter": "鯛",
    "phonetic": "",
    "means": ["con cá điêu"],
    "name": "điêu",
    "index": 10172
  },
  {
    "summary": "",
    "character": "鲸",
    "traditionalCharacter": "鯨",
    "phonetic": "",
    "means": ["cá kình, cá voi"],
    "name": "kình",
    "index": 10173
  },
  {
    "phonetic": "",
    "means": ["cá đuôi ó"],
    "summary": "",
    "name": "phẫn",
    "character": "鲼",
    "index": 10176
  },
  {
    "summary": "",
    "character": "鲽",
    "traditionalCharacter": "鰈",
    "phonetic": "",
    "means": ["cá điệp, cá bơn"],
    "name": "điệp",
    "index": 10177
  },
  {
    "summary": "",
    "character": "鳃",
    "traditionalCharacter": "鰓",
    "phonetic": "",
    "means": ["mang cá"],
    "name": "tai",
    "index": 10179
  },
  {
    "summary": "",
    "character": "鳄",
    "traditionalCharacter": "鱷",
    "phonetic": "",
    "means": ["con cá sấu"],
    "name": "ngạc",
    "index": 10180
  },
  {
    "phonetic": "",
    "summary": "",
    "traditionalCharacter": "鰍",
    "name": "thu",
    "character": "鳅",
    "index": 10181
  },
  {
    "summary": "",
    "character": "鳆",
    "traditionalCharacter": "鰒",
    "phonetic": "",
    "means": ["con hàu nhỏ"],
    "name": "phục",
    "index": 10182
  },
  {
    "summary": "",
    "character": "鳇",
    "traditionalCharacter": "鰉",
    "phonetic": "",
    "means": [
      "cá hoàng (dài tới 2 trượng, lưng có xương bọc như áo giáp, mũi dài, mỡ vàng)"
    ],
    "name": "hoàng",
    "index": 10183
  },
  {
    "summary": "",
    "character": "鳊",
    "traditionalCharacter": "鯿",
    "phonetic": "",
    "means": ["cá biên, cá mè"],
    "name": "biên",
    "index": 10184
  },
  {
    "summary": "",
    "character": "鳌",
    "traditionalCharacter": "鰲",
    "phonetic": "",
    "means": ["con ngao, con trạch"],
    "name": "ngao",
    "index": 10186
  },
  {
    "phonetic": "kì",
    "means": ["vây cá"],
    "summary": "",
    "name": "kỳ",
    "character": "鳍",
    "index": 10187
  },
  {
    "summary": "",
    "character": "鳎",
    "traditionalCharacter": "鰨",
    "phonetic": "",
    "means": ["cá bơn cát"],
    "name": "tháp",
    "index": 10188
  },
  {
    "summary": "",
    "character": "鳏",
    "traditionalCharacter": "鰥",
    "phonetic": "",
    "means": ["cá lớn", "người goá vợ"],
    "name": "quan",
    "index": 10189
  },
  {
    "summary": "",
    "character": "鳐",
    "traditionalCharacter": "鰩",
    "phonetic": "dao",
    "means": ["cá chuồn, cá bo (thứ cá hay chúi dưới bùn)"],
    "name": "diêu",
    "index": 10190
  },
  {
    "phonetic": "",
    "means": ["(xem: báng bì 鰟鮍,鳑鲏)"],
    "summary": "",
    "name": "bàng",
    "character": "鳑",
    "index": 10191
  },
  {
    "summary": "",
    "character": "鳓",
    "traditionalCharacter": "鰳",
    "phonetic": "",
    "means": ["cá lặc, cá bẹ dài"],
    "name": "lặc",
    "index": 10192
  },
  {
    "summary": "",
    "character": "鳔",
    "traditionalCharacter": "鰾",
    "phonetic": "",
    "means": ["cái bong bóng cá"],
    "name": "phiêu",
    "index": 10193
  },
  {
    "summary": "",
    "character": "鳕",
    "traditionalCharacter": "鱈",
    "phonetic": "",
    "means": ["cá tuyết, cá moruy"],
    "name": "tuyết",
    "index": 10194
  },
  {
    "phonetic": "miết",
    "means": ["con ba ba"],
    "summary": "",
    "name": "biết",
    "character": "鳖",
    "index": 10195
  },
  {
    "summary": "",
    "character": "鳗",
    "traditionalCharacter": "鰻",
    "phonetic": "",
    "means": ["(xem: man ly 鰻鱺,鳗鲡)"],
    "name": "man",
    "index": 10196
  },
  {
    "summary": "",
    "character": "鳘",
    "traditionalCharacter": "鰵",
    "phonetic": "",
    "means": ["cá sủ"],
    "name": "mẫn",
    "index": 10197
  },
  {
    "phonetic": "dong",
    "means": ["cá mè hoa"],
    "summary": "",
    "name": "dung",
    "character": "鳙",
    "index": 10198
  },
  {
    "summary": "",
    "character": "鳜",
    "traditionalCharacter": "鱖",
    "phonetic": "",
    "means": ["con cá rô"],
    "name": "quyết",
    "index": 10199
  },
  {
    "summary": "",
    "character": "鳝",
    "traditionalCharacter": "鱔",
    "phonetic": "",
    "means": ["con lươn"],
    "name": "thiện",
    "index": 10200
  },
  {
    "summary": "",
    "character": "鳞",
    "traditionalCharacter": "鱗",
    "phonetic": "",
    "means": ["vẩy cá, vảy cá", "xếp hàng lần lượt"],
    "name": "lân",
    "index": 10201
  },
  {
    "phonetic": "tỗn",
    "means": ["cá chầy, cá rói"],
    "summary": "",
    "name": "tôn",
    "character": "鳟",
    "index": 10202
  },
  {
    "summary": "",
    "character": "鳢",
    "traditionalCharacter": "鱧",
    "phonetic": "",
    "means": ["cá chuối, cá quả, cá lóc"],
    "name": "lễ",
    "index": 10203
  },
  {
    "phonetic": "thiện, triên",
    "means": [
      "con lươn",
      "cá chiên (một loại cá tầm, tên khoa học: acipenser mikadoi)"
    ],
    "summary": "",
    "name": "chiên",
    "character": "鳣",
    "index": 10204
  },
  {
    "phonetic": "",
    "means": ["con chim"],
    "summary": "",
    "name": "điểu",
    "character": "鳥",
    "index": 10205
  },
  {
    "phonetic": "",
    "means": ["vịt trời"],
    "summary": "",
    "name": "phù",
    "character": "鳧",
    "index": 10206
  },
  {
    "phonetic": "",
    "means": ["chim tu hú"],
    "summary": "",
    "name": "cưu",
    "character": "鳩",
    "index": 10207
  },
  {
    "phonetic": "phụng",
    "means": ["chim phượng hoàng (con đực)"],
    "summary": "",
    "name": "phượng",
    "character": "鳳",
    "index": 10208
  },
  {
    "phonetic": "ô",
    "means": ["hót (chim), gáy (gà)"],
    "summary": "",
    "name": "minh",
    "character": "鳴",
    "index": 10209
  },
  {
    "phonetic": "",
    "means": ["chim diều hâu"],
    "summary": "",
    "name": "diên",
    "character": "鳶",
    "index": 10210
  },
  {
    "phonetic": "quých",
    "means": ["chim bách thiệt (kêu được trăm thứ tiếng)"],
    "summary": "",
    "name": "quyết",
    "character": "鴂",
    "index": 10211
  },
  {
    "phonetic": "trấm, trậm",
    "means": ["loài chim độc", "rượu có độc"],
    "summary": "",
    "name": "chậm",
    "character": "鴆",
    "index": 10212
  },
  {
    "phonetic": "",
    "means": ["chim bảo (giống con mòng, tương truyền là giống rất dâm)"],
    "summary": "",
    "name": "bảo",
    "character": "鴇",
    "index": 10213
  },
  {
    "phonetic": "",
    "means": ["chim nhạn"],
    "summary": "",
    "name": "nhạn",
    "character": "鴈",
    "index": 10214
  },
  {
    "phonetic": "",
    "means": ["con quạ khoang", "màu đen"],
    "summary": "",
    "name": "nha",
    "character": "鴉",
    "index": 10215
  },
  {
    "phonetic": "",
    "means": ["(xem: tích linh 鶺鴒,鹡鸰)"],
    "summary": "",
    "name": "linh",
    "character": "鴒",
    "index": 10216
  },
  {
    "phonetic": "",
    "means": ["(xem: đà điểu 駝鳥,鸵鸟)"],
    "summary": "",
    "name": "đà",
    "character": "鴕",
    "index": 10218
  },
  {
    "phonetic": "",
    "means": ["con vịt đực"],
    "summary": "",
    "name": "uyên",
    "character": "鴛",
    "index": 10219
  },
  {
    "phonetic": "hiêu",
    "means": ["con vọ"],
    "summary": "",
    "name": "hào",
    "character": "鴞",
    "index": 10220
  },
  {
    "phonetic": "",
    "means": ["(như: giốc si 角鴟,角鸱)"],
    "summary": "",
    "name": "si",
    "character": "鴟",
    "index": 10221
  },
  {
    "phonetic": "",
    "means": ["chim cô"],
    "summary": "",
    "name": "cô",
    "character": "鴣",
    "index": 10222
  },
  {
    "phonetic": "",
    "means": ["con vịt cái"],
    "summary": "",
    "name": "ương",
    "character": "鴦",
    "index": 10223
  },
  {
    "phonetic": "",
    "means": ["con vịt"],
    "summary": "",
    "name": "áp",
    "character": "鴨",
    "index": 10224
  },
  {
    "phonetic": "",
    "means": ["(xem: ý nhi 鷾鴯)", "(xem: nhi miêu 鴯鶓,鸸鹋)"],
    "summary": "",
    "name": "nhi",
    "character": "鴯",
    "index": 10225
  },
  {
    "phonetic": "cốc, hộc",
    "means": ["(xem: thương quát 鶬鴰,鸧鸹)"],
    "summary": "",
    "name": "quát",
    "character": "鴰",
    "index": 10226
  },
  {
    "phonetic": "",
    "means": ["chim choi choi"],
    "summary": "",
    "name": "hằng",
    "character": "鴴",
    "index": 10227
  },
  {
    "phonetic": "",
    "means": ["chim hồng", "chữ, thư tín", "to, lớn"],
    "summary": "",
    "name": "hồng",
    "character": "鴻",
    "index": 10228
  },
  {
    "phonetic": "",
    "means": ["chim bồ câu"],
    "summary": "",
    "name": "cáp",
    "character": "鴿",
    "index": 10229
  },
  {
    "phonetic": "",
    "means": ["(xem: hưu lưu 鵂鶹,鸺鹠)"],
    "summary": "",
    "name": "hưu",
    "character": "鵂",
    "index": 10230
  },
  {
    "phonetic": "",
    "means": ["con chim cuốc"],
    "summary": "",
    "name": "quyên",
    "character": "鵑",
    "index": 10231
  },
  {
    "phonetic": "",
    "means": ["(xem: cù dục 鴝鵒,鸜鵒,鸲鹆)"],
    "summary": "",
    "name": "dục",
    "character": "鵒",
    "index": 10232
  },
  {
    "phonetic": "",
    "means": ["(xem: bột cáp 鵓鴿,鹁鸽)"],
    "summary": "",
    "name": "bột",
    "character": "鵓",
    "index": 10233
  },
  {
    "phonetic": "",
    "means": ["(xem: đề hồ 鵜鶘,鹈鹕)"],
    "summary": "",
    "name": "đề",
    "character": "鵜",
    "index": 10234
  },
  {
    "phonetic": "",
    "means": ["con ngỗng"],
    "summary": "",
    "name": "nga",
    "character": "鵝",
    "index": 10235
  },
  {
    "phonetic": "cốc",
    "means": ["chim hộc, ngỗng trời"],
    "summary": "",
    "name": "hộc",
    "character": "鵠",
    "index": 10236
  },
  {
    "phonetic": "",
    "means": ["con vẹt"],
    "summary": "",
    "name": "vũ",
    "character": "鵡",
    "index": 10237
  },
  {
    "phonetic": "",
    "means": ["chim cút"],
    "summary": "",
    "name": "am",
    "character": "鵪",
    "index": 10238
  },
  {
    "phonetic": "",
    "means": ["chim đại bàng"],
    "summary": "",
    "name": "bằng",
    "character": "鵬",
    "index": 10239
  },
  {
    "phonetic": "",
    "means": ["chim diều hâu, con kên kên"],
    "summary": "",
    "name": "điêu",
    "character": "鵰",
    "index": 10241
  },
  {
    "phonetic": "",
    "means": ["chim hỉ thước, chim khách, chim bồ các"],
    "summary": "",
    "name": "thước",
    "character": "鵲",
    "index": 10242
  },
  {
    "phonetic": "",
    "means": ["(xem: côn kê 鵾雞,鹍鸡)"],
    "summary": "",
    "name": "côn",
    "character": "鵾",
    "index": 10243
  },
  {
    "phonetic": "",
    "means": ["con quạ"],
    "summary": "",
    "name": "đông",
    "character": "鶇",
    "index": 10244
  },
  {
    "phonetic": "",
    "means": ["(xem: am thuần 鵪鶉,鹌鹑)"],
    "summary": "",
    "name": "thuần",
    "character": "鶉",
    "index": 10245
  },
  {
    "phonetic": "",
    "means": ["(xem: thương canh 鶬鶊,鸧鹒)"],
    "summary": "",
    "name": "canh",
    "character": "鶊",
    "index": 10246
  },
  {
    "phonetic": "",
    "means": ["(xem: nhi miêu 鴯鶓,鸸鹋)"],
    "summary": "",
    "name": "miêu",
    "character": "鶓",
    "index": 10247
  },
  {
    "phonetic": "",
    "means": ["cò già (một loài chim nước)"],
    "summary": "",
    "name": "thu",
    "character": "鶖",
    "index": 10248
  },
  {
    "phonetic": "",
    "means": ["(xem: đề hồ 鵜鶘,鹈鹕)"],
    "summary": "",
    "name": "hồ",
    "character": "鶘",
    "index": 10249
  },
  {
    "phonetic": "",
    "means": ["chim ngạc (mỏ ngắn, sống ở mặt nước, bắt tôm cá)"],
    "summary": "",
    "name": "ngạc",
    "character": "鶚",
    "index": 10250
  },
  {
    "phonetic": "",
    "means": ["con vịt trời"],
    "summary": "",
    "name": "vụ",
    "character": "鶩",
    "index": 10251
  },
  {
    "phonetic": "",
    "means": ["(xem: thương quát 鶬鴰,鸧鸹)"],
    "summary": "",
    "name": "thương",
    "character": "鶬",
    "index": 10252
  },
  {
    "phonetic": "",
    "means": ["chim oanh"],
    "summary": "",
    "name": "oanh",
    "character": "鶯",
    "index": 10253
  },
  {
    "phonetic": "",
    "means": ["chim hạc, con sếu"],
    "summary": "",
    "name": "hạc",
    "character": "鶴",
    "index": 10254
  },
  {
    "phonetic": "",
    "means": ["(xem: hưu lưu 鵂鶹,鸺鹠)"],
    "summary": "",
    "name": "lưu",
    "character": "鶹",
    "index": 10255
  },
  {
    "phonetic": "",
    "means": ["(xem: tích linh 鶺鴒,鹡鸰)"],
    "summary": "",
    "name": "tích",
    "character": "鶺",
    "index": 10256
  },
  {
    "phonetic": "hoạt",
    "means": ["(một loài chim hung ác)"],
    "summary": "",
    "name": "cốt",
    "character": "鶻",
    "index": 10257
  },
  {
    "phonetic": "",
    "means": ["(xem: kiêm kiêm 鶼鶼,鹣鹣)"],
    "summary": "",
    "name": "kiêm",
    "character": "鶼",
    "index": 10258
  },
  {
    "phonetic": "từ",
    "means": ["(xem: lô tư 鸕鷀,鸕鷥,鸬鷀,鸬鸶)"],
    "summary": "",
    "name": "tư",
    "character": "鷀",
    "index": 10259
  },
  {
    "phonetic": "dao, diệu",
    "means": ["diều mướp, diều hâu, chim diêu"],
    "summary": "",
    "name": "diêu",
    "character": "鷂",
    "index": 10260
  },
  {
    "phonetic": "",
    "means": ["con gà"],
    "summary": "",
    "name": "kê",
    "character": "鷄",
    "index": 10261
  },
  {
    "phonetic": "",
    "means": ["tịch đề 鸊鷈: giống vịt trời nhưng nhỏ hơn"],
    "summary": "",
    "name": "đề",
    "character": "鷈",
    "index": 10262
  },
  {
    "phonetic": "",
    "means": ["như chữ 鷈"],
    "summary": "",
    "name": "đề",
    "character": "鷉",
    "index": 10263
  },
  {
    "phonetic": "gia, giá",
    "means": ["(xem: chá cô 鷓鴣,鹧鸪)"],
    "summary": "",
    "name": "chá",
    "character": "鷓",
    "index": 10264
  },
  {
    "phonetic": "",
    "means": ["chim hải âu, con cò biển"],
    "summary": "",
    "name": "âu",
    "character": "鷗",
    "index": 10265
  },
  {
    "phonetic": "",
    "means": ["(một loài chim dữ)"],
    "summary": "",
    "name": "chí",
    "character": "鷙",
    "index": 10266
  },
  {
    "phonetic": "",
    "means": ["(xem: tiêu liêu 鷦鷯,鹪鹩)"],
    "summary": "",
    "name": "tiêu",
    "character": "鷦",
    "index": 10267
  },
  {
    "phonetic": "",
    "means": [
      "một loài thiên nga rừng",
      "chim thần ở hướng tây (theo truyền thuyết)"
    ],
    "summary": "",
    "name": "túc",
    "character": "鷫",
    "index": 10268
  },
  {
    "phonetic": "",
    "means": ["(xem: tiêu liêu 鷦鷯,鹪鹩)"],
    "summary": "",
    "name": "liêu",
    "character": "鷯",
    "index": 10269
  },
  {
    "phonetic": "tựu",
    "means": ["chim kên kên"],
    "summary": "",
    "name": "thứu",
    "character": "鷲",
    "index": 10270
  },
  {
    "phonetic": "thuật",
    "means": ["chim dẽ giun"],
    "summary": "",
    "name": "duật",
    "character": "鷸",
    "index": 10271
  },
  {
    "phonetic": "",
    "means": ["chim cú mèo"],
    "summary": "",
    "name": "ưng",
    "character": "鷹",
    "index": 10272
  },
  {
    "phonetic": "",
    "means": ["con cò"],
    "summary": "",
    "name": "lộ",
    "character": "鷺",
    "index": 10273
  },
  {
    "phonetic": "",
    "means": ["một loại chim thường bơi thành bầy trên mặt nước, nhỏ hơn vịt"],
    "summary": "",
    "name": "tịch",
    "character": "鷿",
    "index": 10274
  },
  {
    "phonetic": "",
    "means": ["(xem: khê xích 鸂鶒)"],
    "summary": "",
    "name": "khê",
    "character": "鸂",
    "index": 10275
  },
  {
    "phonetic": "",
    "means": ["một loại chim thường bơi thành bầy trên mặt nước, nhỏ hơn vịt"],
    "summary": "",
    "name": "tịch",
    "character": "鸊",
    "index": 10276
  },
  {
    "phonetic": "",
    "means": ["(xem: lô tư 鸕鷀,鸕鷥,鸬鸬,鸬鸶)"],
    "summary": "",
    "name": "lô",
    "character": "鸕",
    "index": 10277
  },
  {
    "phonetic": "",
    "means": ["(xem: sương cưu 鷞鳩,鹴鸠; túc sương 鷫鷞,鹔鹴)"],
    "summary": "",
    "name": "sương",
    "character": "鸘",
    "index": 10278
  },
  {
    "phonetic": "",
    "means": ["(xem: anh vũ 鸚鵡,鹦鹉)"],
    "summary": "",
    "name": "anh",
    "character": "鸚",
    "index": 10279
  },
  {
    "phonetic": "li",
    "means": ["chim vàng anh"],
    "summary": "",
    "name": "ly",
    "character": "鸝",
    "index": 10280
  },
  {
    "phonetic": "",
    "means": ["chim phượng cái", "cái chuông nhỏ"],
    "summary": "",
    "name": "loan",
    "character": "鸞",
    "index": 10281
  },
  {
    "summary": "",
    "character": "鸟",
    "traditionalCharacter": "鳥",
    "phonetic": "",
    "means": ["con chim"],
    "name": "điểu",
    "index": 10282
  },
  {
    "summary": "",
    "character": "鸠",
    "traditionalCharacter": "鳩",
    "phonetic": "",
    "means": ["chim tu hú"],
    "name": "cưu",
    "index": 10283
  },
  {
    "summary": "",
    "character": "鸡",
    "traditionalCharacter": "鷄",
    "phonetic": "",
    "means": ["con gà"],
    "name": "kê",
    "index": 10284
  },
  {
    "summary": "",
    "character": "鸢",
    "traditionalCharacter": "鳶",
    "phonetic": "",
    "means": ["chim diều hâu"],
    "name": "diên",
    "index": 10285
  },
  {
    "summary": "",
    "character": "鸣",
    "traditionalCharacter": "鳴",
    "phonetic": "",
    "means": ["hót (chim), gáy (gà)"],
    "name": "minh",
    "index": 10286
  },
  {
    "summary": "",
    "character": "鸥",
    "traditionalCharacter": "鷗",
    "phonetic": "",
    "means": ["chim hải âu, con cò biển"],
    "name": "âu",
    "index": 10287
  },
  {
    "summary": "",
    "character": "鸦",
    "traditionalCharacter": "鴉",
    "phonetic": "",
    "means": ["con quạ khoang", "màu đen"],
    "name": "nha",
    "index": 10288
  },
  {
    "phonetic": "",
    "means": ["(xem: thương quát 鶬鴰,鸧鸹)"],
    "summary": "",
    "name": "thương",
    "character": "鸧",
    "index": 10289
  },
  {
    "summary": "",
    "character": "鸨",
    "traditionalCharacter": "鴇",
    "phonetic": "",
    "means": ["chim bảo (giống con mòng, tương truyền là giống rất dâm)"],
    "name": "bảo",
    "index": 10290
  },
  {
    "summary": "",
    "character": "鸩",
    "traditionalCharacter": "鴆",
    "phonetic": "trậm",
    "means": ["loài chim độc", "rượu có độc"],
    "name": "chậm",
    "index": 10291
  },
  {
    "summary": "",
    "character": "鸪",
    "traditionalCharacter": "鴣",
    "phonetic": "",
    "means": ["chim cô"],
    "name": "cô",
    "index": 10292
  },
  {
    "phonetic": "",
    "means": ["con quạ"],
    "summary": "",
    "name": "đông",
    "character": "鸫",
    "index": 10293
  },
  {
    "summary": "",
    "character": "鸬",
    "traditionalCharacter": "鸕",
    "phonetic": "",
    "means": ["(xem: lô tư 鸕鷀,鸕鷥,鸬鸬,鸬鸶)"],
    "name": "lô",
    "index": 10294
  },
  {
    "summary": "",
    "character": "鸭",
    "traditionalCharacter": "鴨",
    "phonetic": "",
    "means": ["con vịt"],
    "name": "áp",
    "index": 10295
  },
  {
    "summary": "",
    "character": "鸮",
    "traditionalCharacter": "鴞",
    "phonetic": "",
    "means": ["con vọ"],
    "name": "hào",
    "index": 10296
  },
  {
    "summary": "",
    "character": "鸯",
    "traditionalCharacter": "鴦",
    "phonetic": "",
    "means": ["con vịt cái"],
    "name": "ương",
    "index": 10297
  },
  {
    "summary": "",
    "character": "鸰",
    "traditionalCharacter": "鴒",
    "phonetic": "",
    "means": ["(xem: tích linh 鶺鴒,鹡鸰)"],
    "name": "linh",
    "index": 10298
  },
  {
    "summary": "",
    "character": "鸱",
    "traditionalCharacter": "鴟",
    "phonetic": "",
    "means": ["(như: giốc si 角鴟,角鸱)"],
    "name": "si",
    "index": 10299
  },
  {
    "summary": "",
    "character": "鸲",
    "traditionalCharacter": "鴝",
    "phonetic": "",
    "means": ["(xem: cù dục 鴝鵒,鸜鵒,鸲鹆)"],
    "name": "cù",
    "index": 10300
  },
  {
    "summary": "",
    "character": "鸳",
    "traditionalCharacter": "鴛",
    "phonetic": "",
    "means": ["con vịt đực"],
    "name": "uyên",
    "index": 10301
  },
  {
    "summary": "",
    "character": "鸵",
    "traditionalCharacter": "鴕",
    "phonetic": "",
    "means": ["(xem: đà điểu 駝鳥,鸵鸟)"],
    "name": "đà",
    "index": 10302
  },
  {
    "summary": "",
    "character": "鸶",
    "traditionalCharacter": "鷥",
    "phonetic": "ty",
    "means": ["(xem: lô tư 鸕鷀,鸕鷥,鸬鷀,鸬鸶)"],
    "name": "tư",
    "index": 10303
  },
  {
    "summary": "",
    "character": "鸷",
    "traditionalCharacter": "鷙",
    "phonetic": "",
    "means": ["(một loài chim dữ)"],
    "name": "chí",
    "index": 10304
  },
  {
    "summary": "",
    "character": "鸸",
    "traditionalCharacter": "鴯",
    "phonetic": "",
    "means": ["(xem: ý nhi 鷾鴯)", "(xem: nhi miêu 鴯鶓,鸸鹋)"],
    "name": "nhi",
    "index": 10305
  },
  {
    "summary": "",
    "character": "鸹",
    "traditionalCharacter": "鴰",
    "phonetic": "cốc, hộc",
    "means": ["(xem: thương quát 鶬鴰,鸧鸹)"],
    "name": "quát",
    "index": 10306
  },
  {
    "summary": "",
    "character": "鸺",
    "traditionalCharacter": "鵂",
    "phonetic": "",
    "means": ["(xem: hưu lưu 鵂鶹,鸺鹠)"],
    "name": "hưu",
    "index": 10307
  },
  {
    "phonetic": "",
    "means": ["chim choi choi"],
    "summary": "",
    "name": "hằng",
    "character": "鸻",
    "index": 10308
  },
  {
    "summary": "",
    "character": "鸽",
    "traditionalCharacter": "鴿",
    "phonetic": "",
    "means": ["chim bồ câu"],
    "name": "cáp",
    "index": 10309
  },
  {
    "summary": "",
    "character": "鸾",
    "traditionalCharacter": "鸞",
    "phonetic": "",
    "means": ["chim phượng cái", "cái chuông nhỏ"],
    "name": "loan",
    "index": 10310
  },
  {
    "summary": "",
    "character": "鸿",
    "traditionalCharacter": "鴻",
    "phonetic": "",
    "means": ["chim hồng", "chữ, thư tín", "to, lớn"],
    "name": "hồng",
    "index": 10311
  },
  {
    "summary": "",
    "character": "鹁",
    "traditionalCharacter": "鵓",
    "phonetic": "",
    "means": ["(xem: bột cáp 鵓鴿,鹁鸽)"],
    "name": "bột",
    "index": 10312
  },
  {
    "phonetic": "li",
    "means": ["chim vàng anh"],
    "summary": "",
    "name": "ly",
    "character": "鹂",
    "index": 10313
  },
  {
    "summary": "",
    "character": "鹃",
    "traditionalCharacter": "鵑",
    "phonetic": "",
    "means": ["con chim cuốc"],
    "name": "quyên",
    "index": 10314
  },
  {
    "summary": "",
    "character": "鹄",
    "traditionalCharacter": "鵠",
    "phonetic": "cốc",
    "means": ["chim hộc, ngỗng trời"],
    "name": "hộc",
    "index": 10315
  },
  {
    "summary": "",
    "character": "鹅",
    "traditionalCharacter": "鵝",
    "phonetic": "",
    "means": ["con ngỗng"],
    "name": "nga",
    "index": 10316
  },
  {
    "summary": "",
    "character": "鹆",
    "traditionalCharacter": "鵒",
    "phonetic": "",
    "means": ["(xem: cù dục 鴝鵒,鸜鵒,鸲鹆)"],
    "name": "dục",
    "index": 10317
  },
  {
    "summary": "",
    "character": "鹇",
    "traditionalCharacter": "鷳",
    "phonetic": "",
    "means": ["con gà lôi"],
    "name": "nhàn",
    "index": 10318
  },
  {
    "summary": "",
    "character": "鹈",
    "traditionalCharacter": "鵜",
    "phonetic": "",
    "means": ["(xem: đề hồ 鵜鶘,鹈鹕)"],
    "name": "đề",
    "index": 10319
  },
  {
    "summary": "",
    "character": "鹉",
    "traditionalCharacter": "鵡",
    "phonetic": "",
    "means": ["con vẹt"],
    "name": "vũ",
    "index": 10320
  },
  {
    "summary": "",
    "character": "鹊",
    "traditionalCharacter": "鵲",
    "phonetic": "",
    "means": ["chim hỉ thước, chim khách, chim bồ các"],
    "name": "thước",
    "index": 10321
  },
  {
    "phonetic": "",
    "means": ["(xem: nhi miêu 鴯鶓,鸸鹋)"],
    "summary": "",
    "name": "miêu",
    "character": "鹋",
    "index": 10322
  },
  {
    "summary": "",
    "character": "鹌",
    "traditionalCharacter": "鵪",
    "phonetic": "",
    "means": ["chim cút"],
    "name": "am",
    "index": 10323
  },
  {
    "summary": "",
    "character": "鹍",
    "traditionalCharacter": "鵾",
    "phonetic": "",
    "means": ["(xem: côn kê 鵾雞,鹍鸡)"],
    "name": "côn",
    "index": 10324
  },
  {
    "summary": "",
    "character": "鹏",
    "traditionalCharacter": "鵬",
    "phonetic": "",
    "means": ["chim đại bàng"],
    "name": "bằng",
    "index": 10326
  },
  {
    "summary": "",
    "character": "鹑",
    "traditionalCharacter": "鶉",
    "phonetic": "",
    "means": ["(xem: am thuần 鵪鶉,鹌鹑)"],
    "name": "thuần",
    "index": 10327
  },
  {
    "summary": "",
    "character": "鹒",
    "traditionalCharacter": "鶊",
    "phonetic": "",
    "means": ["(xem: thương canh 鶬鶊,鸧鹒)"],
    "name": "canh",
    "index": 10328
  },
  {
    "summary": "",
    "character": "鹔",
    "traditionalCharacter": "鷫",
    "phonetic": "",
    "means": [
      "một loài thiên nga rừng",
      "chim thần ở hướng tây (theo truyền thuyết)"
    ],
    "name": "túc",
    "index": 10329
  },
  {
    "summary": "",
    "character": "鹕",
    "traditionalCharacter": "鶘",
    "phonetic": "",
    "means": ["(xem: đề hồ 鵜鶘,鹈鹕)"],
    "name": "hồ",
    "index": 10330
  },
  {
    "summary": "",
    "character": "鹗",
    "traditionalCharacter": "鶚",
    "phonetic": "",
    "means": ["chim ngạc (mỏ ngắn, sống ở mặt nước, bắt tôm cá)"],
    "name": "ngạc",
    "index": 10331
  },
  {
    "summary": "",
    "character": "鹘",
    "traditionalCharacter": "鶻",
    "phonetic": "hốt",
    "means": ["(một loài chim hung ác)"],
    "name": "cốt",
    "index": 10332
  },
  {
    "phonetic": "",
    "means": ["cò già (một loài chim nước)"],
    "summary": "",
    "name": "thu",
    "character": "鹙",
    "index": 10333
  },
  {
    "summary": "",
    "character": "鹚",
    "traditionalCharacter": "鷀",
    "phonetic": "từ",
    "means": ["(xem: lô tư 鸕鷀,鸕鷥,鸬鷀,鸬鸶)"],
    "name": "tư",
    "index": 10334
  },
  {
    "summary": "",
    "character": "鹜",
    "traditionalCharacter": "鶩",
    "phonetic": "",
    "means": ["con vịt trời"],
    "name": "vụ",
    "index": 10336
  },
  {
    "summary": "",
    "character": "鹞",
    "traditionalCharacter": "鷂",
    "phonetic": "",
    "means": ["diều mướp, diều hâu, chim diêu"],
    "name": "diêu",
    "index": 10337
  },
  {
    "summary": "",
    "character": "鹠",
    "traditionalCharacter": "鶹",
    "phonetic": "",
    "means": ["(xem: hưu lưu 鵂鶹,鸺鹠)"],
    "name": "lưu",
    "index": 10338
  },
  {
    "summary": "",
    "character": "鹡",
    "traditionalCharacter": "鶺",
    "phonetic": "",
    "means": ["(xem: tích linh 鶺鴒,鹡鸰)"],
    "name": "tích",
    "index": 10339
  },
  {
    "summary": "",
    "character": "鹣",
    "traditionalCharacter": "鶼",
    "phonetic": "",
    "means": ["(xem: kiêm kiêm 鶼鶼,鹣鹣)"],
    "name": "kiêm",
    "index": 10340
  },
  {
    "summary": "",
    "character": "鹤",
    "traditionalCharacter": "鶴",
    "phonetic": "",
    "means": ["chim hạc, con sếu"],
    "name": "hạc",
    "index": 10341
  },
  {
    "summary": "",
    "character": "鹦",
    "traditionalCharacter": "鸚",
    "phonetic": "",
    "means": ["(xem: anh vũ 鸚鵡,鹦鹉)"],
    "name": "anh",
    "index": 10342
  },
  {
    "summary": "",
    "character": "鹧",
    "traditionalCharacter": "鷓",
    "phonetic": "gia, giá",
    "means": ["(xem: chá cô 鷓鴣,鹧鸪)"],
    "name": "chá",
    "index": 10343
  },
  {
    "summary": "",
    "character": "鹩",
    "traditionalCharacter": "鷯",
    "phonetic": "",
    "means": ["(xem: tiêu liêu 鷦鷯,鹪鹩)"],
    "name": "liêu",
    "index": 10345
  },
  {
    "summary": "",
    "character": "鹪",
    "traditionalCharacter": "鷦",
    "phonetic": "",
    "means": ["(xem: tiêu liêu 鷦鷯,鹪鹩)"],
    "name": "tiêu",
    "index": 10346
  },
  {
    "summary": "",
    "character": "鹫",
    "traditionalCharacter": "鷲",
    "phonetic": "",
    "means": ["chim kên kên"],
    "name": "thứu",
    "index": 10347
  },
  {
    "summary": "",
    "character": "鹬",
    "traditionalCharacter": "鷸",
    "phonetic": "",
    "means": ["chim dẽ giun"],
    "name": "duật",
    "index": 10348
  },
  {
    "summary": "",
    "character": "鹭",
    "traditionalCharacter": "鷺",
    "phonetic": "",
    "means": ["con cò"],
    "name": "lộ",
    "index": 10349
  },
  {
    "summary": "",
    "character": "鹰",
    "traditionalCharacter": "鷹",
    "phonetic": "",
    "means": ["chim cú mèo"],
    "name": "ưng",
    "index": 10351
  },
  {
    "summary": "",
    "character": "鹳",
    "traditionalCharacter": "鸛",
    "phonetic": "",
    "means": ["chim khoang, chim quán"],
    "name": "quán",
    "index": 10353
  },
  {
    "phonetic": "",
    "means": ["(xem: sương cưu 鷞鳩,鹴鸠; túc sương 鷫鷞,鹔鹴)"],
    "summary": "",
    "name": "sương",
    "character": "鹴",
    "index": 10354
  },
  {
    "phonetic": "",
    "means": ["đất mặn", "mỏ muối"],
    "summary": "",
    "name": "lỗ",
    "character": "鹵",
    "index": 10355
  },
  {
    "phonetic": "giảm",
    "means": ["mặn, vị mặn"],
    "summary": "",
    "name": "hàm",
    "character": "鹹",
    "index": 10356
  },
  {
    "phonetic": "giảm, kiềm, kiểm, thiêm",
    "means": [
      "chất kiềm, chất dảm (trong đất, như xà phòng, dùng để giặt), bazơ"
    ],
    "summary": "",
    "name": "dảm",
    "character": "鹼",
    "index": 10357
  },
  {
    "phonetic": "diễm",
    "means": ["muối ăn"],
    "summary": "",
    "name": "diêm",
    "character": "鹽",
    "index": 10358
  },
  {
    "summary": "",
    "character": "鹾",
    "traditionalCharacter": "鹺",
    "phonetic": "",
    "means": ["mặn, vị mặn"],
    "name": "ta",
    "index": 10359
  },
  {
    "phonetic": "",
    "means": ["con hươu"],
    "summary": "",
    "name": "lộc",
    "character": "鹿",
    "index": 10360
  },
  {
    "phonetic": "kỉ",
    "means": ["con hoẵng"],
    "summary": "",
    "name": "kỷ",
    "character": "麂",
    "index": 10361
  },
  {
    "phonetic": "biều, phiếu, tiêu",
    "means": ["con nai"],
    "summary": "",
    "name": "bào",
    "character": "麃",
    "index": 10362
  },
  {
    "phonetic": "khổn, quân, quần",
    "means": ["tụ tập thành đàn"],
    "summary": "",
    "name": "khuân",
    "character": "麇",
    "index": 10363
  },
  {
    "phonetic": "",
    "means": ["một loài thú giống con nai"],
    "summary": "",
    "name": "chủ",
    "character": "麈",
    "index": 10364
  },
  {
    "phonetic": "mi",
    "means": ["con nai"],
    "summary": "",
    "name": "my",
    "character": "麋",
    "index": 10365
  },
  {
    "phonetic": "kì",
    "means": ["(xem: kỳ lân 麒麟)"],
    "summary": "",
    "name": "kỳ",
    "character": "麒",
    "index": 10366
  },
  {
    "phonetic": "",
    "means": ["chân núi"],
    "summary": "",
    "name": "lộc",
    "character": "麓",
    "index": 10367
  },
  {
    "phonetic": "ly",
    "means": ["đẹp đẽ", "dính, bám"],
    "summary": "",
    "name": "lệ",
    "character": "麗",
    "index": 10368
  },
  {
    "phonetic": "",
    "means": ["con hươu xạ"],
    "summary": "",
    "name": "xạ",
    "character": "麝",
    "index": 10369
  },
  {
    "phonetic": "",
    "means": ["con kỳ lân (như: kỳ lân 麒麟)"],
    "summary": "",
    "name": "lân",
    "character": "麟",
    "index": 10370
  },
  {
    "phonetic": "",
    "means": ["lúa tẻ"],
    "summary": "",
    "name": "mạch",
    "character": "麥",
    "index": 10371
  },
  {
    "summary": "",
    "character": "麦",
    "traditionalCharacter": "麥",
    "phonetic": "",
    "means": ["lúa tẻ"],
    "name": "mạch",
    "index": 10372
  },
  {
    "phonetic": "",
    "means": ["trấu (vỏ hạt thóc)"],
    "summary": "",
    "name": "phu",
    "character": "麩",
    "index": 10373
  },
  {
    "phonetic": "",
    "means": ["men rượu"],
    "summary": "",
    "name": "khúc",
    "character": "麯",
    "index": 10374
  },
  {
    "phonetic": "",
    "means": ["men rượu"],
    "summary": "",
    "name": "khúc",
    "character": "麴",
    "index": 10375
  },
  {
    "phonetic": "",
    "means": ["bột gạo, sợi miến"],
    "summary": "",
    "name": "miến",
    "character": "麵",
    "index": 10376
  },
  {
    "summary": "",
    "character": "麸",
    "traditionalCharacter": "麩",
    "phonetic": "",
    "means": ["trấu (vỏ hạt thóc)"],
    "name": "phu",
    "index": 10377
  },
  {
    "phonetic": "",
    "means": ["cây gai"],
    "summary": "",
    "name": "ma",
    "character": "麻",
    "index": 10378
  },
  {
    "phonetic": "",
    "means": ["bé nhỏ", "vậy (trợ ngữ)"],
    "summary": "",
    "name": "ma",
    "character": "麼",
    "index": 10379
  },
  {
    "phonetic": "yêu",
    "means": ["bé nhỏ", "vậy (trợ ngữ)"],
    "summary": "",
    "name": "ma",
    "character": "麽",
    "index": 10380
  },
  {
    "phonetic": "",
    "means": ["lá cờ", "chỉ huy"],
    "summary": "",
    "name": "huy",
    "character": "麾",
    "index": 10381
  },
  {
    "phonetic": "huỳnh",
    "means": ["vàng, màu vàng"],
    "summary": "",
    "name": "hoàng",
    "character": "黃",
    "index": 10383
  },
  {
    "phonetic": "huỳnh",
    "means": ["vàng, màu vàng"],
    "summary": "",
    "name": "hoàng",
    "character": "黄",
    "index": 10384
  },
  {
    "summary": "",
    "character": "黉",
    "traditionalCharacter": "黌",
    "phonetic": "",
    "means": ["trường học"],
    "name": "huỳnh",
    "index": 10385
  },
  {
    "phonetic": "",
    "means": ["lúa nếp"],
    "summary": "",
    "name": "thử",
    "character": "黍",
    "index": 10386
  },
  {
    "phonetic": "",
    "means": ["đám đông", "họ Lê"],
    "summary": "",
    "name": "lê",
    "character": "黎",
    "index": 10387
  },
  {
    "phonetic": "",
    "means": ["chất dính", "dán vào"],
    "summary": "",
    "name": "niêm",
    "character": "黏",
    "index": 10388
  },
  {
    "phonetic": "",
    "means": ["đen, màu đen"],
    "summary": "",
    "name": "hắc",
    "character": "黑",
    "index": 10389
  },
  {
    "phonetic": "",
    "means": ["đen", "họ Kiềm"],
    "summary": "",
    "name": "kiềm",
    "character": "黔",
    "index": 10390
  },
  {
    "phonetic": "",
    "means": ["lặng yên"],
    "summary": "",
    "name": "mặc",
    "character": "默",
    "index": 10391
  },
  {
    "phonetic": "",
    "means": ["thuốc vẽ lông mày (trang điểm)"],
    "summary": "",
    "name": "đại",
    "character": "黛",
    "index": 10392
  },
  {
    "phonetic": "",
    "means": ["cách chức, phế truất"],
    "summary": "",
    "name": "truất",
    "character": "黜",
    "index": 10393
  },
  {
    "phonetic": "",
    "means": ["màu xanh đen"],
    "summary": "",
    "name": "ửu",
    "character": "黝",
    "index": 10394
  },
  {
    "phonetic": "",
    "means": ["điểm, chấm, nốt, giờ"],
    "summary": "",
    "name": "điểm",
    "character": "點",
    "index": 10395
  },
  {
    "phonetic": "",
    "means": ["gỗ đen"],
    "summary": "",
    "name": "y",
    "character": "黟",
    "index": 10396
  },
  {
    "phonetic": "",
    "means": ["sáng suốt, thông minh"],
    "summary": "",
    "name": "hiệt",
    "character": "黠",
    "index": 10397
  },
  {
    "phonetic": "",
    "means": ["thích vào, khắc vào"],
    "summary": "",
    "name": "kình",
    "character": "黥",
    "index": 10399
  },
  {
    "phonetic": "",
    "means": ["màu đen xạm"],
    "summary": "",
    "name": "lê",
    "character": "黧",
    "index": 10400
  },
  {
    "phonetic": "chưởng",
    "means": ["bè, đảng"],
    "summary": "",
    "name": "đảng",
    "character": "黨",
    "index": 10401
  },
  {
    "summary": "",
    "character": "黩",
    "traditionalCharacter": "黷",
    "phonetic": "",
    "means": ["nhàm chán"],
    "name": "độc",
    "index": 10402
  },
  {
    "phonetic": "",
    "means": ["màu đen sẫm", "tối"],
    "summary": "",
    "name": "ảm",
    "character": "黯",
    "index": 10404
  },
  {
    "phonetic": "mi, môi, vi, vy",
    "means": ["mốc, meo, nấm"],
    "summary": "",
    "name": "my",
    "character": "黴",
    "index": 10405
  },
  {
    "phonetic": "",
    "means": ["nhàm chán"],
    "summary": "",
    "name": "độc",
    "character": "黷",
    "index": 10406
  },
  {
    "phonetic": "",
    "means": ["may áo"],
    "summary": "",
    "name": "chỉ",
    "character": "黹",
    "index": 10407
  },
  {
    "phonetic": "",
    "means": ["áo lễ phục"],
    "summary": "",
    "name": "phất",
    "character": "黻",
    "index": 10408
  },
  {
    "phonetic": "",
    "means": ["áo lễ phục"],
    "summary": "",
    "name": "phủ",
    "character": "黼",
    "index": 10409
  },
  {
    "phonetic": "miễn, mẫn",
    "means": ["cố gắng"],
    "summary": "",
    "name": "mãnh",
    "character": "黽",
    "index": 10410
  },
  {
    "summary": "",
    "character": "黾",
    "traditionalCharacter": "黽",
    "phonetic": "mẫn",
    "means": ["cố gắng"],
    "name": "mãnh",
    "index": 10411
  },
  {
    "phonetic": "nguyên",
    "means": ["con ba ba"],
    "summary": "",
    "name": "ngoan",
    "character": "黿",
    "index": 10412
  },
  {
    "phonetic": "triêu, trào",
    "means": ["họ Trào"],
    "summary": "",
    "name": "triều",
    "character": "鼂",
    "index": 10413
  },
  {
    "phonetic": "",
    "means": ["con kỳ đà"],
    "summary": "",
    "name": "đà",
    "character": "鼉",
    "index": 10414
  },
  {
    "summary": "",
    "character": "鼋",
    "traditionalCharacter": "黿",
    "phonetic": "nguyên",
    "means": ["con ba ba"],
    "name": "ngoan",
    "index": 10415
  },
  {
    "summary": "",
    "character": "鼍",
    "traditionalCharacter": "鼉",
    "phonetic": "",
    "means": ["con kỳ đà"],
    "name": "đà",
    "index": 10416
  },
  {
    "phonetic": "",
    "means": ["cái vạc, cái đỉnh"],
    "summary": "",
    "name": "đỉnh",
    "character": "鼎",
    "index": 10417
  },
  {
    "phonetic": "",
    "means": ["cái vạc lớn"],
    "summary": "",
    "name": "nãi",
    "character": "鼐",
    "index": 10418
  },
  {
    "phonetic": "",
    "means": ["cái trống", "gảy đàn"],
    "summary": "",
    "name": "cổ",
    "character": "鼓",
    "index": 10419
  },
  {
    "phonetic": "",
    "means": ["tiếng trống đánh tùng tùng"],
    "summary": "",
    "name": "đông",
    "character": "鼕",
    "index": 10420
  },
  {
    "phonetic": "",
    "means": ["cái trống cơm"],
    "summary": "",
    "name": "đào",
    "character": "鼗",
    "index": 10421
  },
  {
    "phonetic": "bế",
    "means": ["trống trận"],
    "summary": "",
    "name": "bề",
    "character": "鼙",
    "index": 10422
  },
  {
    "phonetic": "",
    "means": ["con chuột"],
    "summary": "",
    "name": "thử",
    "character": "鼠",
    "index": 10423
  },
  {
    "phonetic": "phân",
    "means": ["con chuột cống"],
    "summary": "",
    "name": "phẫn",
    "character": "鼢",
    "index": 10424
  },
  {
    "phonetic": "",
    "means": ["chuột xạ (da rất quý)"],
    "summary": "",
    "name": "cù",
    "character": "鼩",
    "index": 10425
  },
  {
    "phonetic": "",
    "means": ["con chồn, con sóc"],
    "summary": "",
    "name": "dứu",
    "character": "鼬",
    "index": 10426
  },
  {
    "phonetic": "",
    "means": ["con sóc bay"],
    "summary": "",
    "name": "ngô",
    "character": "鼯",
    "index": 10427
  },
  {
    "phonetic": "",
    "summary": "",
    "name": "tinh",
    "character": "鼱",
    "index": 10428
  },
  {
    "phonetic": "",
    "means": ["con chuột chũi"],
    "summary": "",
    "name": "yển",
    "character": "鼴",
    "index": 10429
  },
  {
    "phonetic": "",
    "means": ["chuột nhắt"],
    "summary": "",
    "name": "hề",
    "character": "鼷",
    "index": 10430
  },
  {
    "phonetic": "",
    "summary": "",
    "name": "yển",
    "character": "鼹",
    "index": 10431
  },
  {
    "phonetic": "tì, tị",
    "means": ["cái mũi", "khuyết, lỗ", "núm", "đầu tiên"],
    "summary": "",
    "name": "tỵ",
    "character": "鼻",
    "index": 10432
  },
  {
    "phonetic": "",
    "summary": "",
    "name": "cừu",
    "character": "鼽",
    "index": 10433
  },
  {
    "phonetic": "hãn",
    "means": ["ngáy khi ngủ"],
    "summary": "",
    "name": "han",
    "character": "鼾",
    "index": 10434
  },
  {
    "phonetic": "",
    "summary": "",
    "name": "tra",
    "character": "齄",
    "index": 10435
  },
  {
    "phonetic": "trai, tê, tư, tế, tễ",
    "means": ["đều, không so le", "nước Tề, đất Tề"],
    "summary": "",
    "name": "tề",
    "character": "齊",
    "index": 10436
  },
  {
    "phonetic": "",
    "means": ["ăn chay", "nhà học"],
    "summary": "",
    "name": "trai",
    "character": "齋",
    "index": 10437
  },
  {
    "phonetic": "",
    "means": ["nổi cáu, giận"],
    "summary": "",
    "name": "tễ",
    "character": "齌",
    "index": 10438
  },
  {
    "phonetic": "tư",
    "means": ["đem cho, mang cho", "tiễn đưa"],
    "summary": "",
    "name": "tê",
    "character": "齎",
    "index": 10439
  },
  {
    "summary": "",
    "character": "齐",
    "traditionalCharacter": "齊",
    "phonetic": "trai, tê, tư, tế",
    "means": ["đều, không so le", "nước Tề, đất Tề"],
    "name": "tề",
    "index": 10440
  },
  {
    "summary": "",
    "character": "齑",
    "traditionalCharacter": "齏",
    "phonetic": "",
    "means": ["đồ gia vị"],
    "name": "tê",
    "index": 10441
  },
  {
    "phonetic": "",
    "means": ["răng", "tuổi tác"],
    "summary": "",
    "name": "xỉ",
    "character": "齒",
    "index": 10442
  },
  {
    "phonetic": "",
    "means": ["răng vẩu"],
    "summary": "",
    "name": "bao",
    "character": "齙",
    "index": 10443
  },
  {
    "phonetic": "sài",
    "means": ["nhe răng, nhăn răng"],
    "summary": "",
    "name": "thử",
    "character": "齜",
    "index": 10444
  },
  {
    "phonetic": "thư",
    "means": ["(xem: trở ngữ 齟齬,龃龉)"],
    "summary": "",
    "name": "trở",
    "character": "齟",
    "index": 10445
  },
  {
    "phonetic": "",
    "means": ["tuổi tác"],
    "summary": "",
    "name": "linh",
    "character": "齡",
    "index": 10446
  },
  {
    "phonetic": "ngân",
    "means": ["nhằn xương, gặm xương"],
    "summary": "",
    "name": "khẩn",
    "character": "齦",
    "index": 10447
  },
  {
    "phonetic": "niết",
    "means": ["cắn đứt", "ăn mòn"],
    "summary": "",
    "name": "khiết",
    "character": "齧",
    "index": 10448
  },
  {
    "phonetic": "sức",
    "means": ["(xem: ác xúc 齷齪,龌龊)"],
    "summary": "",
    "name": "xúc",
    "character": "齪",
    "index": 10449
  },
  {
    "phonetic": "",
    "means": ["(xem: trở ngữ 齟齬,龃龉)"],
    "summary": "",
    "name": "ngữ",
    "character": "齬",
    "index": 10450
  },
  {
    "phonetic": "",
    "means": ["cắn"],
    "summary": "",
    "name": "nghĩ",
    "character": "齮",
    "index": 10451
  },
  {
    "phonetic": "",
    "summary": "",
    "name": "châu",
    "character": "齱",
    "index": 10452
  },
  {
    "phonetic": "khủ",
    "means": ["sâu răng, sún răng"],
    "summary": "",
    "name": "củ",
    "character": "齲",
    "index": 10453
  },
  {
    "phonetic": "",
    "summary": "",
    "name": "ngu",
    "character": "齵",
    "index": 10454
  },
  {
    "phonetic": "",
    "means": ["vòm miệng"],
    "summary": "",
    "name": "ngạc",
    "character": "齶",
    "index": 10455
  },
  {
    "phonetic": "",
    "means": ["(xem: ác xúc 齷齪,龌龊)"],
    "summary": "",
    "name": "ác",
    "character": "齷",
    "index": 10456
  },
  {
    "summary": "",
    "character": "齿",
    "traditionalCharacter": "齒",
    "phonetic": "",
    "means": ["răng", "tuổi tác"],
    "name": "xỉ",
    "index": 10457
  },
  {
    "summary": "",
    "character": "龀",
    "traditionalCharacter": "齔",
    "phonetic": "",
    "means": ["thay răng sữa thành răng khôn"],
    "name": "sấn",
    "index": 10458
  },
  {
    "summary": "",
    "character": "龃",
    "traditionalCharacter": "齟",
    "phonetic": "",
    "means": ["(xem: trở ngữ 齟齬,龃龉)"],
    "name": "trở",
    "index": 10459
  },
  {
    "summary": "",
    "character": "龄",
    "traditionalCharacter": "齡",
    "phonetic": "",
    "means": ["tuổi tác"],
    "name": "linh",
    "index": 10460
  },
  {
    "phonetic": "",
    "means": ["răng vẩu"],
    "summary": "",
    "name": "bao",
    "character": "龅",
    "index": 10461
  },
  {
    "summary": "",
    "character": "龆",
    "traditionalCharacter": "齠",
    "phonetic": "",
    "means": ["gãy răng sữa", "còn trẻ"],
    "name": "điều",
    "index": 10462
  },
  {
    "phonetic": "sài",
    "means": ["nhe răng, nhăn răng"],
    "summary": "",
    "name": "thử",
    "character": "龇",
    "index": 10463
  },
  {
    "summary": "",
    "character": "龈",
    "traditionalCharacter": "齦",
    "phonetic": "ngân",
    "means": ["nhằn xương, gặm xương"],
    "name": "khẩn",
    "index": 10464
  },
  {
    "summary": "",
    "character": "龉",
    "traditionalCharacter": "齬",
    "phonetic": "",
    "means": ["(xem: trở ngữ 齟齬,龃龉)"],
    "name": "ngữ",
    "index": 10465
  },
  {
    "summary": "",
    "character": "龊",
    "traditionalCharacter": "齪",
    "phonetic": "",
    "means": ["(xem: ác xúc 齷齪,龌龊)"],
    "name": "xúc",
    "index": 10466
  },
  {
    "summary": "",
    "character": "龋",
    "traditionalCharacter": " ",
    "phonetic": "khủ",
    "means": ["sâu răng, sún răng"],
    "name": "củ",
    "index": 10467
  },
  {
    "summary": "",
    "character": "龌",
    "traditionalCharacter": " ",
    "phonetic": "",
    "means": ["(xem: ác xúc 齷齪,龌龊)"],
    "name": "ác",
    "index": 10468
  },
  {
    "phonetic": "lũng, sủng",
    "means": ["con rồng"],
    "summary": "",
    "name": "long",
    "character": "龍",
    "index": 10469
  },
  {
    "phonetic": "lung",
    "means": ["nhiều", "khổng lồ", "rối rắm", "họ Bàng"],
    "summary": "",
    "name": "bàng",
    "character": "龐",
    "index": 10470
  },
  {
    "phonetic": "",
    "means": ["họ Cung"],
    "summary": "",
    "name": "cung",
    "character": "龔",
    "index": 10471
  },
  {
    "phonetic": "khám",
    "means": ["cái tháp thờ Phật"],
    "summary": "",
    "name": "kham",
    "character": "龕",
    "index": 10472
  },
  {
    "summary": "",
    "character": "龙",
    "traditionalCharacter": "龍",
    "phonetic": "lũng, sủng",
    "means": ["con rồng"],
    "name": "long",
    "index": 10473
  },
  {
    "summary": "",
    "character": "龚",
    "traditionalCharacter": "龔",
    "phonetic": "",
    "means": ["họ Cung"],
    "name": "cung",
    "index": 10474
  },
  {
    "summary": "",
    "character": "龛",
    "traditionalCharacter": "龕",
    "phonetic": "khám",
    "means": ["cái tháp thờ Phật"],
    "name": "kham",
    "index": 10475
  },
  {
    "phonetic": "cưu, quy, quân",
    "means": ["(xem: khưu từ 龜茲,龟兹)"],
    "summary": "",
    "name": "khưu",
    "character": "龜",
    "index": 10476
  },
  {
    "phonetic": "cưu, quy, quân",
    "means": ["(xem: khưu từ 龜茲,龟兹)"],
    "summary": "",
    "name": "khưu",
    "character": "龟",
    "index": 10477
  },
  {
    "phonetic": "thược",
    "means": ["một thứ nhạc khí như sáo, có 3 lỗ"],
    "summary": "",
    "name": "dược",
    "character": "龠",
    "index": 10478
  },
  {
    "phonetic": "",
    "means": ["kêu, gọi, thỉnh cầu"],
    "summary": "",
    "name": "dụ",
    "character": "龥",
    "index": 10479
  }
]
