[
  {
    "pinyin": ["yí"],
    "character": "冝",
    "etymology": { "phonetic": "", "hint": "", "type": "", "semantic": "" },
    "decomposition": "⿱冖且",
    "radical": "冖",
    "matches": [[0], [0], [1], [1], [1], [1], [1]],
    "definition": "suitable, right, proper"
  },
  {
    "pinyin": ["xiǎn"],
    "character": "冼",
    "etymology": {
      "phonetic": "先",
      "hint": "",
      "type": "pictophonetic",
      "semantic": ""
    },
    "decomposition": "⿰冫先",
    "radical": "冫",
    "matches": [[0], [0], [1], [1], [1], [1], [1], [1]],
    "definition": "surname"
  },
  {
    "pinyin": ["qiāo"],
    "character": "劁",
    "etymology": {
      "phonetic": "焦",
      "hint": "knife",
      "type": "pictophonetic",
      "semantic": "刂"
    },
    "decomposition": "⿰焦刂",
    "radical": "刂",
    "matches": [
      [0],
      [0],
      [0],
      [0],
      [0],
      [0],
      [0],
      [0],
      [0],
      [0],
      [0],
      [0],
      [1],
      [1]
    ],
    "definition": "to castrate, to neuter"
  },
  {
    "pinyin": ["yǒng"],
    "character": "勈",
    "etymology": {
      "phonetic": "甬",
      "hint": "strength",
      "type": "pictophonetic",
      "semantic": "力"
    },
    "decomposition": "⿰甬力",
    "radical": "力",
    "matches": [[0], [0], [0], [0], [0], [0], [0], [1], [1]],
    "definition": "brave"
  },
  {
    "pinyin": ["jiù"],
    "character": "匛",
    "etymology": {
      "phonetic": "久",
      "hint": "",
      "type": "pictophonetic",
      "semantic": "匚"
    },
    "decomposition": "⿷匚久",
    "radical": "匚",
    "matches": [[0], [1], [1], [1], [0]],
    "definition": ""
  },
  {
    "pinyin": ["wěi"],
    "character": "厃",
    "etymology": { "phonetic": "", "hint": "", "type": "", "semantic": "" },
    "decomposition": "⿱⺈厂",
    "radical": "厂",
    "matches": [[0], [0], [1], [1]],
    "definition": "to look upward"
  },
  {
    "pinyin": ["tí"],
    "character": "厗",
    "etymology": {
      "phonetic": "",
      "hint": "A bitter 辛 mineral 厂",
      "type": "ideographic",
      "semantic": ""
    },
    "decomposition": "⿸厂辛",
    "radical": "厂",
    "matches": [[0], [0], [1], [1], [1], [1], [1], [1], [1]],
    "definition": "stone, mineral; antimony"
  },
  {
    "pinyin": ["lěi"],
    "character": "厽",
    "etymology": { "phonetic": "", "hint": "", "type": "", "semantic": "" },
    "decomposition": "⿱厶⿰厶厶",
    "radical": "厶",
    "matches": [[0], [0], [1, 0], [1, 0], [1, 1], [1, 1]],
    "definition": ""
  }
]
