[
  {
    "pinyin": ["luó"],
    "character": "镙",
    "etymology": {
      "phonetic": "累",
      "hint": "metal",
      "type": "pictophonetic",
      "semantic": "钅"
    },
    "decomposition": "⿰钅累",
    "radical": "钅",
    "matches": [
      [0],
      [0],
      [0],
      [0],
      [0],
      [1],
      [1],
      [1],
      [1],
      [1],
      [1],
      [1],
      [1],
      [1],
      [1],
      [1]
    ],
    "definition": ""
  },
  {
    "pinyin": ["sa"],
    "character": "隡",
    "etymology": { "phonetic": "", "hint": "", "type": "", "semantic": "" },
    "decomposition": "⿰阝産",
    "radical": "阝",
    "matches": [
      [0],
      [0],
      [1],
      [1],
      [1],
      [1],
      [1],
      [1],
      [1],
      [1],
      [1],
      [1],
      [1]
    ],
    "definition": ""
  },
  {
    "pinyin": ["huán"],
    "character": "雈",
    "etymology": {
      "phonetic": "艹",
      "hint": "bird",
      "type": "pictophonetic",
      "semantic": "隹"
    },
    "decomposition": "⿱艹隹",
    "radical": "隹",
    "matches": [[0], [0], [0], [0], [1], [1], [1], [1], [1], [1], [1], [1]],
    "definition": "owl"
  },
  {
    "pinyin": ["hū"],
    "character": "雐",
    "etymology": {
      "phonetic": "虍",
      "hint": "bird",
      "type": "pictophonetic",
      "semantic": "隹"
    },
    "decomposition": "⿸虍隹",
    "radical": "虍",
    "matches": [
      [0],
      [0],
      [0],
      [0],
      [0],
      [0],
      [1],
      [1],
      [1],
      [1],
      [1],
      [1],
      [1],
      [1]
    ],
    "definition": "a kind of bird"
  },
  {
    "pinyin": ["guàn"],
    "character": "雚",
    "etymology": {
      "phonetic": "",
      "hint": "bird",
      "type": "pictophonetic",
      "semantic": "隹"
    },
    "decomposition": "⿳艹？隹",
    "radical": "隹",
    "matches": [
      [0],
      [0],
      [0],
      [],
      [],
      [],
      [],
      [],
      [],
      [2],
      [2],
      [2],
      [2],
      [2],
      [2],
      [2],
      [2]
    ],
    "definition": "heron; small cup"
  },
  {
    "pinyin": ["qiáo"],
    "character": "鞒",
    "etymology": {
      "phonetic": "乔",
      "hint": "leather",
      "type": "pictophonetic",
      "semantic": "革"
    },
    "decomposition": "⿰革乔",
    "radical": "革",
    "matches": [
      [0],
      [0],
      [0],
      [0],
      [0],
      [0],
      [0],
      [0],
      [0],
      [1],
      [1],
      [1],
      [1],
      [1],
      [1]
    ],
    "definition": "boot, mud shoe, snowshoe"
  },
  {
    "pinyin": ["biāo"],
    "character": "飑",
    "etymology": {
      "phonetic": "",
      "hint": "Wind 风 that wraps 包 on itself; 包 also provides the pronunciation",
      "type": "ideographic",
      "semantic": ""
    },
    "decomposition": "⿺风包",
    "radical": "风",
    "matches": [[0], [0], [0], [0], [1], [1], [1], [1], [1]],
    "definition": "storm, whirlwind"
  },
  {
    "pinyin": ["juàn"],
    "character": "飬",
    "etymology": {
      "phonetic": "龹",
      "hint": "food",
      "type": "pictophonetic",
      "semantic": "食"
    },
    "decomposition": "⿱龹食",
    "radical": "食",
    "matches": [
      [0],
      [0],
      [0],
      [0],
      [0],
      [0],
      [1],
      [1],
      [1],
      [1],
      [1],
      [1],
      [1]
    ],
    "definition": "to offer a sacrifice"
  },
  {
    "pinyin": ["chā"],
    "character": "馇",
    "etymology": {
      "phonetic": "查",
      "hint": "food",
      "type": "pictophonetic",
      "semantic": "饣"
    },
    "decomposition": "⿰饣查",
    "radical": "饣",
    "matches": [[0], [0], [0], [1], [1], [1], [1], [1], [1], [1], [1], [1]],
    "definition": "to stir, to cook, to boil; porridge"
  }
]
