[
  {
    "pinyin": ["qiè"],
    "character": "藒",
    "etymology": {
      "phonetic": "禾",
      "hint": "herb",
      "type": "pictophonetic",
      "semantic": "艹"
    },
    "decomposition": "⿱艹⿰禾曷",
    "radical": "艹",
    "matches": [
      [0],
      [0],
      [0],
      [0],
      [1, 0],
      [1, 0],
      [1, 0],
      [1, 0],
      [1, 0],
      [1, 1],
      [1, 1],
      [1, 1],
      [1, 1],
      [1, 1],
      [1, 1],
      [1, 1],
      [1, 1],
      [1, 1]
    ],
    "definition": "an aromatic herb"
  },
  {
    "pinyin": ["zhī"],
    "character": "蘵",
    "etymology": {
      "phonetic": "職",
      "hint": "plant",
      "type": "pictophonetic",
      "semantic": "艹"
    },
    "decomposition": "⿱艹職",
    "radical": "艹",
    "matches": [
      [0],
      [0],
      [0],
      [0],
      [1],
      [1],
      [1],
      [1],
      [1],
      [1],
      [1],
      [1],
      [1],
      [1],
      [1],
      [1],
      [1],
      [1],
      [1],
      [1],
      [1],
      [1]
    ],
    "definition": "Physalis angulata"
  },
  {
    "pinyin": ["xīng"],
    "character": "蛵",
    "etymology": {
      "phonetic": "巠",
      "hint": "insect",
      "type": "pictophonetic",
      "semantic": "虫"
    },
    "decomposition": "⿰虫巠",
    "radical": "虫",
    "matches": [
      [0],
      [0],
      [0],
      [0],
      [0],
      [0],
      [1],
      [1],
      [1],
      [1],
      [1],
      [1],
      [1]
    ],
    "definition": "dragonfly"
  },
  {
    "pinyin": ["chūn"],
    "character": "蝽",
    "etymology": {
      "phonetic": "春",
      "hint": "insect",
      "type": "pictophonetic",
      "semantic": "虫"
    },
    "decomposition": "⿰虫春",
    "radical": "虫",
    "matches": [
      [0],
      [0],
      [0],
      [0],
      [0],
      [0],
      [1],
      [1],
      [1],
      [1],
      [1],
      [1],
      [1],
      [1],
      [1]
    ],
    "definition": "bedbug"
  },
  {
    "pinyin": ["jiāo"],
    "character": "蟭",
    "etymology": {
      "phonetic": "焦",
      "hint": "insect",
      "type": "pictophonetic",
      "semantic": "虫"
    },
    "decomposition": "⿰虫焦",
    "radical": "虫",
    "matches": [
      [0],
      [0],
      [0],
      [0],
      [0],
      [0],
      [1],
      [1],
      [1],
      [1],
      [1],
      [1],
      [1],
      [1],
      [1],
      [1],
      [1],
      [1]
    ],
    "definition": "mite, larva; mantis egg"
  },
  {
    "pinyin": ["ni"],
    "character": "袮",
    "etymology": {
      "phonetic": "衤",
      "hint": "you",
      "type": "pictophonetic",
      "semantic": "尔"
    },
    "decomposition": "⿰衤尔",
    "radical": "衤",
    "matches": [[0], [0], [0], [0], [0], [1], [1], [1], [1], [1]],
    "definition": "thee, thou; \"you\" when referring to a diety"
  },
  {
    "pinyin": ["xū"],
    "character": "裇",
    "etymology": {
      "phonetic": "血",
      "hint": "clothes",
      "type": "pictophonetic",
      "semantic": "衤"
    },
    "decomposition": "⿰衤血",
    "radical": "衤",
    "matches": [[0], [0], [0], [0], [0], [1], [1], [1], [1], [1], [1]],
    "definition": "shirt"
  },
  {
    "pinyin": ["xī"],
    "character": "覀",
    "etymology": {
      "phonetic": "",
      "hint": "A bird settling into its nest, representing sunset; compare 東",
      "type": "ideographic",
      "semantic": ""
    },
    "decomposition": "？",
    "radical": "覀",
    "matches": [[], [], [], [], [], []],
    "definition": "west, western, westward"
  },
  {
    "pinyin": ["yán"],
    "character": "訁",
    "etymology": {
      "phonetic": "",
      "hint": "A tongue sticking out of a mouth 口",
      "type": "ideographic",
      "semantic": ""
    },
    "decomposition": "？",
    "radical": "訁",
    "matches": [[], [], [], [], [], [], []],
    "definition": "words, speech; to speak, to say"
  }
]
