[
  {
    "pinyin": ["xué"],
    "character": "泶",
    "etymology": { "phonetic": "", "hint": "", "type": "", "semantic": "" },
    "decomposition": "⿱⿱⺍冖水",
    "radical": "水",
    "matches": [[0, 0], [0, 0], [0, 0], [0, 1], [0, 1], [1], [1], [1], [1]],
    "definition": ""
  },
  {
    "pinyin": ["shī"],
    "character": "浉",
    "etymology": {
      "phonetic": "师",
      "hint": "water",
      "type": "pictophonetic",
      "semantic": "氵"
    },
    "decomposition": "⿰氵师",
    "radical": "氵",
    "matches": [[0], [0], [0], [1], [1], [1], [1], [1], [1]],
    "definition": "a river in Henan province"
  },
  {
    "pinyin": ["wéi"],
    "character": "涠",
    "etymology": {
      "phonetic": "围",
      "hint": "water",
      "type": "pictophonetic",
      "semantic": "氵"
    },
    "decomposition": "⿰氵围",
    "radical": "氵",
    "matches": [[0], [0], [0], [1], [1], [1], [1], [1], [1], [1]],
    "definition": "still water"
  },
  {
    "pinyin": ["bàn"],
    "character": "湴",
    "etymology": {
      "phonetic": "並",
      "hint": "water",
      "type": "pictophonetic",
      "semantic": "氵"
    },
    "decomposition": "⿰氵並",
    "radical": "氵",
    "matches": [[0], [0], [0], [1], [1], [1], [1], [1], [1], [1], [1]],
    "definition": "mud, mire"
  },
  {
    "pinyin": ["xì"],
    "character": "滊",
    "etymology": {
      "phonetic": "氣",
      "hint": "water",
      "type": "pictophonetic",
      "semantic": "氵"
    },
    "decomposition": "⿰氵氣",
    "radical": "氵",
    "matches": [
      [0],
      [0],
      [0],
      [1],
      [1],
      [1],
      [1],
      [1],
      [1],
      [1],
      [1],
      [1],
      [1]
    ],
    "definition": "saline pond; the name of a river"
  },
  {
    "pinyin": ["shè"],
    "character": "滠",
    "etymology": {
      "phonetic": "聂",
      "hint": "water",
      "type": "pictophonetic",
      "semantic": "氵"
    },
    "decomposition": "⿰氵聂",
    "radical": "氵",
    "matches": [
      [0],
      [0],
      [0],
      [1],
      [1],
      [1],
      [1],
      [1],
      [1],
      [1],
      [1],
      [1],
      [1]
    ],
    "definition": "a river in Hubei province"
  },
  {
    "pinyin": ["lǎn"],
    "character": "漤",
    "etymology": {
      "phonetic": "婪",
      "hint": "water",
      "type": "pictophonetic",
      "semantic": "氵"
    },
    "decomposition": "⿰氵婪",
    "radical": "氵",
    "matches": [
      [0],
      [0],
      [0],
      [1],
      [1],
      [1],
      [1],
      [1],
      [1],
      [1],
      [1],
      [1],
      [1],
      [1]
    ],
    "definition": "to marinate in salt"
  },
  {
    "pinyin": ["pū"],
    "character": "潽",
    "etymology": {
      "phonetic": "普",
      "hint": "water",
      "type": "pictophonetic",
      "semantic": "氵"
    },
    "decomposition": "⿰氵普",
    "radical": "氵",
    "matches": [
      [0],
      [0],
      [0],
      [1],
      [1],
      [1],
      [1],
      [1],
      [1],
      [1],
      [1],
      [1],
      [1],
      [1],
      [1]
    ],
    "definition": "to boil over"
  },
  {
    "pinyin": ["suī"],
    "character": "濉",
    "etymology": {
      "phonetic": "睢",
      "hint": "water",
      "type": "pictophonetic",
      "semantic": "氵"
    },
    "decomposition": "⿰氵睢",
    "radical": "氵",
    "matches": [
      [0],
      [0],
      [0],
      [1],
      [1],
      [1],
      [1],
      [1],
      [1],
      [1],
      [1],
      [1],
      [1],
      [1],
      [1],
      [1]
    ],
    "definition": "the name of a river"
  },
  {
    "pinyin": ["fèn"],
    "character": "瀵",
    "etymology": {
      "phonetic": "糞",
      "hint": "water",
      "type": "pictophonetic",
      "semantic": "氵"
    },
    "decomposition": "⿰氵糞",
    "radical": "氵",
    "matches": [
      [0],
      [0],
      [0],
      [1],
      [1],
      [1],
      [1],
      [1],
      [1],
      [1],
      [1],
      [1],
      [1],
      [1],
      [1],
      [1],
      [1],
      [1],
      [1],
      [1]
    ],
    "definition": "the name of a river"
  },
  {
    "pinyin": ["kài"],
    "character": "炏",
    "etymology": {
      "phonetic": "",
      "hint": "Two blades of grass; compare 艸",
      "type": "pictographic",
      "semantic": ""
    },
    "decomposition": "⿰火火",
    "radical": "火",
    "matches": [[0], [0], [0], [0], [1], [1], [1], [1]],
    "definition": "grass"
  },
  {
    "pinyin": ["hū"],
    "character": "烀",
    "etymology": {
      "phonetic": "乎",
      "hint": "fire",
      "type": "pictophonetic",
      "semantic": "火"
    },
    "decomposition": "⿰火乎",
    "radical": "火",
    "matches": [[0], [0], [0], [0], [1], [1], [1], [1], [1]],
    "definition": "to simmer, to cook over a slow fire"
  },
  {
    "pinyin": ["jú"],
    "character": "焗",
    "etymology": {
      "phonetic": "局",
      "hint": "fire",
      "type": "pictophonetic",
      "semantic": "火"
    },
    "decomposition": "⿰火局",
    "radical": "火",
    "matches": [[0], [0], [0], [0], [1], [1], [1], [1], [1], [1], [1]],
    "definition": "to bake, to roast; to suffocate; stuffy"
  },
  {
    "pinyin": ["hōng"],
    "character": "焢",
    "etymology": {
      "phonetic": "空",
      "hint": "fire",
      "type": "pictophonetic",
      "semantic": "火"
    },
    "decomposition": "⿰火空",
    "radical": "火",
    "matches": [[0], [0], [0], [0], [1], [1], [1], [1], [1], [1], [1], [1]],
    "definition": "anger, rage; slow-braised pork belly"
  },
  {
    "pinyin": ["cōng"],
    "character": "熜",
    "etymology": {
      "phonetic": "悤",
      "hint": "fire",
      "type": "pictophonetic",
      "semantic": "火"
    },
    "decomposition": "⿰火悤",
    "radical": "火",
    "matches": [
      [0],
      [0],
      [0],
      [0],
      [1],
      [1],
      [1],
      [1],
      [1],
      [1],
      [1],
      [1],
      [1],
      [1],
      [1]
    ],
    "definition": "chimney; torch"
  },
  {
    "pinyin": ["shāng"],
    "character": "熵",
    "etymology": {
      "phonetic": "商",
      "hint": "fire",
      "type": "pictophonetic",
      "semantic": "火"
    },
    "decomposition": "⿰火商",
    "radical": "火",
    "matches": [
      [0],
      [0],
      [0],
      [0],
      [1],
      [1],
      [1],
      [1],
      [1],
      [1],
      [1],
      [1],
      [1],
      [1],
      [1]
    ],
    "definition": "entropy"
  }
]
